会社名,電話番号,都道府県,市区郡,姓,アウトorイン,リード状況,備考,リストランク,業種（選択）,Web サイト
医療法人社団 永生会,042-661-4121,東京,八王子市椚田町583-15,なし,アウト,架電可,"",【介護用】「D」医療法人・公営,介護,http://yumexnet.jp/kanto/job_EW911_0182.html
社会福祉法人　にんじんの会,042-300-6035,東京,国分寺市西恋ヶ窪1-50-1,なし,アウト,架電可,"",【介護用】「C」社会福祉法人,介護,http://yumexnet.jp/kanto/job_EW911_0019.html
株式会社やさしい手　４店舗合同募集,0120-115-313,東京,三鷹市北野2丁目3-9,なし,アウト,架電可,"",【介護用】「A」営利法人,介護,http://yumexnet.jp/kanto/job_RZ911_0077.html
(株)やさしい手 (A)日野店(B)日野南平巡回,0120-115-313,東京,日野市南平4-40-5,なし,アウト,架電可,"",【介護用】「A」営利法人,介護,http://yumexnet.jp/kanto/job_RZ911_0078.html
青梅腎クリニック,0428-23-8100,東京,青梅市河辺町5-1-4,なし,アウト,架電可,"","",介護,http://yumexnet.jp/kanto/job_EW911_0105.html
医療法人社団 長生会,0428-74-5121,東京,青梅市成木4-576,なし,アウト,架電可,"",【介護用】「D」医療法人・公営,介護,http://yumexnet.jp/kanto/job_ES911_0107.html
特別養護老人ホーム やすらぎの家,0428-23-7020,東京,青梅市吹上88,なし,アウト,架電可,"","",介護,http://yumexnet.jp/kanto/job_RZ911_0140.html
医療法人社団　吉祥寺あさひ病院,0422-22-1120,東京,武蔵野市吉祥寺本町1-30-12,なし,アウト,架電可,"",【介護用】「D」医療法人・公営,介護,http://yumexnet.jp/kanto/job_EW911_0263.html
デイサービスセンター遊・府中,045-533-3371,東京,府中市四谷2-75-2,なし,アウト,架電可,"","",介護,http://yumexnet.jp/kanto/job_RZ911_0329.html
特別養護老人ホーム 伊奈平苑,042-560-3916,東京,武蔵村山市伊奈平6-14-2,なし,アウト,架電可,"","",介護,http://yumexnet.jp/kanto/job_ES911_0008.html
社会福祉法人竹恵会(特別養護老人ホームけんちの里内),042-472-0657,東京,久留米市下里4-2-50,なし,アウト,架電可,"",【介護用】「C」社会福祉法人,介護,http://yumexnet.jp/kanto/job_EW911_0026.html
わたしんち (A)花小金井 (B)上水本町,042-497-4917,東京,小平市花小金井南町2-5-8,なし,アウト,架電可,"","",介護,http://yumexnet.jp/kanto/job_EW911_0029.html
介護付き有料老人ホーム　たのしい家　八王子高倉,03-3254-5721,東京,八王子市高倉町17-3,なし,アウト,架電可,"","",介護,http://yumexnet.jp/kanto/job_EW911_0034.html
社会福祉法人　東京恵明学園　乳児部,0428-23-0241,東京,青梅市友田町2-714-1,なし,アウト,架電可,"",【介護用】「C」社会福祉法人,介護,http://yumexnet.jp/kanto/job_EW911_0041.html
特別養護老人ホーム 羽村園,042-550-7888,東京,羽村市羽690-17,なし,アウト,架電可,"","",介護,http://yumexnet.jp/kanto/job_EW911_0054.html
訪問看護・介護ステーション サンケアネット,042-313-0575,東京,村山市秋津町2-31-18,なし,アウト,架電可,"","",介護,http://yumexnet.jp/kanto/job_RZ911_0072.html
社会福祉法人 アゼリヤ会,042-651-6352,東京,八王子市美山町1463,なし,アウト,架電可,"",【介護用】「C」社会福祉法人,介護,http://yumexnet.jp/kanto/job_RZ911_0085.html
特別養護老人ホーム 神明園,042-579-2711,東京,羽村市神明台4-2-2,なし,アウト,架電可,"","",介護,http://yumexnet.jp/kanto/job_RZ911_0088.html
社会福祉法人 至誠学舎立川　至誠ホーム,042-527-0031,東京,立川市錦町6-28-15,なし,アウト,架電可,"",【介護用】「C」社会福祉法人,介護,http://yumexnet.jp/kanto/job_RZ911_0090.html
特別養護老人ホーム ヨコタホーム,042-553-6633,東京,福生市福生2300-4,なし,アウト,架電可,"","",介護,http://yumexnet.jp/kanto/job_EW911_0094.html
株式会社アスモ介護サービス,0120-683-302,東京,三鷹市中原3-4-7,なし,アウト,架電可,"",【介護用】「A」営利法人,介護,http://yumexnet.jp/kanto/job_RZ911_0105.html
医療法人社団葵会 西多摩病院,042-554-0838,東京,羽村市双葉町2-21-1,なし,アウト,架電可,"",【介護用】「D」医療法人・公営,介護,http://yumexnet.jp/kanto/job_EW911_0109.html
デイホームゆりの木(A)東大和(B)武蔵村山,0120-808-563,東京,大和市奈良橋6-761-1-1F,なし,アウト,架電可,"","",介護,http://yumexnet.jp/kanto/job_RZ911_0113.html
デイホームゆりの木(A)東大和(B)武蔵村山,0120-808-563,東京,大和市奈良橋6-761-1-1F,なし,アウト,架電可,"","",介護,http://yumexnet.jp/kanto/job_RZ911_0114.html
医療法人社団 珠泉会,080-9411-1841,東京,あきる野市伊奈477-1,なし,アウト,架電可,"",【介護用】「D」医療法人・公営,介護,http://yumexnet.jp/kanto/job_RZ911_0117.html
富士の家　松原,042-500-0005,東京,昭島市松原町5丁目8-17,なし,アウト,架電可,"","",介護,http://yumexnet.jp/kanto/job_EW911_0118.html
社会福祉法人ゆたか会　よつば保育園,042-313-2415,東京,府中市緑町2-31-8,なし,アウト,架電可,"",【介護用】「C」社会福祉法人,介護,http://yumexnet.jp/kanto/job_EW911_0120.html
障害者支援施設　花の里,0428-25-1641,東京,青梅市長淵5-1080-2,なし,アウト,架電可,"","",介護,http://yumexnet.jp/kanto/job_RZ911_0121.html
(株)シルバービレッジ,042-686-3855,東京,"",なし,アウト,架電可,"",【介護用】「A」営利法人,介護,http://yumexnet.jp/kanto/job_EW911_0124.html
(社福)共助会 特別養護老人ホーム 福寿園,042-664-6121,東京,八王子市南浅川町2883番2,なし,アウト,架電可,"","",介護,http://yumexnet.jp/kanto/job_RZ911_0132.html
社会福祉法人 梅の樹会 フラワープラム,042-556-5755,東京,西多摩郡瑞穂町大字長岡長谷部83-1,なし,アウト,架電可,"",【介護用】「C」社会福祉法人,介護,http://yumexnet.jp/kanto/job_EW911_0133.html
特別養護老人ホーム 塩船園,0428-21-1011,東京,青梅市塩船257-1,なし,アウト,架電可,"","",介護,http://yumexnet.jp/kanto/job_RZ911_0134.html
株式会社 大起エンゼルヘルプ,03-3892-1331,東京,"",なし,アウト,架電可,"",【介護用】「A」営利法人,介護,http://yumexnet.jp/kanto/job_RZ911_0139.html
介護老人保健施設 武蔵野徳洲苑,042-465-0800,東京,西市向台町3丁目5番地57号,なし,アウト,架電可,"","",介護,http://yumexnet.jp/kanto/job_EW911_0142.html
河北医療財団 多摩事業部,042-374-7168,東京,多摩市貝取1431-3,なし,アウト,架電可,"","",介護,http://yumexnet.jp/kanto/job_EW911_0156.html
河北医療財団 多摩事業部,042-374-7168,東京,多摩市貝取1431-3,なし,アウト,架電可,"","",介護,http://yumexnet.jp/kanto/job_EW911_0157.html
東京海上日動ベターライフサービス(株),03-5717-1830,東京,多摩市諏訪2-12,なし,アウト,架電可,"",【介護用】「A」営利法人,介護,http://yumexnet.jp/kanto/job_EW911_0169.html
社会福祉法人リブリー すばる,042-476-1081,東京,久留米市前沢5-5-8,なし,アウト,架電可,"",【介護用】「C」社会福祉法人,介護,http://yumexnet.jp/kanto/job_RZ911_0172.html
(仮称)介護老人保健施設 プラチナ・ヴィラ東大和,0120-975-613,東京,大和市芋窪5-1106-5,なし,アウト,架電可,"","",介護,http://yumexnet.jp/kanto/job_RZ911_0175.html
株式会社木下の介護,0120-777-920,東京,新宿区西新宿6-5-1,なし,アウト,架電可,"",【介護用】「A」営利法人,介護,http://yumexnet.jp/kanto/job_EW911_0179.html
ツクイ　3事業所合同募集,042-359-6151,東京,国分寺市西恋ヶ窪3-6-10,なし,アウト,架電可,"","",介護,http://yumexnet.jp/kanto/job_EW911_0207.html
医療法人社団　倭林会　武蔵野台病院,0428-31-6632,東京,青梅市今井1-2586,なし,アウト,架電可,"",【介護用】「D」医療法人・公営,介護,http://yumexnet.jp/kanto/job_EW911_0209.html
ツクイ　(A)調布菊野台 (B)狛江,042-443-6520,東京,調布市菊野台2-45-4,なし,アウト,架電可,"","",介護,http://yumexnet.jp/kanto/job_EW911_0223.html
公益財団法人東京YWCA わいわい学童クラブ,042-442-6081,東京,調布市国領町7-11-2,なし,アウト,架電可,"","",介護,http://yumexnet.jp/kanto/job_RZ911_0230.html
特別養護老人ホーム 桧原サナホーム,042-598-1101,東京,西多摩郡檜原村3791-4,なし,アウト,架電可,"","",介護,http://yumexnet.jp/kanto/job_RZ911_0242.html
登芙喜(とぶき) 心成苑,042-692-2926,東京,八王子市戸吹町1495,なし,アウト,架電可,"","",介護,http://yumexnet.jp/kanto/job_EW911_0251.html
登芙喜(とぶき) 心成苑,042-692-2926,東京,八王子市戸吹町1495,なし,アウト,架電可,"","",介護,http://yumexnet.jp/kanto/job_EW911_0252.html
社会福祉法人 緑樹会　ラぺ日野,042-506-5078,東京,日野市程久保2-27-1,なし,アウト,架電可,"",【介護用】「C」社会福祉法人,介護,http://yumexnet.jp/kanto/job_RZ911_0268.html
社会福祉法人　福寿会,042-539-2910,東京,福生市北田園1-56-1,なし,アウト,架電可,"",【介護用】「C」社会福祉法人,介護,http://yumexnet.jp/kanto/job_RZ911_0304.html
河北医療財団 多摩事業部,042-374-7168,東京,多摩市貝取1431-3,なし,アウト,架電可,"","",介護,http://yumexnet.jp/kanto/job_RZ911_0305.html
社会福祉法人 恵比寿会 フェローホームズ,042-523-7601,東京,立川市富士見町2-36-43,なし,アウト,架電可,"",【介護用】「C」社会福祉法人,介護,http://yumexnet.jp/kanto/job_RZ911_0308.html
医療法人社団 慶成会 青梅慶友病院,0120-000-819,東京,青梅市大門1−681,なし,アウト,架電可,"",【介護用】「D」医療法人・公営,介護,http://yumexnet.jp/kanto/job_EW911_0310.html
(1)訪問入浴にじゅうまる　(2)デイサービスにじゅうまる,042-343-0290,東京,小平市上水南町3-4-26,なし,アウト,架電可,"","",介護,http://yumexnet.jp/kanto/job_EW911_0359.html
サロンデイ稲城,045-914-8203,東京,稲城市大丸313-1,なし,アウト,架電可,"","",介護,http://yumexnet.jp/kanto/job_EW911_0372.html
デイサービス本舗　狛江・烏山,03-5761-5757,東京,狛江市中和泉2-12-15,なし,アウト,架電可,"","",介護,http://yumexnet.jp/kanto/job_RZ911_0372.html
社会福祉法人平尾会 特別養護老人ホームひらお苑,042-331-5666,東京,稲城市平尾2-49-20,なし,アウト,架電可,"",【介護用】「C」社会福祉法人,介護,http://yumexnet.jp/kanto/job_RZ911_0376.html
東京海上日動ベターライフサービス(株),03-5717-1830,東京,府中市美好町3-13-3,なし,アウト,架電可,"",【介護用】「A」営利法人,介護,http://yumexnet.jp/kanto/job_RZ911_0389.html
特別養護老人ホーム　らくえん深大寺,042-443-1294,東京,調布市佐須町1-26-1,なし,アウト,架電可,"","",介護,http://yumexnet.jp/kanto/job_RZ911_0393.html
株式会社木下の介護,0120-777-920,東京,新宿区西新宿6-5-1,なし,アウト,架電可,"",【介護用】「A」営利法人,介護,http://yumexnet.jp/kanto/job_RZ911_0401.html
医療法人社団 佑樹会 介護老人保健施設 ふれあいの里,042-352-6633,東京,府中市押立町1-9-1,なし,アウト,架電可,"",【介護用】「D」医療法人・公営,介護,http://yumexnet.jp/kanto/job_RZ911_0415.html
特別養護老人ホーム 山水園,042-651-6281,東京,八王子市西寺方町303,なし,アウト,架電可,"","",介護,http://yumexnet.jp/kanto/job_EW911_0445.html
西府駅ゆうがお歯科医院,042-319-1067,東京,府中市本宿町1-46-8,なし,アウト,架電可,"",【介護用】「D」医療法人・公営,介護,http://yumexnet.jp/kanto/job_EW911_0469.html
社会福祉法人 多摩養育園,042-623-3388,東京,八王子市,なし,アウト,架電可,"",【介護用】「C」社会福祉法人,介護,http://yumexnet.jp/kanto/job_EW911_0479.html
河北医療財団 多摩事業部,042-374-7168,東京,多摩市貝取1431-3,なし,アウト,架電可,"","",介護,http://yumexnet.jp/kanto/job_EW911_0595.html
くまのみ訪問看護ステーション,042-641-0110,東京,八王子市台町２−２２−７,なし,アウト,架電可,"","",介護,http://yumexnet.jp/kanto/job_EW911_0596.html
社会福祉法人平尾会 特別養護老人ホームひらお苑,042-331-5666,東京,稲城市平尾2-49-20,なし,アウト,架電可,"",【介護用】「C」社会福祉法人,介護,http://yumexnet.jp/kanto/job_EK911_0762.html
社会福祉法人　明日檜　シルクロード鑓水,042-674-1710,東京,八王子市鑓水141番地,なし,アウト,架電可,"",【介護用】「C」社会福祉法人,介護,http://yumexnet.jp/kanto/job_EK911_0805.html
医療法人社団 慶成会 よみうりランド 慶友病院,0120-543-626,東京,稲城市矢野口3294番地,なし,アウト,架電可,"",【介護用】「D」医療法人・公営,介護,http://yumexnet.jp/kanto/job_EW911_0037.html
株式会社 白十字ファーマシー,042-461-2101,東京,狛江市中和泉5-31-19,なし,アウト,架電可,"",【介護用】「A」営利法人,介護,http://yumexnet.jp/kanto/job_EW911_0056.html
(医)悠悠会 立川オアシスメンタルクリニック,042-527-6811,東京,立川市曙町2-3-4,なし,アウト,架電可,"",【介護用】「D」医療法人・公営,介護,http://yumexnet.jp/kanto/job_EW911_0064.html
ドリームボックス(A)中神 (B)拝島 (C)河辺,042-512-8924,東京,昭島市玉川町2-4-11,なし,アウト,架電可,"","",介護,http://yumexnet.jp/kanto/job_EW911_0071.html
医療法人社団　浩央会　デイケアこきん,042-382-3081,東京,小金井市町4−37−26,なし,アウト,架電可,"",【介護用】「D」医療法人・公営,介護,http://yumexnet.jp/kanto/job_RZ911_0082.html
樹楽 デイサービス みんなのわ,042-649-9555,東京,八王子市片倉町1395番21号,なし,アウト,架電可,"","",介護,http://yumexnet.jp/kanto/job_RZ911_0100.html
株式会社　KRL(ケイアールエル),0422-26-5503,東京,三鷹市新川6-9-28　SSビル2F,なし,アウト,架電可,"",【介護用】「A」営利法人,介護,http://yumexnet.jp/kanto/job_EW911_0110.html
葉隠勇進株式会社　子育て支援事業部,0120-956-043,東京,渋谷区恵比寿1-21-3 恵比寿NRビル６F,なし,アウト,架電可,"",【介護用】「A」営利法人,介護,http://yumexnet.jp/kanto/job_EW911_0114.html
葉隠勇進株式会社　子育て支援事業部,0120-956-043,東京,渋谷区恵比寿1-21-3 恵比寿NRビル６F,なし,アウト,架電可,"",【介護用】「A」営利法人,介護,http://yumexnet.jp/kanto/job_EW911_0115.html
中嶋耳鼻咽喉科,042-401-0497,東京,国分寺市元町4-14-1,なし,アウト,架電可,"","",介護,http://yumexnet.jp/kanto/job_EW911_0126.html
ドリームボックス多摩センター,042-400-5895,東京,多摩市山王下1-13-12,なし,アウト,架電可,"","",介護,http://yumexnet.jp/kanto/job_EW911_0136.html
上水本町オレンジ薬局,044-930-1125,東京,小平市上水本町3-1641-2,なし,アウト,架電可,"","",介護,http://yumexnet.jp/kanto/job_RZ911_0173.html
よなが歯科医院,042-575-1285,東京,国分寺市戸倉3-24-20,なし,アウト,架電可,"",【介護用】「D」医療法人・公営,介護,http://yumexnet.jp/kanto/job_EW911_0195.html
医療法人社団 慶心会 多摩永山腎・内科クリニック,042-311-2417,東京,多摩市永山1-4,なし,アウト,架電可,"",【介護用】「D」医療法人・公営,介護,http://yumexnet.jp/kanto/job_RZ911_0195.html
(株)やさしい手甲府　八王子南事業所,042-669-0812,東京,八王子市寺田町300,なし,アウト,架電可,"",【介護用】「A」営利法人,介護,http://yumexnet.jp/kanto/job_RZ911_0199.html
東菱薬品工業(株) 青梅工場,0428-31-7224,東京,青梅市末広町1-3-4,なし,アウト,架電可,"",【介護用】「A」営利法人,介護,http://yumexnet.jp/kanto/job_EW911_0203.html
高 橋 薬 局 / (有)ファルマック　,042-481-5008,東京,調布市菊野台1-53-11,なし,アウト,架電可,"","",介護,http://yumexnet.jp/kanto/job_RZ911_0212.html
ジュンレディースクリニック小平,042-329-4103,東京,小平市喜平町1-14-20,なし,アウト,架電可,"","",介護,http://yumexnet.jp/kanto/job_EW911_0221.html
株式会社ベネッセスタイルケア,0120-934-314,東京,国分寺市本多3-1-18,なし,アウト,架電可,"",【介護用】「A」営利法人,介護,http://yumexnet.jp/kanto/job_EW911_0222.html
さくらサポート　緑町,090-9643-4169,東京,小金井市緑町5-14-5,なし,アウト,架電可,"","",介護,http://yumexnet.jp/kanto/job_EW911_0239.html
さくらサポート　住吉町,090-9643-4169,東京,西市住吉町2-2-11,なし,アウト,架電可,"","",介護,http://yumexnet.jp/kanto/job_EW911_0240.html
みつぎ調剤薬局,042-569-0338,東京,武蔵村山市三ツ木3-42,なし,アウト,架電可,"","",介護,http://yumexnet.jp/kanto/job_EW911_0250.html
(有)ケアスタッフ 京王八王子事業所,042-628-1151,東京,八王子市中野上町1-8-22,なし,アウト,架電可,"","",介護,http://yumexnet.jp/kanto/job_EW911_0260.html
ドリームボックス(A)立川 (B)国立,042-512-8924,東京,国立市3-6-15 1Ｆ,なし,アウト,架電可,"",【介護用】「D」医療法人・公営,介護,http://yumexnet.jp/kanto/job_RZ911_0267.html
医療法人社団 慶成会 よみうりランド 慶友病院,0120-543-626,東京,稲城市矢野口3294番地,なし,アウト,架電可,"",【介護用】「D」医療法人・公営,介護,http://yumexnet.jp/kanto/job_EK911_0286.html
アスカ歯科医院,042-538-1184,東京,立川市柏町1-20-7,なし,アウト,架電可,"",【介護用】「D」医療法人・公営,介護,http://yumexnet.jp/kanto/job_EW911_0350.html
デイホール きらり,042-650-6355,東京,八王子市川口町1791,なし,アウト,架電可,"","",介護,http://yumexnet.jp/kanto/job_EW911_0353.html
特定非営利活動法人 武蔵野の里,042-471-4995,東京,久留米市本町12-9 貫井総業ビル2階,なし,アウト,架電可,"",【介護用】「B」NPO法人・一般社団法人,介護,http://yumexnet.jp/kanto/job_EW911_0371.html
おぎもと内科クリニック,042-489-6658,東京,調布市国領町2-13-8,なし,アウト,架電可,"","",介護,http://yumexnet.jp/kanto/job_RZ911_0412.html
ジュンレディースクリニック小平,042-329-4103,東京,小平市喜平町1-14-20,なし,アウト,架電可,"","",介護,http://yumexnet.jp/kanto/job_RZ911_0427.html
貝原レディースクリニック,042-352-8341,東京,府中市府中町2-5-8,なし,アウト,架電可,"","",介護,http://yumexnet.jp/kanto/job_RZ911_0437.html
たなべ耳鼻咽喉科,090-6107-0390,東京,三鷹市上連雀9-15-24,なし,アウト,架電可,"","",介護,http://yumexnet.jp/kanto/job_RZ911_0448.html
武蔵野陽和会病院,0422-52-3212,東京,武蔵野市緑町2-1-33,なし,アウト,架電可,"",【介護用】「D」医療法人・公営,介護,http://yumexnet.jp/kanto/job_RZ911_0449.html
うさぎ薬局　調布店,070-3144-6750,東京,調布市富士見町2-14-2,なし,アウト,架電可,"","",介護,http://yumexnet.jp/kanto/job_RZ911_0456.html
株式会社ＯＤＹＳＳＥＹ(オデッセイ),042-588-5507,東京,西多摩郡日の出町平井239-21,なし,アウト,架電可,"",【介護用】「A」営利法人,介護,http://yumexnet.jp/kanto/job_RZ911_0460.html
ありがとう村,042-574-2608,東京,国立市谷保7-26-10,なし,アウト,架電可,"","",介護,http://yumexnet.jp/kanto/job_RZ911_0511.html
特定非営利活動法人 わたげ,042-558-5303,東京,羽村市神明台1-10-13,なし,アウト,架電可,"",【介護用】「B」NPO法人・一般社団法人,介護,http://yumexnet.jp/kanto/job_EW911_0522.html
医療法人社団 慶成会 青梅慶友病院,0120-000-819,東京,青梅市大門1−681,なし,アウト,架電可,"",【介護用】「D」医療法人・公営,介護,http://yumexnet.jp/kanto/job_ES911_0570.html
株式会社　メイズ,042-519-8266,東京,昭島市昭和町3-21-14,なし,アウト,架電可,"",【介護用】「A」営利法人,介護,http://yumexnet.jp/kanto/job_EW911_0031.html
かしの木接骨院,042-569-6692,東京,日野市旭が丘6-11-1,なし,アウト,架電可,"","",介護,http://yumexnet.jp/kanto/job_EW911_0104.html
デイサービスけやき並木,042-666-2314,東京,八王子市千人町3-10-14,なし,アウト,架電可,"","",介護,http://yumexnet.jp/kanto/job_EW911_0143.html
三國歯科医院,042-461-0899,東京,西市柳沢6-4-3,なし,アウト,架電可,"",【介護用】「D」医療法人・公営,介護,http://yumexnet.jp/kanto/job_RZ911_0187.html
永江歯科医院,0422-42-7331,東京,三鷹市下連雀7-10-15,なし,アウト,架電可,"",【介護用】「D」医療法人・公営,介護,http://yumexnet.jp/kanto/job_EW911_0277.html
山川デンタルクリニック,042-532-1331,東京,あきる野市野辺464-11 市川ビル1F,なし,アウト,架電可,"","",介護,http://yumexnet.jp/kanto/job_EW911_0432.html
田中クリニック,042-423-0880,東京,西市ひばりが丘北3-6-31 2F,なし,アウト,架電可,"","",介護,http://yumexnet.jp/kanto/job_EW911_0470.html
あおぞら薬局前沢,042-420-1306,東京,久留米市中央町５−１２−１４,なし,アウト,架電可,"","",介護,http://yumexnet.jp/kanto/job_RZ911_0529.html
