会社名,電話番号,都道府県,市区郡,姓,アウトorイン,リード状況,備考,リストランク,業種（選択）,Web サイト
Puril…プリル…NAIL&EYELASHES　宇都宮店,028-612-8904 ,栃木,宇都宮市,元今泉１-7-21,アウト,架電可,宇都宮駅東口から徒歩８分/上州屋の隣り  鹿沼インターより車で10分,"",ネイル,https://beauty.hotpepper.jp/kr/slnH000252385
Ｌｕｃｉａ（ルチア）　ネイル＆アイラッシュ,028-678-4560 ,栃木,宇都宮市,吉野２-1-12,アウト,架電可,宇都宮文化会館近く,"",ネイル,https://beauty.hotpepper.jp/kr/slnH000314687
ネイル＆スパ　MONROE,0289-63-2223 ,栃木,鹿沼市,貝島町510-15,アウト,架電可,TSUTAYA鹿沼店から徒歩１分/しまむらさん斜向かい,"",ネイル,https://beauty.hotpepper.jp/kr/slnH000375900
GARDEN ベルモール店,028-689-0171 ,栃木,宇都宮市,陽東６-2-1ベルモール2F,アウト,架電可,ベルモール2F、コンタクトのアイシティ並び,"",ネイル,https://beauty.hotpepper.jp/kr/slnH000287032
Puril…プリル…NAIL&EYELASHES　御幸ヶ原店,028-612-6539 ,栃木,宇都宮市,御幸ケ原町５９－１２,アウト,架電可,岡本駅より車で5分/JR宇都宮駅より車で15分日光方面からは、宇都宮インターより10分,"",ネイル,https://beauty.hotpepper.jp/kr/slnH000239923
Can I  Dressy　宇都宮店【キャンアイドレッシー】,028-688-7688 ,栃木,宇都宮市,東簗瀬１-39-4,アウト,架電可,東簗瀬１-39-4,"",ネイル,https://beauty.hotpepper.jp/kr/slnH000367167
７LOOKS　creo(クレオ）　nail & esthe & eyelash,028-615-7311 ,栃木,宇都宮市,西川田町1020-6,アウト,架電可,西川田のスタミナ太郎・マクドナルドがある交差点からスグ。姿川中学校の南側,"",ネイル,https://beauty.hotpepper.jp/kr/slnH000333173
NAIL moA  【ネイルモア】 宇都宮店,028-689-8702 ,栃木,宇都宮市,池上町2-5 K-1ビル,アウト,架電可,東武宇都宮駅徒歩5分,"",ネイル,https://beauty.hotpepper.jp/kr/slnH000288930
ダッシングディバFKD宇都宮店,028-612-8121 ,栃木,宇都宮市,今泉町237FKD宇都宮２階,アウト,架電可,FKD宇都宮【競輪場通り】２階,"",ネイル,https://beauty.hotpepper.jp/kr/slnH000350090
Beauty Spa Supreme　[ビューティースパ シュプレーム],028-680-5454 ,栃木,宇都宮市,元今泉５－１３－１４　パークウエスト２F,アウト,架電可,東宿郷のカンセキ裏・ジンギスカンカフェじん助の２Ｆ,"",ネイル,https://beauty.hotpepper.jp/kr/slnH000253883
NAIL SALON QUILL　宇都宮店,028-627-0916 ,栃木,宇都宮市,錦２-4-1ファミリオNAKAHARA１階,アウト,架電可,FKD宇都宮店近く。,"",ネイル,https://beauty.hotpepper.jp/kr/slnH000037905
ビューティサロンVenus(ヴィーナス）,028-688-8245 ,栃木,宇都宮市,中央１-8-7サニープレイス銀杏１－A,アウト,架電可,東武宇都宮駅徒歩5分！市役所近くの松が峰２丁目交差点そば,"",ネイル,https://beauty.hotpepper.jp/kr/slnH000348434
BRISE ～ブライズ～,028-678-9846 ,栃木,宇都宮市,北一の沢町4-10　ジュネスガーデン　101,アウト,架電可,北一の沢町・ガソリンスタンドｅｓｓｏから車で１分・TSUTAYAから車で１分,"",ネイル,https://beauty.hotpepper.jp/kr/slnH000216981
ネイルサロン Allure&アイラッシュサロン ETERNO 戸祭店 by QUATRO 宇都宮,028-650-4090 ,栃木,宇都宮市,下戸祭１－５－９,アウト,架電可,JR宇都宮駅車10分。競輪場通り。県庁から車5分,"",ネイル,https://beauty.hotpepper.jp/kr/slnH000239746
ネイルサロン Allure & アイラッシュサロン ETERNO インターパーク店 by QUATRO,028-688-3455 ,栃木,宇都宮市,インターパーク１－２－１,アウト,架電可,インターパークセブンイレブン隣り,"",ネイル,https://beauty.hotpepper.jp/kr/slnH000294965
C de パラディ,0120-972-389 ,栃木,宇都宮市,中今泉３-９-１カーサNAKAHARA１F,アウト,架電可,「宇都宮駅」東口より車で約５分,"",ネイル,https://beauty.hotpepper.jp/kr/slnH000335151
mish nail,028-614-3663 ,栃木,宇都宮市,平松本町1200-1,アウト,架電可,〒321‐0932宇都宮市平松本町1200‐1 ,"",ネイル,https://beauty.hotpepper.jp/kr/slnH000274253
Beauty & Spa treatment Select+,028-637-7807 ,栃木,宇都宮市,東宿郷４－５－１０　２Ｆ,アウト,架電可,JR宇都宮駅東口、TSUTAYA近く,"",ネイル,https://beauty.hotpepper.jp/kr/slnH000239252
Raggiare (ラジャーレ)　駅前店　,028-625-7005 ,栃木,宇都宮市,今泉１-1-9　２F,アウト,架電可,ＪＲ宇都宮駅西口より徒歩3分,"",ネイル,https://beauty.hotpepper.jp/kr/slnH000272265
Beauty Salon Lily,0285-38-7575 ,栃木,小山市,犬塚５－１３－９,アウト,架電可,ＪＲ小山駅東口から車で10分,"",ネイル,https://beauty.hotpepper.jp/kr/slnH000356306
ビューティーモール　足利店,0120-827-188 ,栃木,足利市,田中町65-2-2Ｆ,アウト,架電可,東武伊勢崎線「足利市駅」より徒歩8分,"",ネイル,https://beauty.hotpepper.jp/kr/slnH000329425
Can I  Dressy　小山市城北店,0285-38-6839 ,栃木,小山市,城北３－２０－１０　城北テナントＡ,アウト,架電可,JR小山駅より車で10分　イオンモール小山様より車で3分,"",ネイル,https://beauty.hotpepper.jp/kr/slnH000350804
Queen Bee クインビー,028-627-7512 ,栃木,宇都宮市,戸祭元町5-6横田ビル1F,アウト,架電可,中央警察署そば・昭和小学校近くの枡金戸祭元町店のそば,"",ネイル,https://beauty.hotpepper.jp/kr/slnH000038293
NAIL moA by アフロディーテ,028-689-7351 ,栃木,宇都宮市,陽東６－２－１　イトーヨーカドー宇都宮店１F ,アウト,架電可,JR宇都宮駅車10分,"",ネイル,https://beauty.hotpepper.jp/kr/slnH000332606
Nail Salon Vivi Sweet,080-8890-7788 ,栃木,宇都宮市,西１-4-8,アウト,架電可,ユニオン通り沿い　,"",ネイル,https://beauty.hotpepper.jp/kr/slnH000301727
ANZY  Eyelash  Nail  Beauty  Salon,028-612-2144 ,栃木,宇都宮市,大曽４－8－7,アウト,架電可,宇商通り栃木銀行大曽支店近く,"",ネイル,https://beauty.hotpepper.jp/kr/slnH000336689
Can I  Dressy　足利店,0284-22-7745 ,栃木,足利市,田中町787,アウト,架電可,東武伊勢崎線足利市駅より徒歩10分,"",ネイル,https://beauty.hotpepper.jp/kr/slnH000322050
A&A VAL小山店,0285-39-8717 ,栃木,小山市,城山町３－３－２２,アウト,架電可,ＪＲ小山駅徒歩1分,"",ネイル,https://beauty.hotpepper.jp/kr/slnH000349232
A Nail,080-3913-1212 ,栃木,宇都宮市,西原町600-34野沢コーポ2　１階　東店舗,アウト,架電可,陽南中すぐ近く　※江曽島駅東口から徒歩約２５分　※南宇都宮駅から１２５２ｍ,"",ネイル,https://beauty.hotpepper.jp/kr/slnH000284266
fu-ga　（フーガ）,028-616-1988 ,栃木,宇都宮市,中戸祭町828-15,アウト,架電可,日光街道・プレリオン戸祭　ホリディスポーツクラブ内,"",ネイル,https://beauty.hotpepper.jp/kr/slnH000037823
Ｖａ-ｙｕ,080-7889-7705 ,栃木,宇都宮市,竹林町502　101号室,アウト,架電可,竹林町/白沢街道沿い,"",ネイル,https://beauty.hotpepper.jp/kr/slnH000357748
chouette(シュエット)～ビューティー&リラクゼーション～,028-651-1320 ,栃木,宇都宮市,東宿郷４-2-7 フリーデンハイム１階&2階,アウト,架電可,宇都宮駅東口徒歩７分,"",ネイル,https://beauty.hotpepper.jp/kr/slnH000224162
First Nail (ファーストネイル),028-639-5710 ,栃木,宇都宮市,馬場通り３-4-17　千手1F-B,アウト,架電可,パルコ東側徒歩1分,"",ネイル,https://beauty.hotpepper.jp/kr/slnH000037798
Secret Venus,0280-33-6411 ,栃木,下都賀郡野木町丸林224-1市,,アウト,架電可,JR宇都宮線野木駅徒歩7分,"",ネイル,https://beauty.hotpepper.jp/kr/slnH000371014
Eclas nail　【エクラスネイル】,028-659-5368 ,栃木,宇都宮市,八千代２-1-19　ステーションハウスC101,アウト,架電可,栃木県宇都宮市八千代2-1-19,"",ネイル,https://beauty.hotpepper.jp/kr/slnH000372535
Eterno Lindo～エテルノ　リンド～,028-621-8171 ,栃木,宇都宮市,昭和１-5-2,アウト,架電可,県庁近く/東武宇都宮駅より徒歩10分,"",ネイル,https://beauty.hotpepper.jp/kr/slnH000049512
Can I  Dressy　小山駅東口店,0285-39-8239 ,栃木,小山市,駅東通り２－１５－１,アウト,架電可,JR小山駅東口より徒歩３分！,"",ネイル,https://beauty.hotpepper.jp/kr/slnH000350802
YOU'RE...by  Life's【ユアバイライフズ】,090-5202-7213 ,栃木,宇都宮市,簗瀬町2366　302号,アウト,架電可, JR宇都宮駅から車で１０分,"",ネイル,https://beauty.hotpepper.jp/kr/slnH000361797
Relien nail,070-2152-0707 ,栃木,宇都宮市,三番町２－１４　清水ハウス三番町１０２,アウト,架電可,JR宇都宮駅より徒歩10分/上河原街道沿い,"",ネイル,https://beauty.hotpepper.jp/kr/slnH000303744
Nail Salon Tiara,028-663-6363 ,栃木,宇都宮市,元今泉５-1-12　メイクォーク2F,アウト,架電可, メイクォーク2階,"",ネイル,https://beauty.hotpepper.jp/kr/slnH000287210
ネイルサロン　リフレ21東店,028-614-2602 ,栃木,宇都宮市,宿郷３－１６－３,アウト,架電可,カルナかましん　宝くじ売り場前,"",ネイル,https://beauty.hotpepper.jp/kr/slnH000037921
VARIE,028-625-7503 ,栃木,宇都宮市,今泉町24-2,アウト,架電可,FKDより徒歩５分、陽北中学校より徒歩２分,"",ネイル,https://beauty.hotpepper.jp/kr/slnH000373549
Eyelash&Nail Share,028-348-2670 ,栃木,宇都宮市,清原台４-27-1,アウト,架電可,清原台「ニューとらや」さん向かい側,"",ネイル,https://beauty.hotpepper.jp/kr/slnH000353527
Starry,080-7733-4641 ,栃木,宇都宮市,大寛１-1-15サンガーデン大寛１F１０３号室,アウト,架電可,東武宇都宮駅から徒歩１０分　材木町通り沿い,"",ネイル,https://beauty.hotpepper.jp/kr/slnH000272282
Nail Salon magellan's,028-639-9522 ,栃木,宇都宮市,川田町1081　コーポアイエム703号室,アウト,架電可,江曽島駅より車で約10分/宇都宮駅より車で約10分,"",ネイル,https://beauty.hotpepper.jp/kr/slnH000301961
NAIL SALON QUILL 小山店,0285-28-6916 ,栃木,小山市,東城南４－６－２　シャトー・グランチェスタ１F,アウト,架電可,JR小山駅から車で10分,"",ネイル,https://beauty.hotpepper.jp/kr/slnH000344861
Puril…プリル…NAIL&EYELASH　西川田店,028-612-8879 ,栃木,宇都宮市,西川田東町15-1,アウト,架電可,宮環と兵庫塚街道交差点の角,"",ネイル,https://beauty.hotpepper.jp/kr/slnH000325507
ネイルサロンリフレ21伝馬町店,028-678-8508 ,栃木,宇都宮市,伝馬町宇都宮,アウト,架電可,東武宇都宮駅徒歩６分,"",ネイル,https://beauty.hotpepper.jp/kr/slnH000325015
SPEED　NAIL　宇都宮オリオン通り店,028-680-5828 ,栃木,宇都宮市,曲師町5-1 3F(YUJICAFEがあるビル),アウト,架電可,オリオン通り内・YUJICAFEの３F,"",ネイル,https://beauty.hotpepper.jp/kr/slnH000243210
lucere （ルシェーレ）,028-622-5220 ,栃木,宇都宮市,塙田２－４－８　武田ビル　１F,アウト,架電可,赤門通り・PARCOから徒歩3分♪,"",ネイル,https://beauty.hotpepper.jp/kr/slnH000141694
ネイルサロン　宮(クン）,0282-51-2034 ,栃木,栃木市,大平町西水代1821-1　水代山荘A棟,アウト,架電可,東武線大平下駅から車で8分,"",ネイル,https://beauty.hotpepper.jp/kr/slnH000373897
QUATRO小山店　アイラッシュサロンETERNO ＆ ネイルサロンAllure,0285-31-0061 ,栃木,小山市,西城南４-20-1,アウト,架電可,ＪＲ小山駅より車で5分,"",ネイル,https://beauty.hotpepper.jp/kr/slnH000303458
Nail & Beauty Salon LIZA　- リザ -,0284-44-2441 ,栃木,足利市,通２-7-10　前三ハイツ101,アウト,架電可,東武伊勢崎線足利市駅より徒歩７分/ＪＲ足利駅より徒歩7分/店舗向かいに駐車場も完備,"",ネイル,https://beauty.hotpepper.jp/kr/slnH000342303
ＴＡＫＵＭＩ ＣＡＬＭＥ,0120-80-4622 ,栃木,小山市,神鳥谷１８５３‐１４,アウト,架電可,JR小山駅から車で１０分,"",ネイル,https://beauty.hotpepper.jp/kr/slnH000124079
La Vie,0283-55-7635 ,栃木,佐野市,高萩町868-10,アウト,架電可,JR両毛線佐野駅車13分　東武佐野線佐野市駅車12分・イオン・佐野アウトレット約2分,"",ネイル,https://beauty.hotpepper.jp/kr/slnH000373563
GINA NAIL WORKS　～ジーナネイルワークス～,0285-38-7375 ,栃木,小山市,城東６－４－２０エリアＭ＆Ｈ２号室,アウト,架電可,ＪＲ小山駅東口より車６分,"",ネイル,https://beauty.hotpepper.jp/kr/slnH000310818
Private Gel Nailsalon Putritulle,080-8023-5207 ,栃木,宇都宮市,西川田本町３－１０－８コーポラス南２０６,アウト,架電可,西川田のたいらやから徒歩3分。,"",ネイル,https://beauty.hotpepper.jp/kr/slnH000373795
ashita【アシタ】,0285-37-7326 ,栃木,下野市,下古山２丁目８－２,アウト,架電可,石橋駅から車で約5分/横塚公園となり（建物東側入り口）,"",ネイル,https://beauty.hotpepper.jp/kr/slnH000365757
Nail & Smiley Tree Tops,028-656-1172 ,栃木,宇都宮市,石井町3373-14　ヘアサロン CoCoBirkin隣 (電話番号もCoCoBirkinと同じです),アウト,架電可,県立宇都宮東高校前バス停より徒歩３分,"",ネイル,https://beauty.hotpepper.jp/kr/slnH000316816
AESSION～エスシオン～NAIL&EYELASH,028-678-9928 ,栃木,宇都宮市,下栗１-20-2,アウト,架電可,宇都宮駅より車で10分,"",ネイル,https://beauty.hotpepper.jp/kr/slnH000279001
VuiVuian Nail (ヴィヴィアンネイル),028-663-8639 ,栃木,宇都宮市,岩曽町1355-111,アウト,架電可,宇都宮駅から車で１０分（バス停あり地蔵前）,"",ネイル,https://beauty.hotpepper.jp/kr/slnH000037971
Jewelry Lash,028-678-2185 ,栃木,宇都宮市,御幸町２０７－２　２F,アウト,架電可,奥州街道沿い/極楽湯向い・ホテルルートイン隣,"",ネイル,https://beauty.hotpepper.jp/kr/slnH000330513
ティーヌ・ヴィエル,028-663-5333 ,栃木,宇都宮市,御幸本町4863-75,アウト,架電可,R4のAOKI近く・御幸本町交差点を西へ,"",ネイル,https://beauty.hotpepper.jp/kr/slnH000225742
Carino-salon,0284-70-5314 ,栃木,足利市,堀込町2656-7　ＡＳＫビル2Ｆ,アウト,架電可,東武線の足利市駅より車で5分。東武和泉駅・福居駅より車で5分。,"",ネイル,https://beauty.hotpepper.jp/kr/slnH000371803
PRIMA 小山店,0285-39-6911 ,栃木,小山市,駅東通り２－２９－８,アウト,架電可,JR小山駅東口から徒歩３分,"",ネイル,https://beauty.hotpepper.jp/kr/slnH000355695
Nails 33 （ネイルズ　ミミ）,090-1460-2350 ,栃木,宇都宮市,戸祭町3009-5,アウト,架電可,JR宇都宮駅より車で１１分,"",ネイル,https://beauty.hotpepper.jp/kr/slnH000222931
Nail Salon N（エヌ）,070-6671-0499 ,栃木,宇都宮市,東峰町3076-46　101号,アウト,架電可,宇大工学部から車で５分,"",ネイル,https://beauty.hotpepper.jp/kr/slnH000340372
..Salon Maman..,050-5585-8882 ,栃木,宇都宮市,鶴田町３５１－４,アウト,架電可,JR宇都宮駅 車で15分　東武宇都宮駅　車で10分　鶴田駅徒歩7分,"",ネイル,https://beauty.hotpepper.jp/kr/slnH000311462
ネイルサロン　メィプル,080-2333-1216 ,栃木,宇都宮市,戸祭町2743,アウト,架電可,ウエルシア戸祭店近く,"",ネイル,https://beauty.hotpepper.jp/kr/slnH000311766
salon de En　…サロン ド エン…,080-9970-6671 ,栃木,宇都宮市,南大通り４-５-１５－２０３,アウト,架電可,JR宇都宮駅西口から徒歩5分,"",ネイル,https://beauty.hotpepper.jp/kr/slnH000278187
garden 鹿沼店,0289-74-7313 ,栃木,鹿沼市,緑町１－２－４０,アウト,架電可,鹿沼街道沿い鹿沼緑町郵便局隣り,"",ネイル,https://beauty.hotpepper.jp/kr/slnH000316953
Chatty Nail【チャティネイル】,070-6671-7031 ,栃木,宇都宮市,中河原町４-１１中河原イステートハイツ３０７,アウト,架電可,宇都宮駅徒歩10分/天神１丁目交差点すぐ/NTT中河原向かい,"",ネイル,https://beauty.hotpepper.jp/kr/slnH000364948
＆NAIL and Beauty,080-8811-0724 ,栃木,宇都宮市,下栗町2314-2　リッツレジデンスＡ棟1-1,アウト,架電可,下栗町　ミツトヨ前　セブンイレブンミツトヨ前店隣り　　恵光幼稚園近く　,"",ネイル,https://beauty.hotpepper.jp/kr/slnH000330241
Luminous,070-4071-4995 ,栃木,宇都宮市,清住３丁目１－２２　ニュー清住A棟１Ｆ,アウト,架電可,清住3丁目/裁判所近く,"",ネイル,https://beauty.hotpepper.jp/kr/slnH000317672
NAILSALON GINA,080-5419-1056 ,栃木,宇都宮市,鶴田２丁目　41-3 102号室,アウト,架電可,宇都宮環状線と日光街道の交差点を日光方面に入ってすぐ,"",ネイル,https://beauty.hotpepper.jp/kr/slnH000372386
Eyelash　salon　～Angelle～【アンジュレ】,028-633-1822 ,栃木,宇都宮市,東宿郷６‐7‐15,アウト,架電可,駅東口カルナかましん近く,"",ネイル,https://beauty.hotpepper.jp/kr/slnH000313787
True,028-678-4807 ,栃木,宇都宮市,御幸町26-1パールハイツA102,アウト,架電可,御幸小学校近く,"",ネイル,https://beauty.hotpepper.jp/kr/slnH000297224
Hair&Make EARTH　Nail&Eyelash　佐野新都市店,0283-27-3385 ,栃木,佐野市,高萩町１３０５－７,アウト,架電可,佐野藤岡ICから車で5分【ＥＡＲＴＨ佐野新都市】,"",ネイル,https://beauty.hotpepper.jp/kr/slnH000370638
Eios Beauty studio,090-1778-7939 ,栃木,小山市,中央町３-１１-４,アウト,架電可,小山駅西口徒歩１分,"",ネイル,https://beauty.hotpepper.jp/kr/slnH000334305
Puril…プリル…NAIL&EYELASHES　さくら店,028-682-6108 ,栃木,さくら市,氏家1192-23,アウト,架電可,JR氏家駅より車で5分,"",ネイル,https://beauty.hotpepper.jp/kr/slnH000239924
癒し処　和佳～mandarin spa～,028-612-2966 ,栃木,宇都宮市,東原町8-12,アウト,架電可,栃木街道沿い/江曽島駅近く,"",ネイル,https://beauty.hotpepper.jp/kr/slnH000308085
DASHING DIVA【ダッシングディバ】　宇都宮パセオ店,028-627-8471 ,栃木,宇都宮市,川向町1-23,アウト,架電可,ＪＲ宇都宮駅直結・パセオ２F,"",ネイル,https://beauty.hotpepper.jp/kr/slnH000247158
apricot nail,070-5015-0130 ,栃木,宇都宮市,中央５-6-4,アウト,架電可,釜川沿い、パルコ南側から徒歩5分,"",ネイル,https://beauty.hotpepper.jp/kr/slnH000321689
Nail Room Freely ～フリーリー～,050-5586-4619 ,栃木,宇都宮市,鶴田町2899,アウト,架電可,オータニ鶴田店から徒歩３分,"",ネイル,https://beauty.hotpepper.jp/kr/slnH000341909
