会社名,電話番号,都道府県,市区郡,町名・番地,アウトorイン,リード状況,備考,リストランク,業種（選択）,Web サイト
Heartim　高崎,027-370-2610 ,群馬,高崎市,飯塚町381‐4,アウト,架電可,高崎駅より車で5分/北高崎駅より徒歩15分/高崎問屋町駅より徒歩15分/tel027-370-2610,"",ヘア,https://beauty.hotpepper.jp/slnH000349076
Rezona Beauty Park,027-386-2114 ,群馬,高崎市,飯塚町412-1,アウト,架電可,JR高崎駅～お車で10分 ウニクス高崎～徒歩5分,"",ヘア,https://beauty.hotpepper.jp/slnH000320753
GINZA CAMINOIA 高崎店,027-381-6410 ,群馬,高崎市,旭町24-4 ColorsTAKASAKI2F,アウト,架電可,高崎駅徒歩3分,"",ヘア,https://beauty.hotpepper.jp/slnH000370694
ash wake -アッシュウェイク-　【前橋】,027-289-8128 ,群馬,前橋市,国領町１－６－１８,アウト,架電可,前橋駅方面から17号を北上し、進んでいくと左手に見えます。TEL【027-289-8128】,"",ヘア,https://beauty.hotpepper.jp/slnH000171318
Casita　Isesaki　【伊勢崎】,0270-75-2352 ,群馬,伊勢崎市,連取町３０９９－４,アウト,架電可,伊勢崎連取町十字路ユニクロ様向かい,"",ヘア,https://beauty.hotpepper.jp/slnH000363684
Rita hair make【リタ・ヘアメイク】,027-350-7040 ,群馬,高崎市,南大類町９０７,アウト,架電可,東口直進してアミングさま・スターバックスさまの通り沿いをまっすぐ玉村方面に。,"",ヘア,https://beauty.hotpepper.jp/slnH000201024
g-room 【6/23　NEWOPEN】,027-212-2906 ,群馬,前橋市,南町１－21ー15,アウト,架電可,JR前橋駅 南口徒歩13分 車3分 駐車場完備 TEL027-212-2906,"",ヘア,https://beauty.hotpepper.jp/slnH000356166
CROWN【9/29　NEWOPEN】,027-212-7396 ,群馬,前橋市,駒形町1159-13,アウト,架電可,ガーデン前橋から車3分 駐車場完備 TEL027-212-7396,"",ヘア,https://beauty.hotpepper.jp/slnH000363246
Agu hair codino【アグ ヘアー コディーノ】前橋店 by alice,027-212-7845 ,群馬,前橋市,千代田町２－５－５　C'S PORTE１０５,アウト,架電可,中央前橋駅より徒歩8分,"",ヘア,https://beauty.hotpepper.jp/slnH000358420
ash takasaki 【アッシュ高崎】　高崎店,027-360-5667 ,群馬,高崎市,新保町135-1,アウト,架電可,★高崎商業高校から徒歩３分、JR高崎井野駅から車で５分【アッシュ高崎】高崎店,"",ヘア,https://beauty.hotpepper.jp/slnH000232182
Ifh iizuka　高崎,027-388-9675 ,群馬,高崎市,飯塚町222-3,アウト,架電可,JR北高崎駅より車で1分,"",ヘア,https://beauty.hotpepper.jp/slnH000323208
ash 江木店　【高崎】,0273-60-5668 ,群馬,高崎市,江木町1480,アウト,架電可,高崎駅より車10分,"",ヘア,https://beauty.hotpepper.jp/slnH000377194
hair SENSE 　高崎店 ,027-333-6687 ,群馬,高崎市,八島町19　白バラビル2F,アウト,架電可,JR高崎駅徒歩2分　TEL027-333-6687,"",ヘア,https://beauty.hotpepper.jp/slnH000340588
12:twelve【12/1 NEW OPEN】,027-655-4489 ,群馬,太田市,飯田町1400-2 吉川ビル1F,アウト,架電可,太田駅南口 徒歩1分　TEL027-655-4489,"",ヘア,https://beauty.hotpepper.jp/slnH000371513
hair make antenna,0270-61-7073 ,群馬,伊勢崎市,宮子町２９２２－２,アウト,架電可,駒形ICより車で５分　スーパーモールいせさきより車で3分,"",ヘア,https://beauty.hotpepper.jp/slnH000277616
ash hair×make 伊勢崎店　【伊勢崎】,0270-40-7080 ,群馬,伊勢崎市,安堀町207-1 フォリオ安掘ショッピングセンター内,アウト,架電可,駒形バイパス【オートレース場東】を東へ約2.5km/フォリオ安掘ショッピングセンター内,"",ヘア,https://beauty.hotpepper.jp/slnH000197417
Hair OASIS,0270-23-7888 ,群馬,伊勢崎市,波志江町232-1,アウト,架電可,北関東自動車道　波志江パーキングから車で３分,"",ヘア,https://beauty.hotpepper.jp/slnH000234465
Agu hair livre【アグ ヘアー リーブル】高崎店 by alice,027-384-4411 ,群馬,高崎市,旭町２４－４　カラーズＴＡＫＡＳＡＫＩビル３階,アウト,架電可,高崎駅より徒歩4分,"",ヘア,https://beauty.hotpepper.jp/slnH000359827
Ifh 本店 高崎,027-381-5133 ,群馬,高崎市,棟高町１８０２‐３０６,アウト,架電可,高崎イオンから徒歩10分・車で1分,"",ヘア,https://beauty.hotpepper.jp/slnH000205135
美容室　fact  【ファクト高崎】　高崎店　,027-350-7881 ,群馬,高崎市,中居町３-3-2,アウト,架電可,高崎競馬場通りを中居町方面へ、文真堂書店高崎上中居店様近く。高崎市中居町3-3-2　,"",ヘア,https://beauty.hotpepper.jp/slnH000286178
HAIR MAKE NAIL GLAM THE BEAUTY,027-310-7100 ,群馬,高崎市,八島町２２２　高崎駅ビルモントレー5F,アウト,架電可,高崎駅ビルモントレー5F,"",ヘア,https://beauty.hotpepper.jp/slnH000171375
SHAMPOO　本店,0270-21-1876 ,群馬,伊勢崎市,宮子町３６３４－１２,アウト,架電可,スーパーモールいせさきから車で1分,"",ヘア,https://beauty.hotpepper.jp/slnH000171353
Style -スタイル-,0276-45-5500 ,群馬,太田市,新井町５４９－１３,アウト,架電可,太田駅南口から車で5分,"",ヘア,https://beauty.hotpepper.jp/slnH000175796
green,0276-552-033 ,群馬,太田市,新島町645-1　アドホック6-105,アウト,架電可,太田駅より徒歩10分,"",ヘア,https://beauty.hotpepper.jp/slnH000356457
nico.,0270-50-7080 ,群馬,伊勢崎市,波志江町1912－9,アウト,架電可,波志江ＩＣから車で３分,"",ヘア,https://beauty.hotpepper.jp/slnH000315808
FENICE by MINX  高崎,027-310-6801 ,群馬,高崎市,八島町260,アウト,架電可,高崎駅西口　徒歩3分   ,"",ヘア,https://beauty.hotpepper.jp/slnH000195782
 CLOCKLESS　クロックレス,0270-75-5330 ,群馬,伊勢崎市,東上之宮町1147-1-B ,アウト,架電可,連取町十字路を前橋南IC方面に車で5分,"",ヘア,https://beauty.hotpepper.jp/slnH000322603
re-lounge　江木店,027-330-5540 ,群馬,高崎市,江木町１５２６,アウト,架電可,高崎駅から車で５分・グランドパティオ高崎すぐ近く,"",ヘア,https://beauty.hotpepper.jp/slnH000201570
emusalon　伊勢崎,0270-22-2765 ,群馬,伊勢崎市,宮子町3631-22,アウト,架電可,伊勢崎ガーデンズすぐ近く,"",ヘア,https://beauty.hotpepper.jp/slnH000170736
ムーブ＆ラ・ボール,027-235-8017 ,群馬,前橋市,西片貝町１－２１８－４,アウト,架電可,上毛電鉄片貝駅徒歩30秒。西片貝町交差点五叉路角,"",ヘア,https://beauty.hotpepper.jp/slnH000171349
Hair&Make Runa,027-289-5261 ,群馬,前橋市,古,アウト,架電可,JR新前橋駅から徒歩5分　フォレストモール新前橋内,"",ヘア,https://beauty.hotpepper.jp/slnH000242449
ash kein　【太田】,0276-49-6003 ,群馬,太田市,飯塚町626,アウト,架電可,太田市パワーモール内【太田】,"",ヘア,https://beauty.hotpepper.jp/slnH000235855
alpina　菅谷店,027-386-8358 ,群馬,高崎市,菅谷町1251-1,アウト,架電可,【027-386-8358】高崎イオンから車で5分,"",ヘア,https://beauty.hotpepper.jp/slnH000375402
R WORK OF ART,0270-75-2101 ,群馬,伊勢崎市,東本町103-1 サロンドルシアン内,アウト,架電可,東武伊勢崎線　新伊勢崎駅より徒歩3分　2号線近く,"",ヘア,https://beauty.hotpepper.jp/slnH000350799
GARDEN AVEDA,027-370-0860 ,群馬,高崎市,上並榎町69-1,アウト,架電可,国道17号より、ハナミズキ通りハンプティダンプティを左折しマルエドラックすぐ前。,"",ヘア,https://beauty.hotpepper.jp/slnH000275108
Ark　宮子店,0270-50-0242 ,群馬,伊勢崎市,宮子町３４２３‐２４　ベイシア西部モール駐車場内,アウト,架電可,【伊勢崎駅】から車10分　　【駒形駅】から車8分,"",ヘア,https://beauty.hotpepper.jp/slnH000204818
Hair art Le ciel（ル・シエル）,027-364-7272 ,群馬,高崎市,飯塚町４３８－１,アウト,架電可,高崎市飯塚町・ソフトバンクショップ隣 /ウニクス高崎近く,"",ヘア,https://beauty.hotpepper.jp/slnH000183541
Mecca　高崎店,027-395-4464 ,群馬,高崎市,八島町48-1,アウト,架電可,JR高崎駅徒歩1分,"",ヘア,https://beauty.hotpepper.jp/slnH000228702
EARTH　coiffure beaute　伊勢崎　【群馬】,0270-40-6610 ,群馬,伊勢崎市,連取町3046-2,アウト,架電可,市民病院前、フレッセイ連取モール無料駐車場あり ,"",ヘア,https://beauty.hotpepper.jp/slnH000236027
nano hair　【ナノヘアー】,027-353-6355 ,群馬,高崎市,南大類町１２４７,アウト,架電可,高崎駅東口から車で8分,"",ヘア,https://beauty.hotpepper.jp/slnH000169445
hair love One 高崎,027-310-6311 ,群馬,高崎市,八島町１７－３,アウト,架電可,JR高崎駅西口から徒歩3分,"",ヘア,https://beauty.hotpepper.jp/slnH000172129
Designer's Hair LINK'S（美容室リンクス）,027-233-8778 ,群馬,前橋市,国領町２－１４－１　前橋リリカ１Ｆ,アウト,架電可,電話027-233-8778 前橋リリカ１F西側、国道17号沿い路面にございます。（西側入口）,"",ヘア,https://beauty.hotpepper.jp/slnH000243355
SHAMPOO　ひろせ店,0270-25-5467 ,群馬,伊勢崎市,ひろせ町４０８７－１,アウト,架電可,伊勢崎市ひろせ町　いせさき市民の森公園近く,"",ヘア,https://beauty.hotpepper.jp/slnH000214799
ash Creevey　アッシュクイービー　【前橋】,027-288-0730 ,群馬,前橋市,文京町１－３４－２０,アウト,架電可,【けやきウォーク前橋】の北西の交差点角。,"",ヘア,https://beauty.hotpepper.jp/slnH000185451
Hair salon Noie,027-387-0485 ,群馬,高崎市,双葉町11-11　かなさくらビル2ｆ,アウト,架電可,JR高崎駅東口から車で3分　ピザーラ様向かいの黄色の建物２F,"",ヘア,https://beauty.hotpepper.jp/slnH000323206
creo sacco  【伊勢崎】,0270-50-7678 ,群馬,伊勢崎市,連取町３３１１‐８,アウト,架電可,伊勢崎レジャーランド　車で５分※ネット予約が出来ない時はお電話でお確かめ下さい,"",ヘア,https://beauty.hotpepper.jp/slnH000171716
Ｓ．Ｏ．Ｌ　【ソル】,027-224-5150 ,群馬,前橋市,文京町３-32-23,アウト,架電可,けやきウォーク徒歩5分,"",ヘア,https://beauty.hotpepper.jp/slnH000172823
beautyworks  LoopLine　本店,027-386-6979 ,群馬,高崎市,上小塙町1210-2,アウト,架電可,花水木通りを高崎環状線方面へ、高崎環状線との交差点を左折し240ｍ先、右側。,"",ヘア,https://beauty.hotpepper.jp/slnH000271739
CReO,0270-20-7600 ,群馬,伊勢崎市,連取町3021-2　※カーナビでは「連取町148-1」で検索して頂くとスムーズです※,アウト,架電可,伊勢崎市連取町オートバックス隣 伊勢崎市民病院北側通り沿い,"",ヘア,https://beauty.hotpepper.jp/slnH000171390
髪質改善専門ACHIC,0270-23-7563 ,群馬,伊勢崎市,連取本町９‐６,アウト,架電可,伊勢崎市民病院から徒歩３分,"",ヘア,https://beauty.hotpepper.jp/slnH000197842
Hair Make ar　－ヘアーメイク　アール－,027-226-6333 ,群馬,前橋市,元総社町２－３１－３４,アウト,架電可,前橋総社神社より徒歩３分♪,"",ヘア,https://beauty.hotpepper.jp/slnH000172829
Lanica hair design,027-363-9699 ,群馬,高崎市,下小鳥町60-5,アウト,架電可,とりせん下小鳥店様より車で1分,"",ヘア,https://beauty.hotpepper.jp/slnH000309318
gilly -ジリー-,027-362-1810 ,群馬,高崎市,浜尻町540,アウト,架電可,イオンモール高崎から車で5分　JR井野駅から車で5分,"",ヘア,https://beauty.hotpepper.jp/slnH000258012
ＡＲＣＨＥＴＹＰＥ 【RENEWAL  OPEN】,0270-61-6355 ,群馬,伊勢崎市,宮子町3459-1,アウト,架電可,駒形ICより車で3分・宮子町ウェルシア薬局、Hotto Motto交差点角,"",ヘア,https://beauty.hotpepper.jp/slnH000170527
Ifh toorimachi 高崎,027-321-9955 ,群馬,高崎市,通町４４　２Ｆ,アウト,架電可,JR高崎駅から徒歩5分,"",ヘア,https://beauty.hotpepper.jp/slnH000203844
re-lounge　浜尻店,027-381-5584 ,群馬,高崎市,浜尻町531-1,アウト,架電可,ローソン浜尻店すぐ近く♪JR井野駅から車で５分！！イオンモール高崎から車で５分！！,"",ヘア,https://beauty.hotpepper.jp/slnH000329807
ＣＯＩＮ,0276-56-4731 ,群馬,太田市,小舞木町350,アウト,架電可,【徒歩】太田駅南口より20分　【お車】北関東自動車道太田桐生ICより約10分,"",ヘア,https://beauty.hotpepper.jp/slnH000351616
Ｈａｉｒ　Ｒｏｍｅｏ,027-320-6601 ,群馬,高崎市,旭町３３　ＮＯＤＥ－３３　３Ｆ,アウト,架電可,高崎駅西口、徒歩3分。,"",ヘア,https://beauty.hotpepper.jp/slnH000170192
NEXT hair前橋店,027-235-3598 ,群馬,前橋市,関根町1-11-1,アウト,架電可,TEL 027-235-3598　国道17号沿い【関根町・群大入口】の北、文真堂敷地内,"",ヘア,https://beauty.hotpepper.jp/slnH000171452
Hair Brand Mile,027-386-9061 ,群馬,高崎市,あら町233　ドルチェヴィータ高崎　3F　東室,アウト,架電可, 高崎駅西口から一直線で徒歩3分,"",ヘア,https://beauty.hotpepper.jp/slnH000277681
Lily & Co  hair  design,0276-55-1661 ,群馬,太田市,東矢島町1322-1,アウト,架電可,太田市立旭小学校近く　国道３５４号線沿いのクスリのアオキ様近く,"",ヘア,https://beauty.hotpepper.jp/slnH000288575
hair salon HEARTS(ハーツ),0276-57-8882 ,群馬,太田市,飯田町１０４５　ＯＫビル　２Ｆ,アウト,架電可,太田駅南口を出てまっすぐ、市民会館西信号を左折、セブンイレブン向かいのOKビル２F,"",ヘア,https://beauty.hotpepper.jp/slnH000171320
KEYMAN　hair＆eye,0276-47-3717 ,群馬,太田市,小舞木町343-1,アウト,架電可,【徒歩】太田駅南口より15分【お車】北関東自動車道太田桐生ＩＣから約10分,"",ヘア,https://beauty.hotpepper.jp/slnH000233309
ash PLATINUM　【太田】,0276-57-8057 ,群馬,太田市,飯田町613　藤美台ハイツ1F,アウト,架電可,国道407号線【太田市飯塚町】交差点より東へ約200m行った左側【藤美台ハイツ1F】太田,"",ヘア,https://beauty.hotpepper.jp/slnH000230687
hair dressing improve　　- インプローブ -,027-231-3800 ,群馬,前橋市,荒牧町６２３,アウト,架電可,国道17号線沿い、荒牧町のフレッセイの北側、元珈琲館跡,"",ヘア,https://beauty.hotpepper.jp/slnH000171718
Ang【アング】,027-327-2345 ,群馬,高崎市,石原町３１８８－８,アウト,架電可,JR高崎駅より農大二高方面に車で5分　石原南郵便局隣,"",ヘア,https://beauty.hotpepper.jp/slnH000169994
le jardin（ル・ジャルダン）高崎店,027-310-5053 ,群馬,高崎市,江木町１５５３,アウト,架電可,高駒線の「上大類町」交差点を南へ約450m進み、AOKIがある交差点を左折してすぐ左側。,"",ヘア,https://beauty.hotpepper.jp/slnH000185580
La.trace,0276-55-3835 ,群馬,太田市,宝町769-5,アウト,架電可,宝町フレッセイ様裏　,"",ヘア,https://beauty.hotpepper.jp/slnH000274299
bringmelt．hair＆eyelash,0276-59-9738 ,群馬,太田市,沖野町2651-5,アウト,架電可,"太田駅から車で10分,もとはしクリニックさんの南側","",ヘア,https://beauty.hotpepper.jp/slnH000363573
Lagoon　～ラグーン～,027-226-5678 ,群馬,前橋市,南町２-52-4,アウト,架電可,南部大橋より東へ約500m右側/【生川】交差点より西へ約200m左側,"",ヘア,https://beauty.hotpepper.jp/slnH000230223
Ｌｕｚ　- ラズ -,0276-55-3432 ,群馬,太田市,石原町549-2,アウト,架電可,太田駅、足利市駅より車10分,"",ヘア,https://beauty.hotpepper.jp/slnH000324462
Hair Factory Curt,027-323-4563 ,群馬,高崎市,片岡町１-13-20,アウト,架電可,和田橋を片岡町方面に渡って東側,"",ヘア,https://beauty.hotpepper.jp/slnH000277666
メッカ伊勢崎店,0270-61-9138 ,群馬,伊勢崎市,宮子町3423-15 ベイシア西部モール店,アウト,架電可,駒形バイパス沿い、スーパーモール伊勢崎ベイシア内 【伊勢崎】,"",ヘア,https://beauty.hotpepper.jp/slnH000193655
FIORE hair muse,0270-75-4190 ,群馬,伊勢崎市,連取町1613-8　コーポタガヤＡ,アウト,架電可,伊勢崎の連取本町、国道2号線沿いにあり、伊勢崎市民病院近くにございます ,"",ヘア,https://beauty.hotpepper.jp/slnH000313816
LUCIDO STYLE CORTE,0279-20-5222 ,群馬,北群馬郡吉岡町大久保872-1市,,アウト,架電可,吉岡バイパス、フォリオ吉岡敷地内,"",ヘア,https://beauty.hotpepper.jp/slnH000203960
バレルヘアー,0277-20-7100 ,群馬,桐生市,本町４-323フジヤビル1F,アウト,架電可,【徒歩】桐生駅より11分　【車】桐生駅より３分,"",ヘア,https://beauty.hotpepper.jp/slnH000376832
emusalon　高崎,027-381-5445 ,群馬,高崎市,中居町２-22-3,アウト,架電可,JR高崎駅東口から車で５分　高崎アピタ近く【emusalon高崎店】,"",ヘア,https://beauty.hotpepper.jp/slnH000237055
MOVE  TAKASAKI,027-393-6494 ,群馬,高崎市,南大類町８２８－１,アウト,架電可,高崎駅東口　国道３５４号を玉村方面へ約5分ミニストップの信号左折突き当りを右折50m,"",ヘア,https://beauty.hotpepper.jp/slnH000268437
INNOVATION,027-212-5997 ,群馬,前橋市,総社町２－１４－１０,アウト,架電可,産業道路モダンゴルフの交差点を東へ、線路を越えてローソンのＹ字路を左へ、右側。,"",ヘア,https://beauty.hotpepper.jp/slnH000291378
ヘア・グランツ,027-353-5455 ,群馬,高崎市,新保町４１‐４２　グローバービル１Ｆ,アウト,架電可,井野駅から徒歩30分／井野駅から車で5分,"",ヘア,https://beauty.hotpepper.jp/slnH000197407
alpina 上中居店　～アルピナ～,027-321-7557 ,群馬,高崎市,上中居町７１９－１,アウト,架電可,【027-321-7557 】ヘア&アイ  高崎駅近く 東口より車5分            ,"",ヘア,https://beauty.hotpepper.jp/slnH000170884
baobab hair,0270-21-8080 ,群馬,伊勢崎市,寿町８１,アウト,架電可,JR伊勢崎駅　徒歩１３分,"",ヘア,https://beauty.hotpepper.jp/slnH000306499
Lano hair,0276-55-5731 ,群馬,太田市,小舞木町４１７アビーロード１０２,アウト,架電可,太田駅から徒歩15分,"",ヘア,https://beauty.hotpepper.jp/slnH000215785
luna-bouquet,027-361-2522 ,群馬,高崎市,日高町455‐3,アウト,架電可,ＪＲ井野駅から徒歩15分。日高病院近く,"",ヘア,https://beauty.hotpepper.jp/slnH000212961
STELLA HAIR MAKE 【前橋】,027-260-6833 ,群馬,前橋市,川原町１－２９－７,アウト,架電可,前橋市[川原町]交差点にあります。,"",ヘア,https://beauty.hotpepper.jp/slnH000289092
HAIR SPA DOLCE,0270-63-0081 ,群馬,伊勢崎市,西小保方町423-1,アウト,架電可,伊勢崎スマーク　北側立体駐車場向かいのテナント,"",ヘア,https://beauty.hotpepper.jp/slnH000264546
HAIR WORKS bona.,0270-22-5622 ,群馬,伊勢崎市,連取本町２４‐１９,アウト,架電可,伊勢崎駅から車で10分,"",ヘア,https://beauty.hotpepper.jp/slnH000201638
Hair make Lei　～レイ～,027-269-9224 ,群馬,前橋市,端気町143-1,アウト,架電可,　県道76号線【端気町】交差点角。県立県民健康科学大の近くです。,"",ヘア,https://beauty.hotpepper.jp/slnH000275328
Hair Space mecca(メッカ)　前橋店,027-288-0244 ,群馬,前橋市,大友町２-23-5,アウト,架電可,新前橋駅　車にて10分　関越前橋インター5分【前橋】,"",ヘア,https://beauty.hotpepper.jp/slnH000186296
cosily　【　コズリー　】,027-368-2921 ,群馬,高崎市,筑縄町47-7,アウト,架電可,高崎・六郷小学校そば・環状線近く・ ハナミズキ通り近く  ・餃子村跡地,"",ヘア,https://beauty.hotpepper.jp/slnH000375131
DOLCE hair garden,027-388-8082 ,群馬,高崎市,上小塙町1009-2,アウト,架電可,高崎環状線沿い、フライングガーデン様隣！,"",ヘア,https://beauty.hotpepper.jp/slnH000306508
umbrella,027-253-5657 ,群馬,前橋市,小相木町３８８－１,アウト,架電可,"小相木町交差点から西へ行きとりせんの西隣/古市町交差点から東へ約1,2km","",ヘア,https://beauty.hotpepper.jp/slnH000225296
Ark　富塚店,0270-61-7650 ,群馬,伊勢崎市,富塚町２２０‐１　フレッセイ富塚店駐車場内,アウト,架電可,JR伊勢崎駅から車で15分,"",ヘア,https://beauty.hotpepper.jp/slnH000215506
Hair Make Rococo　－ヘアメイク　ロココ－,027-280-3433 ,群馬,前橋市,石倉町５－９－１２,アウト,架電可,中央大橋西・大渡町交差点（不二家）を南に200M,"",ヘア,https://beauty.hotpepper.jp/slnH000172505
HAIR RESORT Rupiah 太田,0276-32-5530 ,群馬,太田市,宝町８４８－３,アウト,架電可,宝泉小学校南側,"",ヘア,https://beauty.hotpepper.jp/slnH000172603
le jardin（ル・ジャルダン）伊勢崎店,0270-40-5053 ,群馬,伊勢崎市,緑町６－１１,アウト,架電可,ベイシア伊勢崎店近く。NTTの向かい側,"",ヘア,https://beauty.hotpepper.jp/slnH000185587
hair Love One 太田,0276-22-1234 ,群馬,太田市,安良岡町４３４－１,アウト,架電可,太田桐生インター車で5分・安良岡北交差点北・ヤマグチスーパー内,"",ヘア,https://beauty.hotpepper.jp/slnH000172830
Cogic,0277-32-3841 ,群馬,太田市,大原町1226-37,アウト,架電可,薮塚ＩＣから車で北へ直進3分　信号角のテナントにあります。,"",ヘア,https://beauty.hotpepper.jp/slnH000332771
LUCIDO STYLE BIG MORE　【ルシードスタイルビッグモア　高崎】　高崎店,027-329-6222 ,群馬,高崎市,山名町263-7,アウト,架電可,倉賀野駅より車で５分　高崎商科大学より車で５分,"",ヘア,https://beauty.hotpepper.jp/slnH000229919
malibu hair resort,0276-63-5901 ,群馬,邑楽郡大泉町寄木戸１４６５－１市,,アウト,架電可,太田　高林交差点から車で３分　　　求人募集中,"",ヘア,https://beauty.hotpepper.jp/slnH000345711
Especial （旧 LoopLine 上中居店）,027-384-8293 ,群馬,高崎市,上中居町２８０－７,アウト,架電可,高崎駅より車で10分　駐車場は店舗横にございます。,"",ヘア,https://beauty.hotpepper.jp/slnH000327464
HAIR garden,027-386-2226 ,群馬,高崎市,倉賀野町392-1,アウト,架電可,県道121号線沿い、サンキ、マクドナルド敷地内/倉賀野駅から徒歩16分,"",ヘア,https://beauty.hotpepper.jp/slnH000228616
CUART Hair&Make,0276-59-9456 ,群馬,太田市,内ケ島町445-8,アウト,架電可,運動公園とパチンコZENT様近く　ＴＥＬ0276-59-9456,"",ヘア,https://beauty.hotpepper.jp/slnH000348640
hair make LATTE　,027-212-6271 ,群馬,前橋市,総社町総社1130－1,アウト,架電可,≪前橋市大渡橋より産業道路方面へ450ｍ≫　≪ほっともっと前橋大渡店近く≫　,"",ヘア,https://beauty.hotpepper.jp/slnH000294936
Carolina,027-387-0026 ,群馬,高崎市,通町110,アウト,架電可,高崎駅西口から徒歩5分,"",ヘア,https://beauty.hotpepper.jp/slnH000296100
hair de Lilian (リリアン）,027-289-6370 ,群馬,前橋市,上細井町６１０,アウト,架電可,４号線より富士見方面へ向かい、上細井町交差点を右折。市立高等学校向かい側。,"",ヘア,https://beauty.hotpepper.jp/slnH000359606
BANKS　～バンクス～,027-329-6408 ,群馬,高崎市,吉井町南陽台１－１－１１,アウト,架電可,南陽台ゴルフ場入口目の前。ヤシの木が目印です！,"",ヘア,https://beauty.hotpepper.jp/slnH000353424
PITH HAIR,0276-50-1707 ,群馬,太田市,新井町５５０－１１,アウト,架電可,国道407号線【太田市役所南】交差点より西へ約600m行った右側,"",ヘア,https://beauty.hotpepper.jp/slnH000215787
GRuA【グルーア　高崎】,027-386-8994 ,群馬,高崎市,東町70　イースト70ビル 　2Ｆ,アウト,架電可,☆高崎駅東口徒歩３分☆シンプルな経路☆ 027（386）8994 高崎市 美容室,"",ヘア,https://beauty.hotpepper.jp/slnH000297514
e-EFFECT　～イフェクト～,0276-55-0688 ,群馬,太田市,内ケ島町８２４‐１,アウト,架電可,太田駅から徒歩20分。お車で5分。内ヶ島GEO近く。,"",ヘア,https://beauty.hotpepper.jp/slnH000208847
blossom HAIR DESIGN,027-395-4273 ,群馬,高崎市,八島町29-1 TWINS HAYASHI 3Ｆ,アウト,架電可,高崎駅西口徒歩1分,"",ヘア,https://beauty.hotpepper.jp/slnH000359495
MELODY【メロディ】,027-384-4950 ,群馬,高崎市,石原町1092-1,アウト,架電可,石原町・片岡小学校近く,"",ヘア,https://beauty.hotpepper.jp/slnH000313429
Plcra hair art ,027-323-2658 ,群馬,高崎市,高関町58-3,アウト,架電可,JR高崎駅東口から車で3分♪　ミスタードーナツ様向かい,"",ヘア,https://beauty.hotpepper.jp/slnH000263493
Melotte 111,027-289-3970 ,群馬,前橋市,大友町１　５－１５,アウト,架電可,JR新前橋駅　徒歩15分,"",ヘア,https://beauty.hotpepper.jp/slnH000331445
Lural hair design,0270-75-2267 ,群馬,伊勢崎市,連取町1457-1,アウト,架電可,伊勢崎駅から車で3分,"",ヘア,https://beauty.hotpepper.jp/slnH000306495
美容室エール,027-233-0721 ,群馬,前橋市,青柳町２１０‐１,アウト,架電可,JR前橋駅から車で15分　・　ハンプティーダンプティー前橋本店様近く,"",ヘア,https://beauty.hotpepper.jp/slnH000203819
Total Beauty Salon　Apple　トータルビューティーサロン　アップル,0270-26-5408 ,群馬,伊勢崎市,昭和町１８５８‐７,アウト,架電可,伊勢崎駅から車で3分 / 波志江スマートICより車で10分,"",ヘア,https://beauty.hotpepper.jp/slnH000199363
BEAUTY&HEALTH un TAKASAKI,027-360-3961 ,群馬,高崎市,井野町693‐1,アウト,架電可,上越線　井野駅から徒歩15分,"",ヘア,https://beauty.hotpepper.jp/slnH000377765
alpina  上小塙店,027-343-1667 ,群馬,高崎市,上小塙町８４７－２,アウト,架電可,【027-343-1667 】ヘア&アイラッシュ 高崎人気美容室 17号 コジマ電気様から車4分    ,"",ヘア,https://beauty.hotpepper.jp/slnH000170844
TYLCO-gemma of bona.,0270-22-1088 ,群馬,伊勢崎市,茂呂町２丁目２６２０－５,アウト,架電可,伊勢崎市茂呂町2丁目 西友楽市近く,"",ヘア,https://beauty.hotpepper.jp/slnH000234500
alpina　前橋亀里店　～アルピナ～,027-265-1999 ,群馬,前橋市,亀里町803-4,アウト,架電可,【027-265-1999 】コストコ、前橋南モールから車で３分・JAビル前 ホットモット様隣り,"",ヘア,https://beauty.hotpepper.jp/slnH000229543
arietta hair colors,027-368-2266 ,群馬,高崎市,江木町88-1,アウト,架電可,JR高崎駅から車で7分,"",ヘア,https://beauty.hotpepper.jp/slnH000358432
HAIR　SHELTER,027-386-3003 ,群馬,高崎市,上並榎町1284-12,アウト,架電可,高崎経済大学より徒歩1分,"",ヘア,https://beauty.hotpepper.jp/slnH000308352
hair ForT,027-386-8761 ,群馬,高崎市,緑町１-6-4,アウト,架電可,JR北高崎駅から車で3分,"",ヘア,https://beauty.hotpepper.jp/slnH000245412
ａ・ｉ L'amitie infini　～エーアイ ラミティエアンフィニ～,027-386-5507 ,群馬,高崎市,中泉町６２８－２,アウト,架電可,【高渋線】　煥乎堂様・とりせん様近く,"",ヘア,https://beauty.hotpepper.jp/slnH000172104
RE MIX HAIR,0276-55-8299 ,群馬,太田市,新井町552-17,アウト,架電可,太田駅南口から車で約5分。早稲田ゼミ太田校向かい。,"",ヘア,https://beauty.hotpepper.jp/slnH000249072
SCARE CROW,027-223-8899 ,群馬,前橋市,文京町３‐２３‐１５,アウト,架電可,両毛線前橋駅徒歩20分　けやきウォークより車で5分　ラウンドワンより車で5分,"",ヘア,https://beauty.hotpepper.jp/slnH000197682
Voce hair place,027-388-8786 ,群馬,高崎市,西国分町165‐6,アウト,架電可,高崎イオンモールより車で5分,"",ヘア,https://beauty.hotpepper.jp/slnH000263532
Gumi Gumi byIfh,027-372-0304 ,群馬,高崎市,棟高町971-3,アウト,架電可,高崎イオン・車で5分,"",ヘア,https://beauty.hotpepper.jp/slnH000368870
hairmake ecru ヘアーメイクエクリュ 前橋,027-234-0125 ,群馬,前橋市,下小出町２－５０－９,アウト,架電可,【027-234-0125】国道17号沿い「県営競技場東」交差点南東角。ジェームスの斜向かい。,"",ヘア,https://beauty.hotpepper.jp/slnH000171328
Belle's Hair,027-329-6266 ,群馬,高崎市,上並榎町７２－７　２Ｆ,アウト,架電可,高崎駅より車で10分。北高崎駅より車で5分。,"",ヘア,https://beauty.hotpepper.jp/slnH000240996
MILY　,0270-75-6530 ,群馬,伊勢崎市,国定町２-2062-11,アウト,架電可,国定駅から車で3分,"",ヘア,https://beauty.hotpepper.jp/slnH000356596
coiffure Cest la vie!(コワフュールセラヴィ),027-232-8888 ,群馬,前橋市,下小出町１－６－２,アウト,架電可,R17【群大病院東】交差点を東へ、デニーズ手前の路地を左に入ると間もなく,"",ヘア,https://beauty.hotpepper.jp/slnH000171325
alpina　川原店,027-226-1678 ,群馬,前橋市,川原町１-20-1,アウト,架電可,【027－226－1678】ヘア&アイ ハートマーケット様近く  川原町1-20でナビ検索下さい。,"",ヘア,https://beauty.hotpepper.jp/slnH000313545
Le Brillant -ル・ブリヤン-,027-381-5047 ,群馬,高崎市,緑町１-8-8 HDテナント 101号,アウト,架電可,ドンキホーテ高崎から徒歩3分　快活CLUB高崎店すぐ裏,"",ヘア,https://beauty.hotpepper.jp/slnH000255798
REGISTA hair works,0270-75-4310 ,群馬,伊勢崎市,連取町2342-7,アウト,架電可,新伊勢崎駅より車で10分,"",ヘア,https://beauty.hotpepper.jp/slnH000322159
mod's hair 高崎店,027-388-0717 ,群馬,高崎市,筑縄町１‐１　トーワビル１Ｆ,アウト,架電可,国道１７号からハナミズキ通りセブンイレブン様の対角線上・ＪＲ北高崎駅から車で５分,"",ヘア,https://beauty.hotpepper.jp/slnH000201136
more Amenity,0276-46-6226 ,群馬,太田市,新井町５１６‐１１ 坂本ビルA棟２F,アウト,架電可,国道407号の１本西側通り沿い　太田市役所西側、道を挟んで２F,"",ヘア,https://beauty.hotpepper.jp/slnH000203878
ash　hair×make 桐生　【桐生】,0277-22-0710 ,群馬,桐生市,巴町１-1126,アウト,架電可,JR桐生駅南口【桐生】【桐生市】,"",ヘア,https://beauty.hotpepper.jp/slnH000250510
Casita　Maebashi　【前橋】,027-223-1234 ,群馬,前橋市,南町４-31-3-101,アウト,架電可,天川原町交差点を北へ200m行き左側角。けやきウォーク南西角になります。【前橋】,"",ヘア,https://beauty.hotpepper.jp/slnH000202033
Maison Carpe,0276-55-3958 ,群馬,太田市,粕川町22-8,アウト,架電可,粕川町(尾島)　旧国道３５４沿いベイシア様すぐ裏　（道の駅おおた）から車で2分,"",ヘア,https://beauty.hotpepper.jp/slnH000275823
美容室 ouvrir -ウーヴリール-,027-225-7535 ,群馬,前橋市,荒牧町１－２２－６,アウト,架電可,国道17号線フレッセイ荒牧店の裏手の道路北方100m,"",ヘア,https://beauty.hotpepper.jp/slnH000172077
Blue.hair design,027-386-9236 ,群馬,高崎市,通町33　Ｙビル2F-C,アウト,架電可,高崎駅西口から徒歩３分,"",ヘア,https://beauty.hotpepper.jp/slnH000275104
La Coupe（ラ・クープ）,027-322-5035 ,群馬,高崎市,通町１３４,アウト,架電可,高崎駅西口より徒歩5分,"",ヘア,https://beauty.hotpepper.jp/slnH000167496
Figo hair,027-323-0180 ,群馬,高崎市,宮元町289,アウト,架電可,高崎駅西口から徒歩8分。車で3分。高崎市役所前お堀沿い,"",ヘア,https://beauty.hotpepper.jp/slnH000274417
ヘア　コレクション,0279-22-1656 ,群馬,渋川市,渋川１８１３－３５,アウト,架電可,TR渋川駅より徒歩５分,"",ヘア,https://beauty.hotpepper.jp/slnH000348403
川野美容所,0270-21-5773 ,群馬,伊勢崎市,宮子町3555-3 エスティー宮子Ａ,アウト,架電可,ミスターマックス伊勢崎近く　,"",ヘア,https://beauty.hotpepper.jp/slnH000309140
hair&make el-da,0270-61-7290 ,群馬,伊勢崎市,上植木本町2489-４,アウト,架電可,伊勢崎インターより車で5分【スマーク伊勢崎近く】,"",ヘア,https://beauty.hotpepper.jp/slnH000358985
hair create　ecrin,027-327-2362 ,群馬,高崎市,下横町10-10　シルキーコート101,アウト,架電可,高崎駅西口より徒歩7分,"",ヘア,https://beauty.hotpepper.jp/slnH000205791
ouvrir - ウーヴリール - 　上小出店,027-212-8387 ,群馬,前橋市,上小出町２－１７－７,アウト,架電可,国道17号線を渋川方面へ、「なんきつ交番西」の交差点を左折して　50m先左側,"",ヘア,https://beauty.hotpepper.jp/slnH000286591
hairsalon KINARI,027-384-6001 ,群馬,高崎市,白銀町１１－１,アウト,架電可,JR高崎駅徒歩7分,"",ヘア,https://beauty.hotpepper.jp/slnH000169875
HAIR DIRECTION　BEECX（ビークス）　川原店,0120-964-676 ,群馬,前橋市,川原町１－４７－１１,アウト,架電可,上毛大橋を川原方面へ、橋を渡って１つ目の信号を右折すると国体道路沿いの白い建物,"",ヘア,https://beauty.hotpepper.jp/slnH000171352
Dips,027-362-2828 ,群馬,高崎市,中尾町664-18　2F,アウト,架電可,JR井野駅徒歩10分,"",ヘア,https://beauty.hotpepper.jp/slnH000225429
Curelista　キュアリスタ　～ Hair Laboratory ～　,0276-31-9320 ,群馬,太田市,西本町28-19,アウト,架電可,太田駅より車で5分/北口から徒歩20分,"",ヘア,https://beauty.hotpepper.jp/slnH000246629
美容室Ｙ‘ｓ,0279-41-9039 ,群馬,渋川市,吹屋６５７－１１８,アウト,架電可,渋川駅から車で１０分,"",ヘア,https://beauty.hotpepper.jp/slnH000376490
Chouette 　【　シュエット　】,027-388-8814 ,群馬,高崎市,柴崎町1266-3,アウト,架電可,高崎駅東口から車で10分,"",ヘア,https://beauty.hotpepper.jp/slnH000373914
atelier v ～アトリエ　ブイ～,027-253-6717 ,群馬,前橋市,大利根町１－３４－９,アウト,架電可,高崎インターから車で５分,"",ヘア,https://beauty.hotpepper.jp/slnH000349174
mod's hair 藤岡店,0274-24-2850 ,群馬,藤岡市,中栗須１１７‐１,アウト,架電可,県道23号線【西上州やまびこ街道】市役所前交差点付近,"",ヘア,https://beauty.hotpepper.jp/slnH000201397
ａｒｒｏｗ　ｈａｉｒ　【アロー　ヘアー】,027-362-0800 ,群馬,高崎市,新保町324　Green Square E号,アウト,架電可,フレッセイ新保店東側,"",ヘア,https://beauty.hotpepper.jp/slnH000345073
Morpho Hair Product,027-386-8898 ,群馬,高崎市,下小鳥町699-1,アウト,架電可,高崎環状線沿い、下小鳥北の交差点より200m。ワークマンさん斜め向かい。,"",ヘア,https://beauty.hotpepper.jp/slnH000307069
BoHz japan,027-326-0606 ,群馬,高崎市,北久保町4-18,アウト,架電可,国道18号線【君が代橋西】交差点を国道406号線へ入り約800m行った右側,"",ヘア,https://beauty.hotpepper.jp/slnH000197403
ZAP　太田西本町店,0276-20-2005 ,群馬,太田市,西本町19-11,アウト,架電可,県道2号線（古河街道）沿い、西本町交差点より西へ200m,"",ヘア,https://beauty.hotpepper.jp/slnH000211209
D - salon,0276-55-6788 ,群馬,太田市,飯田町900　Mビル２階,アウト,架電可,太田駅より徒歩10分/車で6分,"",ヘア,https://beauty.hotpepper.jp/slnH000331986
HAIR×SPA　point84,0276-55-0518 ,群馬,太田市,新井町３７７－１９,アウト,架電可,太田駅から車で10分。新井町「とりせん」隣,"",ヘア,https://beauty.hotpepper.jp/slnH000234633
GOD Hair&Make 前橋西片貝店,027-234-0510 ,群馬,前橋市,西片貝町１-215-1,アウト,架電可,上毛鉄道　片貝駅より徒歩3分,"",ヘア,https://beauty.hotpepper.jp/slnH000368177
VIS安中店　【　ヴィス安中　】,027-388-0070 ,群馬,安中市,岩井五反田　2420-2,アウト,架電可,国道18号・松井田方面／西松屋安中店様となり,"",ヘア,https://beauty.hotpepper.jp/slnH000375057
MUSEE,027-346-0239 ,群馬,高崎市,岩鼻町260-1,アウト,架電可,ＪＲ倉賀野駅から車で6分　藤岡ＩＣから車で6分,"",ヘア,https://beauty.hotpepper.jp/slnH000332360
hair love One 大泉,0276-63-8822 ,群馬,邑楽郡大泉町朝日１-8-15市,,アウト,架電可,東部小泉線「東小泉駅」から車で5分,"",ヘア,https://beauty.hotpepper.jp/slnH000375281
le mignon seul,0276-61-3087 ,群馬,太田市,飯田町1296,アウト,架電可,太田駅（南口）から徒歩5分,"",ヘア,https://beauty.hotpepper.jp/slnH000234410
Cache-Cache hair　カシュカシュヘア,027-212-8642 ,群馬,前橋市,嶺町1895-8,アウト,架電可,【高花台郵便局】・【芳賀小学校】近く　芳賀団地入口の信号そば　赤城の大鳥居の辺！,"",ヘア,https://beauty.hotpepper.jp/slnH000289418
A'zzC【アザック】,027-363-9009 ,群馬,高崎市,飯塚町121‐10,アウト,架電可,JR北高崎駅より車で1分,"",ヘア,https://beauty.hotpepper.jp/slnH000364943
HAIR DESIGN Adatto.,0270-22-1448 ,群馬,伊勢崎市,田中町891-2,アウト,架電可,北関東自動車道　前橋南ICより車で10分,"",ヘア,https://beauty.hotpepper.jp/slnH000234463
ange　笠懸店,0277-76-6658 ,群馬,みどり市,笠懸町阿左美１９５３‐１,アウト,架電可,岩宿駅,"",ヘア,https://beauty.hotpepper.jp/slnH000214570
KANDATA,027-234-0002 ,群馬,前橋市,三俣町３－３１－２６,アウト,架電可,三俣町東部バイパス沿いのマクドナルドから徒歩１分。マクドナルドの十字路を東へ。,"",ヘア,https://beauty.hotpepper.jp/slnH000224594
BESPOKE,027-289-4235 ,群馬,前橋市,石倉町４－５－７　イングス１－Ａ,アウト,架電可,105号線林倉寺奥、HOTELティファニー裏手線路沿い,"",ヘア,https://beauty.hotpepper.jp/slnH000327706
donaco,027-212-5133 ,群馬,前橋市,後家町144,アウト,架電可,済生会病院より車で5分,"",ヘア,https://beauty.hotpepper.jp/slnH000304465
RIQUE,027-321-7017 ,群馬,高崎市,通町90－13　2F,アウト,架電可,高崎駅西口徒歩5分・高島屋から1分！！,"",ヘア,https://beauty.hotpepper.jp/slnH000342290
Beauty Studio　BIG MORE　中居店,027-352-4259 ,群馬,高崎市,中居町２－４－５　第２桜ハイツ１０３,アウト,架電可,高崎中居町　ジョイフル高崎店近く,"",ヘア,https://beauty.hotpepper.jp/slnH000205788
Hair's　Emotion　ZERUCH　-ゼルク-,0276-55-3008 ,群馬,太田市,内ケ島町860,アウト,架電可,太田駅から車で５分/小舞木町交差点すぐ,"",ヘア,https://beauty.hotpepper.jp/slnH000311343
Story hair&care,027-384-8805 ,群馬,高崎市,九蔵町35－6　1F ,アウト,架電可,JR高崎駅西口から徒歩10分　車で4分,"",ヘア,https://beauty.hotpepper.jp/slnH000322168
絵夢ぱれっと,0277-52-0708 ,群馬,桐生市,広沢町２-3114-4,アウト,架電可,東武新桐生駅より徒歩約10分,"",ヘア,https://beauty.hotpepper.jp/slnH000353289
ｑｕ・ｒｉ・ｅ　～クリエ～,0276-55-3152 ,群馬,太田市,大島町127－1,アウト,架電可,太田駅より車で7分,"",ヘア,https://beauty.hotpepper.jp/slnH000313635
Ｈair＆make APHRODITE,0276-55-4287 ,群馬,邑楽郡大泉町朝日５－４－２１市,,アウト,架電可,西小泉駅から徒歩１５分      スタッフ募集中！パートOk!,"",ヘア,https://beauty.hotpepper.jp/slnH000359235
pensee,027-386-6362 ,群馬,高崎市,江木町300－6,アウト,架電可,高崎駅東口から車で3分、徒歩10分,"",ヘア,https://beauty.hotpepper.jp/slnH000359072
GOD Hair&Make 高崎西口店,027-326-5233 ,群馬,高崎市,八島町262,アウト,架電可,JR高崎駅西口徒歩3分,"",ヘア,https://beauty.hotpepper.jp/slnH000317185
美容室アンジュ　境野店,0277-30-3456 ,群馬,桐生市,境野町６‐５９４‐１,アウト,架電可,小俣駅から徒歩32分,"",ヘア,https://beauty.hotpepper.jp/slnH000208842
美容室　Maestro　【　マエストロ　】,027-395-4131 ,群馬,高崎市,新保町10-1　パレスケーズ　1-A,アウト,架電可,JR両毛線問屋町駅 車で10分,"",ヘア,https://beauty.hotpepper.jp/slnH000375282
Recsia　　レクシア,027-395-0166 ,群馬,高崎市,北原町849-1,アウト,架電可,【イオン高崎店から車で7分】前橋産業道路からR６号線へ高崎方面へ700ｍ、関越道手前,"",ヘア,https://beauty.hotpepper.jp/slnH000239837
Hair Art gajumale 高崎店,027-329-6420 ,群馬,高崎市,緑町１-6-5,アウト,架電可,北高崎駅から車で５分　/　ドン・キホーテ高崎店近く　／第一病院近く,"",ヘア,https://beauty.hotpepper.jp/slnH000288368
Pinky,027-269-8604 ,群馬,前橋市,堤町713‐1,アウト,架電可,赤坂駅から車で5分,"",ヘア,https://beauty.hotpepper.jp/slnH000377385
LINK PLUS_+　　－リンクプリュス－,027-289-6325 ,群馬,前橋市,元総社町１－３０－１７　１Ｆ,アウト,架電可,総社神社を東へ200メートル,"",ヘア,https://beauty.hotpepper.jp/slnH000172827
hair salon HUG,027-289-3290 ,群馬,前橋市,青柳町502‐9,アウト,架電可,石井県道沿い。青柳町ウエルシア様の隣,"",ヘア,https://beauty.hotpepper.jp/slnH000377387
HAIR DIRECTION　ＢＥＥＣＸ（ビークス）上並榎店,0120-632-644 ,群馬,高崎市,上並榎町２５６－１,アウト,架電可,国道17号線より上並榎町交差点を高経大方面へ約400m,"",ヘア,https://beauty.hotpepper.jp/slnH000172115
HAIR UИIVERS,0270-50-0907 ,群馬,伊勢崎市,下植木町８３３,アウト,架電可,東武新伊勢崎駅徒歩15分,"",ヘア,https://beauty.hotpepper.jp/slnH000301768
ゾーンヘア,027-289-2288 ,群馬,前橋市,上細井町2042-5,アウト,架電可,赤城県道沿い　コープ上細井店前,"",ヘア,https://beauty.hotpepper.jp/slnH000341969
HAIR MAKE Aphrodite,0276-55-5521 ,群馬,太田市,内ケ島町１２８９－２,アウト,架電可,太田駅方面から県道2号線を進み、「内ヶ島」交差点を過ぎてから約700m向った左側。,"",ヘア,https://beauty.hotpepper.jp/slnH000188234
hair craft -ヘアークラフト-,0276-57-3314 ,群馬,太田市,新田,アウト,架電可,県道２号線を伊勢崎方面へ　ジョイフル本田手前右側のラーメンともやの隣,"",ヘア,https://beauty.hotpepper.jp/slnH000221217
美容室　パルプンテ,027-289-6632 ,群馬,前橋市,古,アウト,架電可,前橋駅から車で４分　　新前橋駅から徒歩で６分,"",ヘア,https://beauty.hotpepper.jp/slnH000320698
studio Face,027-237-3848 ,群馬,前橋市,川原町１－５４－３３,アウト,架電可,上毛大橋から前橋市街方面へ直進 しみずスーパー手前右側,"",ヘア,https://beauty.hotpepper.jp/slnH000172508
Leaf  ～リーフ～,027-289-9172 ,群馬,前橋市,石倉町３-１３-３　前橋マンション１Ｆ,アウト,架電可,国道17号沿い、群馬大橋近く。ホテルサンダーソン様の向かいのビル。,"",ヘア,https://beauty.hotpepper.jp/slnH000268441
ファーストクラス桐生店,0277-43-2777 ,群馬,桐生市,本町６－６,アウト,架電可,桐生駅より徒歩15分,"",ヘア,https://beauty.hotpepper.jp/slnH000375398
POCO A POCO,027-386-6315 ,群馬,高崎市,飯塚町190-5,アウト,架電可,JR北高崎駅から徒歩3分,"",ヘア,https://beauty.hotpepper.jp/slnH000271600
hair love One  大間々,0277-73-6333 ,群馬,みどり市,大間々町大間々9-1,アウト,架電可,国道３号線　文真堂大間々店駐車場内,"",ヘア,https://beauty.hotpepper.jp/slnH000375280
sora hair works　,0276-52-8500 ,群馬,太田市,鳥山中町937-10,アウト,架電可,太田警察署・太田消防本部方面より北へ、車で２分/三枚橋駅近く,"",ヘア,https://beauty.hotpepper.jp/slnH000331985
Hair design salon SWAG,0270-75-4162 ,群馬,伊勢崎市,安堀町1883-5　テナントピュア1B,アウト,架電可,伊勢崎駅から車で5分。伊勢崎大胡県道沿い,"",ヘア,https://beauty.hotpepper.jp/slnH000368883
美容室サムサラ,0277-55-5565 ,群馬,桐生市,相生町１‐１２４‐１,アウト,架電可,JR桐生駅 　　 わたらせ渓谷鉄道下新田駅,"",ヘア,https://beauty.hotpepper.jp/slnH000208841
Arcobaleno   -  アルコバレーノ  - ,027-212-8974 ,群馬,前橋市,天川大島町４－１　2F,アウト,架電可,ＪＲ前橋大島駅徒歩15分　県道２号線沿い(松並木通り)　らーめん原点様の隣,"",ヘア,https://beauty.hotpepper.jp/slnH000278028
STELLA hair desigh,027-388-8966 ,群馬,高崎市,貝沢町974‐1,アウト,架電可,JR高崎問屋町駅　徒歩7分 フタツメ貝沢店のすぐ右。,"",ヘア,https://beauty.hotpepper.jp/slnH000375373
ＡＮＤＹ　【アンディー】,027-362-0707 ,群馬,高崎市,井野町698,アウト,架電可,JR井野駅から車で10分,"",ヘア,https://beauty.hotpepper.jp/slnH000347722
malibu hair resort 伊勢崎本店,0270-76-1947 ,群馬,伊勢崎市,境東新井463-1,アウト,架電可,県道２号線　東新井の信号のカド,"",ヘア,https://beauty.hotpepper.jp/slnH000365549
Sleek hair,0276-57-6096 ,群馬,太田市,阿久津町123‐1　岩崎ビル1F,アウト,架電可,旧国道３５４号線沿い／岩松の交差点を過ぎて400m程進み、左側,"",ヘア,https://beauty.hotpepper.jp/slnH000301302
HAIR & MAKE EARTH　前橋店,027-224-0001 ,群馬,前橋市,六供町1001-1,アウト,架電可,JR前橋駅 車10分／JR前橋駅 徒歩30分【EARTH前橋】,"",ヘア,https://beauty.hotpepper.jp/slnH000232962
tom hair（トムヘアー）,027-226-1612 ,群馬,前橋市,大友町３－２０－５　木部マンション１F,アウト,架電可,大友町の信号より前橋マーキュリーホテルを左折して約300m左側,"",ヘア,https://beauty.hotpepper.jp/slnH000359703
SQUIER,0270-23-2670 ,群馬,伊勢崎市,太田町149-1,アウト,架電可,ＪＲ伊勢崎駅徒歩２０分,"",ヘア,https://beauty.hotpepper.jp/slnH000219589
malibu hair resort みどり店,0277-47-6076 ,群馬,みどり市,笠懸町阿左美399-1,アウト,架電可,東武桐生線阿左美駅より車２分/徒歩10分,"",ヘア,https://beauty.hotpepper.jp/slnH000361713
rela hair salon,027-289-2488 ,群馬,前橋市,総社町総社１１４０－３,アウト,架電可,群馬総社駅から車で約10分,"",ヘア,https://beauty.hotpepper.jp/slnH000351498
ＭｏｎＡｍｉｅ,0270-75-4766 ,群馬,伊勢崎市,山王町2020-6,アウト,架電可,除ヶ町交差点からすぐ。142号線沿い、東京福祉大学となり。　,"",ヘア,https://beauty.hotpepper.jp/slnH000363852
allmelu,027-387-0522 ,群馬,高崎市,下小塙町1343-5,アウト,架電可,高崎経済大学から徒歩3分,"",ヘア,https://beauty.hotpepper.jp/slnH000231691
garden hair work,0270-75-4277 ,群馬,伊勢崎市,田部井町３－118－2,アウト,架電可,伊勢崎スマークから車で10分　　　伊勢崎インター、太田藪塚インターからも車で約10分,"",ヘア,https://beauty.hotpepper.jp/slnH000258018
GOD Hair&Make 高崎店,027-363-7780 ,群馬,高崎市,飯塚町４７６‐５,アウト,架電可,サントノーレ高崎店より南へ約250m、ホリデイスポーツクラブ隣り,"",ヘア,https://beauty.hotpepper.jp/slnH000216245
～百花～ hyakka 髪切美匠,027-226-1839 ,群馬,前橋市,六供町１１００－５,アウト,架電可,前橋六供プール向かい,"",ヘア,https://beauty.hotpepper.jp/slnH000320714
hair salon Cergy,0276-61-3433 ,群馬,太田市,新井町519‐11,アウト,架電可,太田駅から徒歩20分。車で5分。,"",ヘア,https://beauty.hotpepper.jp/slnH000235298
Hair　Life　deco*na,027-323-1057 ,群馬,高崎市,南町8-10,アウト,架電可,高崎駅西口より車で3分,"",ヘア,https://beauty.hotpepper.jp/slnH000274878
hair relaxation Lead  - リード -,027-226-5386 ,群馬,前橋市,南町３－２９－８,アウト,架電可,けやきウォーク様から徒歩２分,"",ヘア,https://beauty.hotpepper.jp/slnH000278023
ELEGANCE fleur,027-283-8896 ,群馬,前橋市,大胡町399,アウト,架電可,大胡駅出口から徒歩約8分,"",ヘア,https://beauty.hotpepper.jp/slnH000311422
macro hair　～　マクロヘアー,027-212-9665 ,群馬,前橋市,下新田町４４７－３,アウト,架電可,長瀞線沿い、フレッセイとDステーションの隣のテナント,"",ヘア,https://beauty.hotpepper.jp/slnH000245398
MARIS STELLA　　- マリスステラ -,0277-46-8921 ,群馬,太田市,大原町1107-17,アウト,架電可,東武桐生線阿左美駅車10分/太田藪塚ICより車で10分,"",ヘア,https://beauty.hotpepper.jp/slnH000323670
美容室　Purse（パージュ）,027-233-7742 ,群馬,前橋市,若宮町４-１４-２,アウト,架電可,国道17号 群大病院東交差点を東部バイパス方面へ約350m シャンゴ様交差点を左折し右側,"",ヘア,https://beauty.hotpepper.jp/slnH000256979
Hair's Cool -クール-,027-289-6699 ,群馬,前橋市,駒形町1543-1,アウト,架電可,フォリオ駒形ショッピングセンターから伊勢崎方面へ150m行った右側,"",ヘア,https://beauty.hotpepper.jp/slnH000227296
hair Do poja 玉村店,0270-75-1214 ,群馬,佐波郡玉村町上福島38-5市,,アウト,架電可,【玉村町】　玉村中学校より車で5分,"",ヘア,https://beauty.hotpepper.jp/slnH000359706
HAIR DOMON,027-363-1211 ,群馬,高崎市,並榎町３６－１,アウト,架電可,国道17号線の群馬トヨペット高崎並榎店がある「並榎町」交差点を北西へ100m向った右側,"",ヘア,https://beauty.hotpepper.jp/slnH000185591
hugo Hair Lounge,0277-47-7047 ,群馬,みどり市,笠懸町久宮147-11,アウト,架電可,JR両毛線 岩宿駅 車10分,"",ヘア,https://beauty.hotpepper.jp/slnH000359702
high workers  ,0276-20-2470 ,群馬,太田市,西本町19-31,アウト,架電可,太田駅より車で５分/太田女子高校近く,"",ヘア,https://beauty.hotpepper.jp/slnH000319876
ハレルヤ -高崎-,027-365-4456 ,群馬,高崎市,問屋町２－９－２,アウト,架電可,高崎問屋町駅問屋口より徒歩8分,"",ヘア,https://beauty.hotpepper.jp/slnH000179183
Hair&Extension -ｒａｆａ-,027-321-8718 ,群馬,高崎市,通町９３－１１　フジミビル２Ｆ,アウト,架電可,高崎駅西口、徒歩3分,"",ヘア,https://beauty.hotpepper.jp/slnH000167509
VIS富岡店　【　ヴィス富岡　】,0274-67-5107 ,群馬,富岡市,黒川650　ベイシアショッピングセンター内,アウト,架電可,ベイシア富岡店ショッピングセンター内,"",ヘア,https://beauty.hotpepper.jp/slnH000375058
Unico,0276-55-8761 ,群馬,太田市,新島町261-1,アウト,架電可,太田駅から徒歩10分・車で3分,"",ヘア,https://beauty.hotpepper.jp/slnH000272867
MIZUMA,027-231-0580 ,群馬,前橋市,城東町１－１０－１４,アウト,架電可,JR前橋駅北口より車で約７分,"",ヘア,https://beauty.hotpepper.jp/slnH000341785
cremia Hair×Face,0270-88-9713 ,群馬,伊勢崎市,波志江町1017-5,アウト,架電可,波志江スマートＩＣより車で10分,"",ヘア,https://beauty.hotpepper.jp/slnH000371477
Hair salon Ziel,027-384-4920 ,群馬,高崎市,大沢町246-3-101,アウト,架電可,高崎IC近く。高崎方面から京目町の信号を左折してラーメン屋（マルキンさん）目の前,"",ヘア,https://beauty.hotpepper.jp/slnH000348342
理容室　－髪職人　sin－,027-362-6414 ,群馬,高崎市,並榎町33,アウト,架電可,JR北高崎駅より車で5分,"",ヘア,https://beauty.hotpepper.jp/slnH000268655
Herbs hair 前橋店,027-235-5477 ,群馬,前橋市,川原町２-1-6,アウト,架電可,『川原町』交差点を右折して、すぐ右側。DooRooMoo様裏。,"",ヘア,https://beauty.hotpepper.jp/slnH000310975
Ｑｕａ　ｆａｖｏｒｉｔｅ【クア　フェイバリット】,027-386-9637 ,群馬,高崎市,上並榎町454-2,アウト,架電可,北高崎駅からバスにて5分,"",ヘア,https://beauty.hotpepper.jp/slnH000208665
PLATINO,027-326-0680 ,群馬,高崎市,江木町1666,アウト,架電可,環状線グランドパティオ高崎すぐ近く・JR高崎駅東口から車で10分,"",ヘア,https://beauty.hotpepper.jp/slnH000238694
Lapin CREA,027-235-0900 ,群馬,前橋市,川原町２-4-4　しみずスーパー内,アウト,架電可,しみずスーパー川原店さん店内,"",ヘア,https://beauty.hotpepper.jp/slnH000310807
ATELIER 2.23 sante -サンテ-,027-252-6223 ,群馬,前橋市,大友町２‐６‐７,アウト,架電可,産業道路沿い　ソネット（旧コジマ電気）の北隣　ドミノピザの南隣,"",ヘア,https://beauty.hotpepper.jp/slnH000219997
ヘアーサロンファンズ　前橋文京町店,027-288-0107 ,群馬,前橋市,文京町４－１８－２２　文京ビル１Ｆ,アウト,架電可,両毛線前橋駅徒歩20分　けやきウォークより車で5分　ラウンドワンより車で5分,"",ヘア,https://beauty.hotpepper.jp/slnH000377220
Beauty Box BAMBI,0276-57-8733 ,群馬,太田市,飯田町770－1　1F,アウト,架電可,東武伊勢崎線 太田駅 車で5分,"",ヘア,https://beauty.hotpepper.jp/slnH000345841
hair studio Mono,027-212-3868 ,群馬,前橋市,表町１‐２２‐２５,アウト,架電可,前橋駅から徒歩３分,"",ヘア,https://beauty.hotpepper.jp/slnH000208649
美容室　Ｋａｎｏｎ,0270-75-1660 ,群馬,伊勢崎市,曲沢町196-1,アウト,架電可,フレッセイフォリオ赤堀店　テナント内,"",ヘア,https://beauty.hotpepper.jp/slnH000308601
IMAGINE,027-232-0884 ,群馬,前橋市,上細井町2316-4　SKビル２F,アウト,架電可,県道76号市立前橋高の東、ドラッグスギ様の南隣　２階です。,"",ヘア,https://beauty.hotpepper.jp/slnH000249071
Ice Candy SPICE 【アイスキャンディー　スパイス】,027-365-5529 ,群馬,高崎市,新保町268-1 井草ビル2Ｆ 201,アウト,架電可,【高崎・新保町】フレッセイ新保店様より車で1分,"",ヘア,https://beauty.hotpepper.jp/slnH000371481
楽hair【ラクヘアー】前橋駅前店,027-223-5551 ,群馬,前橋市,南町３丁目52-6,アウト,架電可,前橋駅南口から南へ【南町3】交差点を右折。400m直進。ローソン様の隣です。,"",ヘア,https://beauty.hotpepper.jp/slnH000239178
elk hair salon,0276-30-5585 ,群馬,太田市,高林南町８６２－５,アウト,架電可,旧354号沿い(県道142号線)・高林交差点近く,"",ヘア,https://beauty.hotpepper.jp/slnH000180891
GUZZLE OTA　＜ガズル太田＞,0276-52-3370 ,群馬,太田市,亀岡町466-1,アウト,架電可,木崎駅徒歩20分、車で約5分、太田駅車20分,"",ヘア,https://beauty.hotpepper.jp/slnH000305474
design labo　- デザイン ラボ -,0276-20-2777 ,群馬,太田市,東本町２８‐３,アウト,架電可,太田駅北口徒歩5分/駐車場は店舗裏側にあり。裏側へは店舗正面右側から入れます。,"",ヘア,https://beauty.hotpepper.jp/slnH000197422
hair salon  ｉｒｏｄｏｒｉ　- イロドリ -,027-289-4585 ,群馬,前橋市,三俣町１－１２－１１,アウト,架電可,大胡県道・東和銀行様むかい。 上電三俣駅より徒歩２分,"",ヘア,https://beauty.hotpepper.jp/slnH000274761
hair　Seele　- ゼーレ -,0276-55-1205 ,群馬,太田市,新島町645-1　アドホックビル103,アウト,架電可,東武伊勢崎線太田駅南口より南東方向に12分,"",ヘア,https://beauty.hotpepper.jp/slnH000305839
Knot & Bell,027-226-6501 ,群馬,前橋市,亀里町327-3,アウト,架電可,前橋南インター近く。コストコ北方面「亀里」の信号,"",ヘア,https://beauty.hotpepper.jp/slnH000253728
rista　hair salon -リスタ-,0276-25-2626 ,群馬,太田市,本町１６－２２　シードパレロイヤル１０６号,アウト,架電可,太田駅北口より約500m。県道2号線沿いのシーパレスロイヤル,"",ヘア,https://beauty.hotpepper.jp/slnH000183617
美容室　癒,0270-75-3450 ,群馬,伊勢崎市,連取町2361-8,アウト,架電可,ベイシアマート　でりしゃす　丸亀製麺近く,"",ヘア,https://beauty.hotpepper.jp/slnH000224884
和流美容室 髪切美匠 青とそら,027-329-5310 ,群馬,高崎市,井野町995-13,アウト,架電可,高崎駅から車で20分　井野駅から徒歩10分,"",ヘア,https://beauty.hotpepper.jp/slnH000232185
mod's hair前橋店,027-210-2000 ,群馬,前橋市,国領町２－１１－７,アウト,架電可,国道17号線沿いにあり、大きな看板が目印。リリカ（旧前橋サティー）隣。,"",ヘア,https://beauty.hotpepper.jp/slnH000181512
AVALANCHE,027-384-6400 ,群馬,高崎市,中泉町631-26 B-section,アウト,架電可,イオン高崎より車で5分。スーパービバホームより車で3分。,"",ヘア,https://beauty.hotpepper.jp/slnH000322163
Ａｍｐ,0276-31-2112 ,群馬,太田市,由良町３０１‐４,アウト,架電可,太田駅より車12分、細谷駅より車5分,"",ヘア,https://beauty.hotpepper.jp/slnH000209714
Sun Smile hair,0270-22-0101 ,群馬,伊勢崎市,三和町1426-1,アウト,架電可,北関東道　伊勢崎ＩＣから車で5分。スマーク伊勢崎からも車で5分,"",ヘア,https://beauty.hotpepper.jp/slnH000271327
HAIR　DESIGN　YURA　-FOR MEN-,0276-31-6407 ,群馬,太田市,由良町189-2,アウト,架電可,東武伊勢崎線 細谷駅 徒歩5分,"",ヘア,https://beauty.hotpepper.jp/slnH000316650
HAIR ART 123,090-9209-8891 ,群馬,桐生市,広沢町１-２５２１-３,アウト,架電可,東武新桐生駅徒歩15分,"",ヘア,https://beauty.hotpepper.jp/slnH000285639
美容室　アンジュ　相生店,0277-55-1818 ,群馬,桐生市,相生町２‐８５５‐５,アウト,架電可,相老駅,"",ヘア,https://beauty.hotpepper.jp/slnH000200434
corolle,0276-55-4917 ,群馬,太田市,飯塚町1502-4,アウト,架電可,太田駅から車で６分,"",ヘア,https://beauty.hotpepper.jp/slnH000278498
Margo hair,0270-21-1175 ,群馬,伊勢崎市,宮子町3521-1　ペアシティールネッサンス１A,アウト,架電可,★北関東自動車道　駒形ＩＣより車で5分★,"",ヘア,https://beauty.hotpepper.jp/slnH000331946
髪こうぼう,0270-30-3838 ,群馬,伊勢崎市,連取町３２８１－５　ＮＮビル１Ｆ,アウト,架電可,伊勢崎駅から車１０分,"",ヘア,https://beauty.hotpepper.jp/slnH000203855
THEATER. hair salon,0277-47-7736 ,群馬,桐生市,永楽町6-20　シャインビル１Ｆ,アウト,架電可,JR桐生駅北口より徒歩7分,"",ヘア,https://beauty.hotpepper.jp/slnH000321897
HY hair design,027-326-0008 ,群馬,高崎市,栄町２５－２４,アウト,架電可,高崎駅東口徒歩5分　エテルナ高崎の裏手,"",ヘア,https://beauty.hotpepper.jp/slnH000183601
atelier Lo-nA haircare & design,027-289-5228 ,群馬,前橋市,古,アウト,架電可,JR新前橋駅徒歩10分。車で2分,"",ヘア,https://beauty.hotpepper.jp/slnH000353229
JS CACHETTE,0276-57-8587 ,群馬,太田市,新田中江田町752-3 ,アウト,架電可,【車】太田駅20分 木崎駅6分,"",ヘア,https://beauty.hotpepper.jp/slnH000332330
Roges (New OPEN),0270-27-5383 ,群馬,伊勢崎市,大手町13-16,アウト,架電可,伊勢崎駅南口から徒歩10分,"",ヘア,https://beauty.hotpepper.jp/slnH000360321
美容室　Reir　-レイール-,0276-31-7543 ,群馬,太田市,藤阿久町913-19　ニューシティ半田110,アウト,架電可,太田駅車６分,"",ヘア,https://beauty.hotpepper.jp/slnH000329225
hair  chou  chou,027-226-6706 ,群馬,前橋市,総社町２-4-15  リバティプレイス１-E,アウト,架電可,産業道路モダンゴルフの交差点を東へ、線路を越えてローソンのＹ字路を右へ約400m左側,"",ヘア,https://beauty.hotpepper.jp/slnH000256980
Hair-Make up oshima,0277-47-0222 ,群馬,桐生市,元宿町9-19,アウト,架電可,ＪＲ桐生駅南口から徒歩8分,"",ヘア,https://beauty.hotpepper.jp/slnH000364602
Hair Bell KANAI,0270-74-0882 ,群馬,伊勢崎市,境754-13,アウト,架電可,境町駅南口より徒歩３分　国道354号線【駅入口】を駅方面に約200m、左折した角,"",ヘア,https://beauty.hotpepper.jp/slnH000211213
kiconowa　　～ キコノワ ～,027-226-5158 ,群馬,前橋市,六供町７７６－３　第２ミナミビル１０１,アウト,架電可,ケヤキウォークから前橋工科大方面へ、ローソンを左折し100メートル。,"",ヘア,https://beauty.hotpepper.jp/slnH000268446
HAIR & MAKE EARTH　高崎店,027-350-1771 ,群馬,高崎市,上中居町１６６６－１,アウト,架電可,JR高崎駅東口　車で5分　／　高崎伊勢崎線沿い！！【EARTH高崎】,"",ヘア,https://beauty.hotpepper.jp/slnH000232961
Hair do LibeRo,027-289-9497 ,群馬,前橋市,箱田町341-1 三華ビル104,アウト,架電可,ＪＲ新前橋駅徒歩10分,"",ヘア,https://beauty.hotpepper.jp/slnH000317033
BRIOCHE,027-386-5859 ,群馬,高崎市,貝沢町424-2 ラ・メール101,アウト,架電可,JR高崎問屋町＜貝沢口＞より徒歩10分,"",ヘア,https://beauty.hotpepper.jp/slnH000253332
Hair salon LiNO,027-386-6747 ,群馬,高崎市,中尾町109-1,アウト,架電可,前橋ICから車で3分。,"",ヘア,https://beauty.hotpepper.jp/slnH000373438
cork HAIR,027-265-6552 ,群馬,前橋市,橳島町144-2,アウト,架電可,前橋駅面からは、六供温水プールから南へ約1km行った右側,"",ヘア,https://beauty.hotpepper.jp/slnH000230222
【伊勢崎美容室】klein-garten ～クラインガルテン～,0270-25-3010 ,群馬,伊勢崎市,宮子町３４１６－６,アウト,架電可,【伊勢崎美容室kg】ベイシアスーパーモールより車1分,"",ヘア,https://beauty.hotpepper.jp/slnH000171644
atelier RUSA (アトリエルーサ）,027-289-8404 ,群馬,前橋市,南町３-19-5 松井コーポ101号室,アウト,架電可,けやきウォークより前橋駅方面へ。本町交差点より１つ手前の信号角。,"",ヘア,https://beauty.hotpepper.jp/slnH000356356
虹　anuenue,027-387-0960 ,群馬,高崎市,大八木町381-2,アウト,架電可,井野駅から車で7分,"",ヘア,https://beauty.hotpepper.jp/slnH000375237
Gina for hair,0270-21-1260 ,群馬,伊勢崎市,宮子町3463‐13,アウト,架電可,JR両毛線 駒形 車で 9分,"",ヘア,https://beauty.hotpepper.jp/slnH000234285
Rien Lien ～リアン　リアン～,027-395-0575 ,群馬,高崎市,筑縄町10-13,アウト,架電可,しまむら筑縄店様そば,"",ヘア,https://beauty.hotpepper.jp/slnH000353750
An,027-352-7380 ,群馬,高崎市,上中居町1609-3 上中居T-ONE D,アウト,架電可,JR高崎駅から車で3分,"",ヘア,https://beauty.hotpepper.jp/slnH000231400
chicas hair,027-388-8371 ,群馬,高崎市,倉賀野町1815-12,アウト,架電可,倉賀野駅から徒歩３分　ミスターマックス倉賀野店そば,"",ヘア,https://beauty.hotpepper.jp/slnH000293352
hair&make Lucia,027-370-0101 ,群馬,高崎市,貝沢町623-1　グランスプリングス101,アウト,架電可,JR高崎線　高崎問屋町駅　徒歩5分,"",ヘア,https://beauty.hotpepper.jp/slnH000332362
hair×make be-ta,027-388-0031 ,群馬,高崎市,藤塚町46-1,アウト,架電可,群馬八幡駅より徒歩10分。18号沿い環状線の交差点より500m安中方面です。,"",ヘア,https://beauty.hotpepper.jp/slnH000171393
kokua hair garage　-コクア　ヘア　ガレージ-,0276-57-8931 ,群馬,太田市,細谷町178-2,アウト,架電可,東武線太田駅より車10分/東武線細谷駅より車3分,"",ヘア,https://beauty.hotpepper.jp/slnH000308946
Tiare　hair　makes　藪塚店,0277-78-8911 ,群馬,太田市,藪塚町４２６－１　スペースタウン駅前１０２,アウト,架電可,藪塚駅から北西へ約300m。丹波家具の向かい。,"",ヘア,https://beauty.hotpepper.jp/slnH000183865
hair love One 邑楽,0276-50-1360 ,群馬,邑楽郡邑楽町中野4477-3市,,アウト,架電可,群馬県邑楽郡邑楽町中野3110-3,"",ヘア,https://beauty.hotpepper.jp/slnH000375278
クロシェットヘアデザイン,027-226-5885 ,群馬,前橋市,天川大島町４３　カーサセフィーロ　１F－B,アウト,架電可,前橋大島駅から徒歩１０分,"",ヘア,https://beauty.hotpepper.jp/slnH000347820
petit hair design,027-253-7774 ,群馬,前橋市,下石倉町１２-２５,アウト,架電可,新前橋駅より車で10分,"",ヘア,https://beauty.hotpepper.jp/slnH000210907
WORKS,027-365-4433 ,群馬,高崎市,飯塚町147-4　第２ニトBLD　１F,アウト,架電可,ベルク高崎飯塚店付近,"",ヘア,https://beauty.hotpepper.jp/slnH000172083
Hair Shop あると,027-365-3556 ,群馬,高崎市,貝沢町949-3,アウト,架電可,高崎問屋町駅から徒歩５分,"",ヘア,https://beauty.hotpepper.jp/slnH000225152
DEX hair 　【デックスヘアー】,027-377-9157 ,群馬,高崎市,福島町703-1,アウト,架電可,群馬銀行・中泉支店より車で1分,"",ヘア,https://beauty.hotpepper.jp/slnH000373913
FACTORY　HAIR,027-330-5452 ,群馬,高崎市,江木町275-1,アウト,架電可,JR高崎駅東口徒歩10分 高崎レジャーランドすぐ近く,"",ヘア,https://beauty.hotpepper.jp/slnH000273471
cobaus hair,0276-60-4987 ,群馬,太田市,末広町５４８－８,アウト,架電可,国道354線沿い、ｃｏｃｏ壱番屋太田末広店様すぐとなり,"",ヘア,https://beauty.hotpepper.jp/slnH000172391
Beauty Resort  BEECX (ビークス),0800-800-5578 ,群馬,高崎市,新保町34,アウト,架電可,高崎商業高校・パシオス新保町店近く,"",ヘア,https://beauty.hotpepper.jp/slnH000263962
quintetto -クインテット-,027-210-2115 ,群馬,前橋市,敷島町３７,アウト,架電可,敷島公園内、パークホテル楽々園1F,"",ヘア,https://beauty.hotpepper.jp/slnH000179371
Tiare　hair　makes　太田店,0276-47-1182 ,群馬,太田市,新井町５６５－１３　ドリームタウン１０５,アウト,架電可,太田バイパスの「新浜公園入口」交差点を北へ進み、すぐの交差点を右折した右側。,"",ヘア,https://beauty.hotpepper.jp/slnH000183857
Abo hair,027-343-2626 ,群馬,高崎市,剣崎町224-11,アウト,架電可,JR群馬八幡駅より徒歩約５分,"",ヘア,https://beauty.hotpepper.jp/slnH000311236
hair lounge SUONO,027-289-6304 ,群馬,前橋市,総社町総社3137-1,アウト,架電可,産業道路モダンゴルフ交差点を南へ500m 右側テナント1F ダイアパレスマンション向かい,"",ヘア,https://beauty.hotpepper.jp/slnH000216472
Orquestra,027-353-2324 ,群馬,高崎市,矢中町３１８－６,アウト,架電可,高崎市矢中町　　モスバーガー近く,"",ヘア,https://beauty.hotpepper.jp/slnH000170331
ジア　ヘアー＆ネイル,0279-26-3075 ,群馬,渋川市,行幸田３０４－１　ココロエ１Ｆ,アウト,架電可,渋川警察署有馬交番より徒歩５分。ココロエ内１Ｆ,"",ヘア,https://beauty.hotpepper.jp/slnH000368888
Arch hair,027-386-9933 ,群馬,高崎市,上大類町1335-1,アウト,架電可,JR高崎問屋町駅より車で5分,"",ヘア,https://beauty.hotpepper.jp/slnH000233079
CAOS　－カオス－,027-289-2596 ,群馬,前橋市,大渡町１-4-2,アウト,架電可,県庁方面から前橋中央大橋を越え、すぐの信号（すき家が目印）を右折、170ｍ先。,"",ヘア,https://beauty.hotpepper.jp/slnH000172824
Essential Looks,027-288-0949 ,群馬,前橋市,石倉町５-2-8,アウト,架電可,【大渡町】交差点から東へ約100m行った右側/中央大橋手前/不二家の東側です,"",ヘア,https://beauty.hotpepper.jp/slnH000222665
美容プラージュ　伊勢崎店 ,0270-22-0358 ,群馬,伊勢崎市,本町１２－７,アウト,架電可,伊勢崎駅　徒歩15分,"",ヘア,https://beauty.hotpepper.jp/slnH000279372
美容プラージュ　高崎店,027-325-1970 ,群馬,高崎市,連雀町１０６　大手前ビル,アウト,架電可,JR各線　高崎駅西口　徒歩１０分,"",ヘア,https://beauty.hotpepper.jp/slnH000298469
sophers -資生堂コラボレーションサロン-,0120-98-0702 ,群馬,太田市,南矢島町３８４,アウト,架電可,国道354号線【南矢島町】交差点を北へ約350m行った右側　セブンイレブンの手前です,"",ヘア,https://beauty.hotpepper.jp/slnH000206877
ア・ウィッシュ（a・wish）,0277-54-9315 ,群馬,桐生市,広沢町２‐３３５２‐１,アウト,架電可,新桐生駅,"",ヘア,https://beauty.hotpepper.jp/slnH000197396
美容室ジョー,0278-22-3737 ,群馬,沼田市,下之町８８０‐３,アウト,架電可,沼田駅からバスで5分,"",ヘア,https://beauty.hotpepper.jp/slnH000206729
ヘアービジョン,0277-54-6454 ,群馬,桐生市,相生町２‐５６５‐１,アウト,架電可,桐生球場前駅が最寄り駅。桐生市街地からお車で13分、大間々駅からお車で13分位です。,"",ヘア,https://beauty.hotpepper.jp/slnH000199072
ブルーラグーン,0276-75-7850 ,群馬,館林市,新宿１‐９‐１２,アウト,架電可,館林駅から徒歩8分,"",ヘア,https://beauty.hotpepper.jp/slnH000212587
JAM,0276-47-4377 ,群馬,館林市,本町２‐５‐１,アウト,架電可,館林駅から徒歩1分　２階,"",ヘア,https://beauty.hotpepper.jp/slnH000212596
美容室 Thida,0279-25-8117 ,群馬,渋川市,阿久津7-1,アウト,架電可,≪渋川駅から車で8分≫,"",ヘア,https://beauty.hotpepper.jp/slnH000249546
