会社名,電話番号,都道府県,市区郡,町名・番地,アウトorイン,リード状況,備考,リストランク,業種（選択）,Web サイト
sucre MORIOKA（シュクル モリオカ）,019-654-0105 ,岩手,盛岡市,菜園２-2-19 十九番館2F,アウト,架電可,盛岡駅より徒歩10分,"",ヘア,https://beauty.hotpepper.jp/slnH000240944
printemps　Luxe　【プランタンリュクス】,0120-543-706 ,岩手,盛岡市,大通２-1-23,アウト,架電可,JR盛岡駅徒歩10分,"",ヘア,https://beauty.hotpepper.jp/slnH000105904
Agu hair fran【アグ ヘアー フラン】盛岡本宮店 by alice,019-613-8647 ,岩手,盛岡市,向中野３－１８－３５　コーデン本宮102号,アウト,架電可,南イオンとなり,"",ヘア,https://beauty.hotpepper.jp/slnH000304210
Agu hair marry【アグ ヘアー マリー】運動公園前店 by alice,019-656-7428 ,岩手,盛岡市,みたけ３－２－４５　１階,アウト,架電可,県営運動公園のサッカー場の向かい。しまむら みたけ店近く,"",ヘア,https://beauty.hotpepper.jp/slnH000373519
Agu hair eclat【アグ ヘアー エクラ】津志田店 by alice,019-613-8117 ,岩手,盛岡市,津志田町１－１６－１１,アウト,架電可,Honda Cars岩手中央近く　都南バッティングセンター共有駐車場をご利用下さい。,"",ヘア,https://beauty.hotpepper.jp/slnH000350485
LEAD by LAGOON【リード　バイ　ラグーン】,019-656-7171 ,岩手,盛岡市,大通３-1-12 近江屋ビル《２F》,アウト,架電可,盛岡駅から徒歩7分　大通入り口・クロステラスの目の前,"",ヘア,https://beauty.hotpepper.jp/slnH000329952
Agu hair gita【アグ ヘアー ジータ】みたけ店 by alice,019-613-4025 ,岩手,盛岡市,みたけ３－３８－３０　,アウト,架電可,釜石ごん太、マルカンペットショップ、近く★店舗横に無料駐車場9台有り★,"",ヘア,https://beauty.hotpepper.jp/slnH000344762
SUGAR morioka,019-625-0480 ,岩手,盛岡市,開運橋通2-31 1・２F,アウト,架電可,JR盛岡駅から徒歩７分,"",ヘア,https://beauty.hotpepper.jp/slnH000275854
hair salon　aura 【アウラ】,0120-873-470 ,岩手,盛岡市,菜園２-3-1　4Ｆ,アウト,架電可,菜園 川徳 スターバックスの向かいのビル4F,"",ヘア,https://beauty.hotpepper.jp/slnH000375820
reve by Hair make Charis 【レーヴ】 ,019-681-6867 ,岩手,盛岡市,長橋町１６－２５,アウト,架電可,盛岡駅から車で約10分、前潟イオン近く,"",ヘア,https://beauty.hotpepper.jp/slnH000318636
Agu hair lolo【アグ ヘアー ロロ】盛岡店 by alice,019-613-2722 ,岩手,盛岡市,大通２－７－２７　和久ビル２階,アウト,架電可,盛岡駅から徒歩10分,"",ヘア,https://beauty.hotpepper.jp/slnH000288836
Daisy（デイジー）,019-653-7523 ,岩手,盛岡市,開運橋通2-30　開運橋ビル,アウト,架電可,盛岡駅より徒歩10分,"",ヘア,https://beauty.hotpepper.jp/slnH000304180
Hair＆Nail　B　Road　　（ヘアーアンドネイル　ビーロード）,019-656-7291 ,岩手,盛岡市,向中野7-14-3　アクロスプラザ盛南内,アウト,架電可,盛岡駅より車で８分　【盛岡】,"",ヘア,https://beauty.hotpepper.jp/slnH000242414
Ｇｏｔｈａｍ　ＨAIR　【ゴッサムヘアー】,0120-158-167 ,岩手,盛岡市,盛岡駅前通１－４４（フェザン２Ｆ）,アウト,架電可,盛岡駅フェザン内2F,"",ヘア,https://beauty.hotpepper.jp/slnH000105910
CIEL,019-623-5513 ,岩手,盛岡市,中央通１丁目8-16,アウト,架電可,北日本銀行本店向かえ、ヒノヤタクシー隣り,"",ヘア,https://beauty.hotpepper.jp/slnH000362319
Hair &Make　HUG　肴町店【ハグ】,019-681-6689 ,岩手,盛岡市,肴町3-30　パークハイツ中津川103,アウト,架電可,盛岡バスセンター　徒歩3分,"",ヘア,https://beauty.hotpepper.jp/slnH000234252
Ｇlａｎｚ　ｈａｉｒ【グランツ ヘアー】,019-656-8315 ,岩手,盛岡市,中央通３-１２-１,アウト,架電可,盛岡駅から徒歩10分,"",ヘア,https://beauty.hotpepper.jp/slnH000248885
printemps AVEDA,0800-1234-555 ,岩手,盛岡市,大通３-4　クロステラス２F,アウト,架電可,盛岡大通クロステラス２F,"",ヘア,https://beauty.hotpepper.jp/slnH000286685
Amitie by pretty【アンティエ】,0120-880-638 ,岩手,盛岡市,開運橋通1-33プレッティビル２F,アウト,架電可,盛岡駅徒歩10分　モスビル前,"",ヘア,https://beauty.hotpepper.jp/slnH000143104
A-base　【エーベース】,0120-972-723 ,岩手,盛岡市,菜園１-１１-１エスビル３Ｆ,アウト,架電可,川徳前より徒歩1分・ＪＲ盛岡駅バス8分,"",ヘア,https://beauty.hotpepper.jp/slnH000107715
Kiema【キエマ】,019-681-6260 ,岩手,盛岡市,盛岡駅前通16-14 エンジェルビル1-1F,アウト,架電可,盛岡駅前すぐ！盛楼閣さんと岩手銀行の間を通り、左に曲がって進んだ右手。高架橋手前,"",ヘア,https://beauty.hotpepper.jp/slnH000357738
printemps Bis　【プランタン　ビス】,0120-823-477 ,岩手,盛岡市,内丸６－８　イースト２１ビル,アウト,架電可,盛岡駅から徒歩20分,"",ヘア,https://beauty.hotpepper.jp/slnH000105902
IN TOKYO 盛岡店　【イントウキョウ】,019-636-0990 ,岩手,盛岡市,本宮６－３３－４５,アウト,架電可,盛岡駅から車で１０分,"",ヘア,https://beauty.hotpepper.jp/slnH000111810
Sola 【ソラ】,019-613-9866 ,岩手,盛岡市,中ノ橋通２－７－４２アルファ１０５,アウト,架電可,【マルイチ中ノ橋通店】八幡宮方面へすぐ,"",ヘア,https://beauty.hotpepper.jp/slnH000356685
ｐｒｉｎｔｅｍｐｓ　FOR 　HAIR 　【プランタンフォーヘアー】,0120-51-9161 ,岩手,盛岡市,大通１-8-10　ダイワロイネットホテル１Ｆ,アウト,架電可,盛岡駅徒歩15分,"",ヘア,https://beauty.hotpepper.jp/slnH000105906
hair key【ヘア　キィー】,019-613-5788 ,岩手,盛岡市,下ノ橋町7-2 ベリーズ下ノ橋１F,アウト,架電可,盛岡市下ノ橋町7-2 ベリーズ下ノ橋１F,"",ヘア,https://beauty.hotpepper.jp/slnH000346129
Colette hair　【コレットヘアー】,019-635-2819 ,岩手,盛岡市,本宮３-46-１,アウト,架電可,本宮,"",ヘア,https://beauty.hotpepper.jp/slnH000301328
HAIR MAKE PORTE　【ポルテ】,0120-520-377 ,岩手,盛岡市,盛岡駅前通8-12　ＭＨビル1Ｆ,アウト,架電可,JR盛岡駅徒歩3分,"",ヘア,https://beauty.hotpepper.jp/slnH000107490
Agu hair rudi【アグ ヘアー ルディ】 水沢店 by alice,0197-47-3587 ,岩手,奥州市,水沢区西町２－３１　メゾンノワール１階,アウト,架電可,ダイユーエイト・水沢公園近く,"",ヘア,https://beauty.hotpepper.jp/slnH000359611
Colette hair 大通 【コレットヘアー】,019-681-3044 ,岩手,盛岡市,大通３－１－６金澤ビル１Ｆ,アウト,架電可,盛岡市大通,"",ヘア,https://beauty.hotpepper.jp/slnH000349940
Agu hair gisele【アグ ヘアー ジゼル】花巻店 by alice,0198-29-6675 ,岩手,花巻市,西大通り１－１９－１,アウト,架電可,花巻駅から徒歩5分,"",ヘア,https://beauty.hotpepper.jp/slnH000336284
Beauty Gallery B'ESSAI　【ビエッセ】,019-626-5604 ,岩手,盛岡市,内丸-16-37-2F,アウト,架電可,岩手医大近く　内丸のローソン2F,"",ヘア,https://beauty.hotpepper.jp/slnH000107489
printemps LaVie 【プランタン　ラヴィ】,0120-211-773 ,岩手,紫波郡矢巾町大字南矢幅第９地割１９１市,,アウト,架電可,【矢巾】MaxValu/不来方高校近く,"",ヘア,https://beauty.hotpepper.jp/slnH000316020
パロマ　ピカソ,0120-522-012 ,岩手,盛岡市,菜園２-6-31,アウト,架電可,盛岡駅徒歩10分,"",ヘア,https://beauty.hotpepper.jp/slnH000105905
hair studio garou【ヘアースタジオ ガロウ】,019-652-6555 ,岩手,盛岡市,茶畑１-13-6,アウト,架電可,国道4号沿い　茶畑,"",ヘア,https://beauty.hotpepper.jp/slnH000252055
エレファントノーズ,019-636-2873 ,岩手,盛岡市,向中野３-３-１７,アウト,架電可,盛岡南イオンすぐ近く,"",ヘア,https://beauty.hotpepper.jp/slnH000175685
Pleame hair 　【プリーム　ヘアー】,019-681-4006 ,岩手,盛岡市,上田１-11-23 ハビテーション103,アウト,架電可,中央病院前バス停　徒歩1分,"",ヘア,https://beauty.hotpepper.jp/slnH000233307
etunile【エツニール】,019-656-7962 ,岩手,盛岡市,本宮３-２４-５,アウト,架電可,盛岡駅から車で５分,"",ヘア,https://beauty.hotpepper.jp/slnH000294476
Hair Garden Lunon　【ルノン】,019-601-5374 ,岩手,紫波郡矢巾町又兵エ新田第６地割91-2　TKテナントB市,,アウト,架電可,矢幅駅徒歩1分,"",ヘア,https://beauty.hotpepper.jp/slnH000301166
printemps ar【プランタンエーアール】,0120-439-332 ,岩手,盛岡市,前潟２-３-１０,アウト,架電可,イオン盛岡ＳＣそば　ユニクロ隣,"",ヘア,https://beauty.hotpepper.jp/slnH000118858
FELUCA OF HAIR【フェルーカ　オブ　ヘア】,019-652-0012 ,岩手,盛岡市,盛岡駅前通15-17,アウト,架電可,盛岡駅フェザン入口徒歩１分  マリオスロード下側道沿い。駐車場割有。※下記参照,"",ヘア,https://beauty.hotpepper.jp/slnH000254218
Terrace Hair Room【テラス　ヘアルーム】,019-681-3545 ,岩手,盛岡市,盛岡駅前北通9-13,アウト,架電可,盛岡駅から徒歩5分,"",ヘア,https://beauty.hotpepper.jp/slnH000326580
LUCY【ルーシー】,019-601-8013 ,岩手,盛岡市,大通１－９－７,アウト,架電可,盛岡市大通りミスタードーナッツさんの隣り,"",ヘア,https://beauty.hotpepper.jp/slnH000345162
hair studio garou みたけ店【へアースタジオガロウ】,019-656-6166 ,岩手,盛岡市,みたけ４-17-40 山岸アパート1Fテナント,アウト,架電可,【バス】みたけ４丁目　徒歩２分  【車】 県営運動公園より車で3分,"",ヘア,https://beauty.hotpepper.jp/slnH000321833
BABY STAR【ベイビースター】,019-681-4480 ,岩手,盛岡市,本町通１-17-11,アウト,架電可,岩手医大近く,"",ヘア,https://beauty.hotpepper.jp/slnH000170705
rope　【ロペ】　,019-618-6179 ,岩手,盛岡市,大沢川原１－１－１４,アウト,架電可,菜園川徳から徒歩５分 岩手公園から下の橋方面へきて橋の手前右手あります。,"",ヘア,https://beauty.hotpepper.jp/slnH000359186
美容室　age21,0198-24-0630 ,岩手,花巻市,西大通り１‐２１‐３,アウト,架電可,JR東北本線「花巻駅」西口より徒歩5分以内,"",ヘア,https://beauty.hotpepper.jp/slnH000227941
美容室　chinon　【シノン】,019-625-6806 ,岩手,盛岡市,菜園１-７-２２　東京土地ビル1Ｆ,アウト,架電可,ＪＲ盛岡駅徒歩10分,"",ヘア,https://beauty.hotpepper.jp/slnH000231459
HAND WORKS　【ハンドワークス】,0120-187-804 ,岩手,盛岡市,本町通３-4-20,アウト,架電可,盛岡駅から車で5分,"",ヘア,https://beauty.hotpepper.jp/slnH000228450
POPULAR【ポプラル】,019-641-7021 ,岩手,盛岡市,みたけ４-24-28,アウト,架電可,盛岡中央高校そば、旧ジョイス近く。自転車屋さんの隣です。,"",ヘア,https://beauty.hotpepper.jp/slnH000218642
banca. by FLOWERS,019-613-2884 ,岩手,盛岡市,開運橋通1-2　アイビルK-2F,アウト,架電可,開運橋からカワトク方面へ 徒歩5分,"",ヘア,https://beauty.hotpepper.jp/slnH000317026
PRETTY　FOR　HAIR,0197-23-5944 ,岩手,奥州市,水沢区大町１５３　千田善ビル１Ｆ,アウト,架電可,水沢駅から徒歩7分,"",ヘア,https://beauty.hotpepper.jp/slnH000228587
COOL  Hair gallery 神明町店　【クール　ヘアーギャラリー】,0120-53-8851 ,岩手,盛岡市,神明町-4-20,アウト,架電可,旧バスセンター徒歩2分,"",ヘア,https://beauty.hotpepper.jp/slnH000132303
Do people【ドゥ　ピープル】,019-637-4487 ,岩手,盛岡市,津志田２１‐２９,アウト,架電可,岩手飯岡駅から車10分／バス　津志田バス停から徒歩1分,"",ヘア,https://beauty.hotpepper.jp/slnH000180792
staccato@hair　　【スタッカートアットヘアー】,019-613-5070 ,岩手,盛岡市,月が丘３-４８-１６,アウト,架電可,岩手県交通月が丘3丁目バス停から徒歩２分,"",ヘア,https://beauty.hotpepper.jp/slnH000332455
GLAMOROUS RUDE　【グラマラスルード】,090-7073-1981 ,岩手,盛岡市,菜園２-7-30,アウト,架電可,盛岡菜園　ユニオン隣,"",ヘア,https://beauty.hotpepper.jp/slnH000255377
Cut＆Total Beauty POPULAR【ポプラル】,019-647-4828 ,岩手,盛岡市,前九年２-12-6,アウト,架電可,盛岡市前九年2-12-6,"",ヘア,https://beauty.hotpepper.jp/slnH000318301
Hair make Charis【カリス】,019-656-7278 ,岩手,盛岡市,本宮２-１６-１ 小泉産業ビル１Ｆ,アウト,架電可,盛岡駅から車で５分,"",ヘア,https://beauty.hotpepper.jp/slnH000287301
GOOD OL' HAIR【グッドオルヘア】,019-681-1745 ,岩手,盛岡市,盛岡駅西通１-16-33,アウト,架電可,盛岡駅、アイーナの裏、ＨＯＴEL　ＪＩＮのななめ向かいにおみせはあります,"",ヘア,https://beauty.hotpepper.jp/slnH000223651
NINE hair　【ナインヘアー】,019-613-3339 ,岩手,盛岡市,大通３―６―１２センタービル１Ｆ,アウト,架電可,JR盛岡駅徒歩7分　開運橋すぐ,"",ヘア,https://beauty.hotpepper.jp/slnH000310095
COOL Hair rhythm 上田店【クール　ヘアリズム】,0120-54-6201 ,岩手,盛岡市,上田１-14-1,アウト,架電可,岩手県立中央病院から徒歩３分,"",ヘア,https://beauty.hotpepper.jp/slnH000128398
BASH　【バッシュ】,019-681-6898 ,岩手,盛岡市,みたけ３-38-58 ベルメゾンＡ102,アウト,架電可,県営武道館より徒歩3分。エムズエクスポ側,"",ヘア,https://beauty.hotpepper.jp/slnH000284590
COOL Hair session 本町店 【セッション】,0120-654-877 ,岩手,盛岡市,本町通２-14-34,アウト,架電可,仁王小学校前バス停徒歩１分・中央郵便局前徒歩３分・周辺に駐車場も完備,"",ヘア,https://beauty.hotpepper.jp/slnH000159254
Hair Space Ai,0198-24-7846 ,岩手,花巻市,東町８‐１６,アウト,架電可,JR「花巻駅」より徒歩約20分。路面バス「豊沢駅」下車徒歩3分,"",ヘア,https://beauty.hotpepper.jp/slnH000227744
Ａｓｈ　artistic studio of hair　【アッシュ】,0120-53-1443 ,岩手,盛岡市,高松２-２-５０　アピタシオン１F,アウト,架電可,高松の池入り口　すぐそば,"",ヘア,https://beauty.hotpepper.jp/slnH000132302
W Hitch hair【ダブル　ヒッチ　ヘア】,019-635-1241 ,岩手,盛岡市,本宮１-５－２５,アウト,架電可,盛岡南イオン車で５分,"",ヘア,https://beauty.hotpepper.jp/slnH000286232
美容室Presto【プレスト】,019-613-3131 ,岩手,盛岡市,仙北１-15-42,アウト,架電可,岩手県盛岡市仙北１丁目１５－４２,"",ヘア,https://beauty.hotpepper.jp/slnH000368087
ギャラリーPARCO,0120-97-1232 ,岩手,盛岡市,月が丘１-２６－５２,アウト,架電可,青山駅から徒歩約14分。最寄バス停「青山４丁目」下車 徒歩３分,"",ヘア,https://beauty.hotpepper.jp/slnH000368406
ZEJIL Hair Design【ゼジル】,019-613-8373 ,岩手,滝沢市,穴口33-72,アウト,架電可,せいほくタウン内　最寄り駅　盛岡市厨川駅から徒歩20分　,"",ヘア,https://beauty.hotpepper.jp/slnH000289098
modern craft　（モダンクラフト）　北上店,019-772-5374 ,岩手,北上市,柳原町２－１－４０　１Ｆ,アウト,架電可,岩手県 北上市 柳原町２丁目1-40 1F,"",ヘア,https://beauty.hotpepper.jp/slnH000369483
理容　川村　内丸店,019-626-5601 ,岩手,盛岡市,内丸16-37,アウト,架電可,内丸　ローソン隣　１Ｆにあります。２Ｆは美容室です,"",ヘア,https://beauty.hotpepper.jp/slnH000223647
ＣＲＯＳＳ　ＲＯＡＤ 【クロスロード】,019-625-2775 ,岩手,盛岡市,大通３-7-4,アウト,架電可,JR盛岡駅徒歩7分　開運橋渡って1分,"",ヘア,https://beauty.hotpepper.jp/slnH000126518
Vanilla【バニラ】,019-622-4921 ,岩手,盛岡市,大通２－６－７  金盛商事第二ビル４Ｆ,アウト,架電可,大通　サンマルクカフェ隣り　金盛商事第二ビル4F,"",ヘア,https://beauty.hotpepper.jp/slnH000317485
salon de CHEZ MOI,0197-65-2827 ,岩手,北上市,有田町７‐１,アウト,架電可,柳原駅,"",ヘア,https://beauty.hotpepper.jp/slnH000228291
salon de Sugar（サロン ド シュガー）,019-625-0480 ,岩手,盛岡市,開運橋通2-31 1・２F,アウト,架電可,JR盛岡駅　徒歩7分,"",ヘア,https://beauty.hotpepper.jp/slnH000231840
calme【カルム】,019-643-5454 ,岩手,盛岡市,西青山２-30-5,アウト,架電可,旧シティ青山斜め向かい向かい。,"",ヘア,https://beauty.hotpepper.jp/slnH000169669
FRANCK　PROVOST　【フランクプロボー】,019-656-6300 ,岩手,盛岡市,本宮７丁目1番1号　イオンモール盛岡南ＳＣ2Ｆ,アウト,架電可,ＪＲ盛岡駅：徒歩25分  ／バス：盛岡駅東口13番のりば発着10分,"",ヘア,https://beauty.hotpepper.jp/slnH000105899
My jStyle(マイスタイル) by Yamano　盛岡店,019-651-5688 ,岩手,盛岡市,大通り２－６－７ 金盛ビル ３Ｆ,アウト,架電可,ＪＲ盛岡駅徒歩10分,"",ヘア,https://beauty.hotpepper.jp/slnH000230343
LAGOON【ラグーン】,019-656-7173 ,岩手,盛岡市,大通３－１－１２　近江屋ビル《１Ｆ》,アウト,架電可,岩手県 盛岡市 大通３丁目-1-12 近江屋ビル２Ｆ,"",ヘア,https://beauty.hotpepper.jp/slnH000378430
Arrows【アローズ】,019-613-3782 ,岩手,盛岡市,開運橋通５－７　東映堂ビル１F,アウト,架電可,盛岡駅から徒歩５分,"",ヘア,https://beauty.hotpepper.jp/slnH000286476
Letal HAIR【レタルヘアー】,019-613-7720 ,岩手,盛岡市,本町通１-8-22 トーカンマンション上の橋1階,アウト,架電可,盛岡駅より都心循環バスでんでんむし→上の橋下車   徒歩1分,"",ヘア,https://beauty.hotpepper.jp/slnH000325825
e'clat【エクラ】,019-656-6800 ,岩手,盛岡市,開運橋通１－６,アウト,架電可,アイ不動産隣黄色の建物です♪,"",ヘア,https://beauty.hotpepper.jp/slnH000233709
DR【ディーアール】,019-601-5087 ,岩手,盛岡市,大通２－7－19　アメリカ衣料店ビル ,アウト,架電可,【プレオープン中☆☆】系列店DECORAREにて営業中！！,"",ヘア,https://beauty.hotpepper.jp/slnH000371729
hair Lobby　【ヘア ロビー】,019-626-0350 ,岩手,盛岡市,紺屋町5-14ギボーシプラザ,アウト,架電可,岩手県盛岡市紺屋町5-14ギボシープラザ１Ｆ,"",ヘア,https://beauty.hotpepper.jp/slnH000365239
Palm hair【パームヘアー】,019-613-8820 ,岩手,盛岡市,三本柳１０地割17-16,アウト,架電可,ホーマック都南店近く,"",ヘア,https://beauty.hotpepper.jp/slnH000274434
infini 【アンフィニ】,019-654-2326 ,岩手,盛岡市,大通３－２－６　大通第５ビル２Ｆ,アウト,架電可,大通　セブンイレブンそば　ガスト向い　宝くじセンター2F,"",ヘア,https://beauty.hotpepper.jp/slnH000183769
Luxe New York【リュクス ニューヨーク】,019-654-2330 ,岩手,盛岡市,本町通１-8-21-103,アウト,架電可,上の橋バス停より徒歩10秒,"",ヘア,https://beauty.hotpepper.jp/slnH000224822
美容プラージュ　さくらの前店,0197-63-3328 ,岩手,北上市,本通り２丁目１－１１,アウト,架電可,JR各線　北上駅西口から徒歩１２分,"",ヘア,https://beauty.hotpepper.jp/slnH000272636
Cut&Total Beauty VINGT-QUATRE【ヴァンキャトル】,019-636-0883 ,岩手,盛岡市,向中野７-15-18,アウト,架電可,向中野　スーパーホーマック・TRIAL裏,"",ヘア,https://beauty.hotpepper.jp/slnH000285307
Hair Space Eco,019-604-1678 ,岩手,盛岡市,上田４－２０－４５,アウト,架電可,国道４号線やまなか屋より徒歩2分,"",ヘア,https://beauty.hotpepper.jp/slnH000132247
BLIS hair salon,0197-23-7007 ,岩手,奥州市,水沢区久田71-3,アウト,架電可,水沢駅から徒歩25分,"",ヘア,https://beauty.hotpepper.jp/slnH000363856
Hair Room Gift 〈ギフト〉,0191-48-4670 ,岩手,一関市,山目三反田２３０‐１,アウト,架電可,一ノ関駅から徒歩15分,"",ヘア,https://beauty.hotpepper.jp/slnH000229825
HAIR & MAKE EARTH　盛岡南店,019-656-5520 ,岩手,盛岡市,本宮７-２-１２　橋,アウト,架電可,盛岡駅からイオン盛岡南行きバス乗車、イオン盛岡南より徒歩2分【EARTH盛岡南】,"",ヘア,https://beauty.hotpepper.jp/slnH000141180
hair＆make　siesta,019-645-0044 ,岩手,盛岡市,みたけ２‐６‐４,アウト,架電可,ＩＧＲ厨川駅徒歩10分,"",ヘア,https://beauty.hotpepper.jp/slnH000180136
ULTRA HAIR,0197-72-6687 ,岩手,北上市,大通り４‐６‐２,アウト,架電可,北上駅から徒歩15分,"",ヘア,https://beauty.hotpepper.jp/slnH000229532
Avance 向中野店 【アヴァンセ】,019-636-3357 ,岩手,盛岡市,向中野３-18-25,アウト,架電可,南イオンすぐ近く,"",ヘア,https://beauty.hotpepper.jp/slnH000196070
Rebecca ARTLIVE【レベッカアートライブ】,019-626-9215 ,岩手,盛岡市,開運橋通2-38 ＠HIME DELUX 4F,アウト,架電可,盛岡市開運橋通2-38 ＠HOME DELUX 4F,"",ヘア,https://beauty.hotpepper.jp/slnH000312631
美容室　SPICE,019-645-0995 ,岩手,盛岡市,西青山１-10-5,アウト,架電可,盛岡病院すぐそば　,"",ヘア,https://beauty.hotpepper.jp/slnH000126618
Fontana【フォンタナ】,019-601-7107 ,岩手,盛岡市,津志田町１-6-20,アウト,架電可,津志田の交差点入って　KANEMAN隣　清次郎の斜め向かい,"",ヘア,https://beauty.hotpepper.jp/slnH000336962
HAIR Pasito【パシト】,019-601-7880 ,岩手,紫波郡矢巾町南矢幅8-111-4市,,アウト,架電可,東北本線「矢幅駅」から徒歩10分弱,"",ヘア,https://beauty.hotpepper.jp/slnH000367339
Ｐｉｃｋ－ＵＰ,0192-26-5112 ,岩手,大船渡市,猪川町字文中井沢8-16,アウト,架電可,盛駅から徒歩10分,"",ヘア,https://beauty.hotpepper.jp/slnH000371401
HAIR & MAKE EARTH　水沢店,0197-51-1919 ,岩手,奥州市,水沢区佐倉河東沖ノ目１０１-２,アウト,架電可,ＪＲ水沢駅より車で約7分 【EARTH　水沢】,"",ヘア,https://beauty.hotpepper.jp/slnH000144257
PATORA,019-625-9887 ,岩手,盛岡市,盛岡駅前北通10-43　MJビル1F,アウト,架電可,夕顔瀬橋西交差点　スーパーホテル盛岡裏,"",ヘア,https://beauty.hotpepper.jp/slnH000107329
美容室　ＺＯＯ【ズー】,019-638-2002 ,岩手,盛岡市,津志田南２-13-27,アウト,架電可,玉田皮膚科・形成外科となり/ガスト盛岡津志田店・北日本銀行都南支店すぐ,"",ヘア,https://beauty.hotpepper.jp/slnH000374469
FREAK hair design　【フリーク　ヘアデザイン】,019-654-0890 ,岩手,盛岡市,開運橋通５-９,アウト,架電可,盛岡駅徒歩５分,"",ヘア,https://beauty.hotpepper.jp/slnH000229533
美容室　ＶＥＲＡＮＤＡ　(ベランダ),019-601-9440 ,岩手,盛岡市,月が丘２－８－５５,アウト,架電可,青山駅から車で3分,"",ヘア,https://beauty.hotpepper.jp/slnH000238549
MEN'S WILL by SVENSON　盛岡スタジオ,019-623-0045 ,岩手,盛岡市,盛岡駅前北通1-10　橋,アウト,架電可,JR「盛岡駅」より徒歩3分内,"",ヘア,https://beauty.hotpepper.jp/slnH000329869
美容室amber,0197-72-8539 ,岩手,北上市,本通り４丁目８－２０,アウト,架電可,北上駅から徒歩25分,"",ヘア,https://beauty.hotpepper.jp/slnH000346443
Hair Salon　FRANCE　【フランセ】,019-635-3330 ,岩手,盛岡市,西仙北１-38-10,アウト,架電可,仙北駅西口  徒歩1分     マイヤタウングラン内   ,"",ヘア,https://beauty.hotpepper.jp/slnH000275282
HAIR & MAKE EARTH　北上店,0197-61-4345 ,岩手,北上市,北鬼柳３２地割12-2,アウト,架電可,JR東北新幹線 北上駅から車で5分/北上駅より徒歩15分,"",ヘア,https://beauty.hotpepper.jp/slnH000228696
アトリエKアールヌーヴォ,0198-22-5000 ,岩手,花巻市,本館１‐１‐４,アウト,架電可,花巻駅から徒歩２５分,"",ヘア,https://beauty.hotpepper.jp/slnH000228290
HAIR STUDIO Momo【モモ】,019-613-3937 ,岩手,盛岡市,月が丘３丁目40-43 第一コーポ102,アウト,架電可,バス停「月が丘３丁目」すぐ。東北銀行 月が丘支店向かい,"",ヘア,https://beauty.hotpepper.jp/slnH000357423
Hair　shop　Look,0197-63-2850 ,岩手,北上市,本通り１‐５‐４　高橋ビル,アウト,架電可,北上駅から徒歩10分,"",ヘア,https://beauty.hotpepper.jp/slnH000229383
defi～AOYAMA～　【デフィ　アオヤマ】,0120-450-870 ,岩手,盛岡市,月が丘１-5-7,アウト,架電可,青山駅　車で3分,"",ヘア,https://beauty.hotpepper.jp/slnH000139666
B-PIECE　一関店【ビーピース　イチノセキテン】,0191-25-5993 ,岩手,一関市,山目字泥田８９－１　イオン１F,アウト,架電可,一ノ関駅から徒歩30分【一ノ関】,"",ヘア,https://beauty.hotpepper.jp/slnH000306534
Sometime,019-623-7234 ,岩手,盛岡市,中ノ橋通１-5-16-2F,アウト,架電可,バスセンターより徒歩2分,"",ヘア,https://beauty.hotpepper.jp/slnH000107970
hair apis 黒石野店 【アピス】,019-663-6663 ,岩手,盛岡市,黒石野２－１３－５０,アウト,架電可,ホーマック黒石野店の斜め向かい,"",ヘア,https://beauty.hotpepper.jp/slnH000286763
EARTH Authentic 　一関店　【10月6日OPEN】,0191-25-5500 ,岩手,一関市,山目泥田７０-１,アウト,架電可,JR東北本線　一ノ関駅西口　車10分　【EARTH　一関】,"",ヘア,https://beauty.hotpepper.jp/slnH000365259
HAIR & MAKE EARTH　花巻店,0198-21-3288 ,岩手,花巻市,桜台２-23-2,アウト,架電可,JR東北本線 花巻駅西口 徒歩10分 アルテマルカン桜台店向い★,"",ヘア,https://beauty.hotpepper.jp/slnH000249891
