会社名,電話番号,都道府県,市区郡,姓,アウトorイン,リード状況,備考,リストランク,業種（選択）,Web サイト
ジェイエステティック　盛岡店,019-654-7302 ,岩手,盛岡市,盛岡駅前通9-5　佐川ビル 3F,アウト,架電可,盛岡駅東口出てすぐ ドコモショップ隣　佐川ビル3F,"",セラ,https://beauty.hotpepper.jp/kr/slnH000303681
エルセーヌ　さくら野北上店,0120-31-3339 ,岩手,北上市,本通り２-2-1　さくら野北上4F,アウト,架電可,北上駅西口　徒歩15分,"",セラ,https://beauty.hotpepper.jp/kr/slnH000107535
Beauty&Skin Dahlia 【ダリア】,019-681-3553 ,岩手,盛岡市,中ノ橋通１-６-８,アウト,架電可,ななっく５Ｆ,"",セラ,https://beauty.hotpepper.jp/kr/slnH000304399
Bleu Terre　【ブルーテーフ】,0120-878-098 ,岩手,盛岡市,本宮５-13-10,アウト,架電可,市立病院近く、　岩手銀行隣　,"",セラ,https://beauty.hotpepper.jp/kr/slnH000274292
ハンズオン　盛岡南,019-656-6355 ,岩手,盛岡市,本宮７-１－１,アウト,架電可,イオンモール盛岡南,"",セラ,https://beauty.hotpepper.jp/kr/slnH000250576
favorite Spa&Cafe 【フェイバリットスパ＆カフェ】,019-656-7115 ,岩手,盛岡市,大通３－７－４アイビル大通り２Ｆ,アウト,架電可,盛岡駅から徒歩5分,"",セラ,https://beauty.hotpepper.jp/kr/slnH000264110
骨盤ダイエット専門サロンＯＷＬ,019-681-4642 ,岩手,盛岡市,本宮２-41－1,アウト,架電可,岩手県盛岡市本宮2丁目41-1,"",セラ,https://beauty.hotpepper.jp/kr/slnH000355231
Le Cygne　【ルシーニュ盛岡】,019-601-9222 ,岩手,盛岡市,向中野１－１７－１０,アウト,架電可,薬王堂向中野店/向中野小近く,"",セラ,https://beauty.hotpepper.jp/kr/slnH000325562
ブレスの森　本店,019-653-8688 ,岩手,盛岡市,本町通１-10-7　マルモビル,アウト,架電可,盛岡信用金庫の向かい、人形の三笠さんの隣です。,"",セラ,https://beauty.hotpepper.jp/kr/slnH000191375
Ravan Sara 【ラバンサラ】盛岡店,019-656-7713 ,岩手,盛岡市,盛岡駅前通16-15,アウト,架電可,盛岡市盛岡駅前通16-15 保科済生堂ビル1F,"",セラ,https://beauty.hotpepper.jp/kr/slnH000315208
オイルケアサロン Vihara【ヴィハーラ】,019-681-8629 ,岩手,盛岡市,天神町9-30 カセドラルレジデンス　107　 ,アウト,架電可,盛岡二高徒歩２分 　電話019-681-8629,"",セラ,https://beauty.hotpepper.jp/kr/slnH000321592
NAIL moA 【ネイル モア】 盛岡店,019-656-7292 ,岩手,盛岡市,向中野７－１４－３　アクロスプラザ盛南,アウト,架電可,向中野7丁目14-3 ヘアサロンBroaｄ隣　【無料駐車場あり】,"",セラ,https://beauty.hotpepper.jp/kr/slnH000249563
La beaute【ラボーテ】,019-601-6696 ,岩手,盛岡市,向中野４-24-22,アウト,架電可,盛岡市向中野4丁目24-22【駐車場あり】,"",セラ,https://beauty.hotpepper.jp/kr/slnH000324869
Lily Brides 【リリィ　ブライズ】,019-601-5752 ,岩手,盛岡市,向中野１－１２－６,アウト,架電可,薬王堂向中野店すぐそばにリニューアルOPEN盛岡駅から車で５分,"",セラ,https://beauty.hotpepper.jp/kr/slnH000281808
printemps　Luxe　【プランタンリュクス】エステ＆アイラッシュ,0120-543-706 ,岩手,盛岡市,大通２-1-23,アウト,架電可,JR盛岡駅徒歩10分,"",セラ,https://beauty.hotpepper.jp/kr/slnH000219096
アロマサロン　Ｈａｎａ　Ｍｏｒｉｏｋａ【ハナ　盛岡】,080-1818-2611 ,岩手,盛岡市,長田町５－２１　トーカンマンション長田町８０６,アウト,架電可,JR盛岡駅徒歩10分,"",セラ,https://beauty.hotpepper.jp/kr/slnH000378434
T-tree 【ティートゥリー】,019-653-7766 ,岩手,盛岡市,菜園１-8-2 菜園ハートビル3F,アウト,架電可,JR盛岡駅徒歩15分,"",セラ,https://beauty.hotpepper.jp/kr/slnH000225858
FRANCK PROVOST 【フランクプロボー】,019-656-6300 ,岩手,盛岡市,本宮７丁目1番1号　イオンモール盛岡南ＳＣ2Ｆ,アウト,架電可,ＪＲ盛岡駅：徒歩25分  ／バス：盛岡駅東口13番のりば発着10分,"",セラ,https://beauty.hotpepper.jp/kr/slnH000219100
和香　にこか 盛岡店,019-601-6494 ,岩手,盛岡市,本宮５-２-１０　イオプレストビル１Ｆ,アウト,架電可,ＪＲ盛岡駅より車で９分,"",セラ,https://beauty.hotpepper.jp/kr/slnH000231580
Natural salon MORE【ナチュラルサロン モア】,080-1842-5584 ,岩手,盛岡市,月が丘１-27-33　ビーチテラス202号,アウト,架電可,三愛病院横の大きい道路を北郵便局方面へ直進。郵便局手前の洋服屋さんの2階です,"",セラ,https://beauty.hotpepper.jp/kr/slnH000368506
エステ＆ネイルサロン　ぶらんぶりえ,090-6854-1004 ,岩手,盛岡市,三本柳３地割5-2　サンハウスＡ棟101号,アウト,架電可,バス停「津志田北」から徒歩5分,"",セラ,https://beauty.hotpepper.jp/kr/slnH000377987
D & D　ネイル＆アイラッシュ【ディー＆ディー】,019-909-0505 ,岩手,盛岡市,菜園２－５－１３　５階,アウト,架電可,菜園MOSSビル隣のビル５Ｆ(１Ｆは中華料理屋さんです),"",セラ,https://beauty.hotpepper.jp/kr/slnH000350536
azaro【アザロ】,019-613-9329 ,岩手,盛岡市,肴町3-25-602,アウト,架電可,盛岡市肴町3-25 S・N・Iマンション肴町602,"",セラ,https://beauty.hotpepper.jp/kr/slnH000342895
エステティックサロン　COCO ANGE【ココアンジュ】,019-681-8670 ,岩手,盛岡市,大沢川原３－６－３１　ライオンズマンション開運橋101,アウト,架電可,盛岡駅徒歩５分　開運橋から徒歩１分,"",セラ,https://beauty.hotpepper.jp/kr/slnH000332847
Natur【ナチュール】,080-4518-0212 ,岩手,盛岡市,内丸4-10,アウト,架電可,桜山神社から徒歩１分,"",セラ,https://beauty.hotpepper.jp/kr/slnH000262396
True Heart【トゥルーハート】,019-625-5888 ,岩手,盛岡市,盛岡駅前通15-23,アウト,架電可,盛岡駅前通15-23-2F,"",セラ,https://beauty.hotpepper.jp/kr/slnH000301610
リラクゼーションスペースurara イオンSuC盛岡渋民店,019-683-1907 ,岩手,盛岡市,渋民字鶴飼20-1　イオンSuC盛岡渋民店,アウト,架電可,岩手県盛岡市玉山区渋民字鶴飼20-1　イオンスーパーセンター盛岡渋民店1F,"",セラ,https://beauty.hotpepper.jp/kr/slnH000376971
ハンズオン盛岡駅前店,019-629-3021 ,岩手,盛岡市,盛岡駅前北通－１１－１,アウト,架電可,盛岡駅前　イオンタウン内　（マックスバリュ内）,"",セラ,https://beauty.hotpepper.jp/kr/slnH000223842
JASPER【ジャスパー】,019-656-6339 ,岩手,盛岡市,大通１-１０-１４　第2丸十ビル２Ｆ,アウト,架電可,盛岡駅から徒歩10分,"",セラ,https://beauty.hotpepper.jp/kr/slnH000240488
mahana nono【マハナ ノノ】,019-656-0751 ,岩手,盛岡市,盛岡駅前通7-12　はちや　盛岡駅前ビル6F,アウト,架電可,盛岡駅より徒歩３分,"",セラ,https://beauty.hotpepper.jp/kr/slnH000374754
JUNIPER BERRY【ジュニパーベリー】,019-622-6008 ,岩手,盛岡市,菜園２-7-33 ジェネラストーカン公園通１F,アウト,架電可,盛岡市菜園2-7-33-1F,"",セラ,https://beauty.hotpepper.jp/kr/slnH000373540
yurikago【ユリカゴ】,050-3632-2858 ,岩手,盛岡市,大通１－４－１０－３F,アウト,架電可,盛岡大通り近く,"",セラ,https://beauty.hotpepper.jp/kr/slnH000332754
ASIAN GRACE BellEpoc 盛岡南店,019-681-3229 ,岩手,盛岡市,本宮７‐1‐1　イオンモール盛岡南3F,アウト,架電可,イオンモール盛岡南店内,"",セラ,https://beauty.hotpepper.jp/kr/slnH000319369
もみほぐし処　やすらぎ館　クロステラス盛岡店,019-622-3585 ,岩手,盛岡市,大通３-4-1 クロステラス盛岡1F,アウト,架電可,盛岡駅から徒歩5分　クロステラス内1階,"",セラ,https://beauty.hotpepper.jp/kr/slnH000310445
手もみで　すきっと,019-651-1555 ,岩手,盛岡市,盛岡駅前通１０‐３ アークスクエア１F,アウト,架電可,盛岡駅徒歩１分,"",セラ,https://beauty.hotpepper.jp/kr/slnH000286184
Crois Salon SAKURA,080-4937-0526 ,岩手,盛岡市,本町通１-10-5　1004,アウト,架電可,本町通１丁目 人形の三笠隣・石部眼科正面のマンション10階の1室が当サロンになります,"",セラ,https://beauty.hotpepper.jp/kr/slnH000290299
ライブ盛岡サロン,019-625-3414 ,岩手,盛岡市,中央通１－６－２６　佐藤ビル　３F,アウト,架電可,盛岡中央郵便局むかい《佐藤ビル３階》／《中央通一丁目》交差点北,"",セラ,https://beauty.hotpepper.jp/kr/slnH000353719
げんきや本舗　菜園店,019-606-0777 ,岩手,盛岡市,菜園２-3-7,アウト,架電可,盛岡駅徒歩10分,"",セラ,https://beauty.hotpepper.jp/kr/slnH000225209
スパイス,019-645-0995 ,岩手,盛岡市,西青山１-10-5,アウト,架電可,国立病院すぐそば　,"",セラ,https://beauty.hotpepper.jp/kr/slnH000242000
Men's & Lady's esthetic salon　ＴｉａＬａ【ティアラ】,080-1696-4292 ,岩手,盛岡市,大通１-１０-２１ ＰＩＶＯＴ盛岡大通ビル２　３０５号,アウト,架電可,大通りデイリー向かいＰＩＶＯＴ盛岡大通ビル３Ｆ／大通り三丁目交差点より徒歩5分,"",セラ,https://beauty.hotpepper.jp/kr/slnH000361927
sometime エステ,0120-13-7234 ,岩手,盛岡市,中ノ橋通１-5-16,アウト,架電可,バスセンターから徒歩２分,"",セラ,https://beauty.hotpepper.jp/kr/slnH000262080
Ratu　Ayu,019-604-7700 ,岩手,盛岡市,大通３-7-6,アウト,架電可,盛岡市大通3丁目7-6,"",セラ,https://beauty.hotpepper.jp/kr/slnH000189054
Ri-Ru【リール】,019-613-3242 ,岩手,盛岡市,盛岡駅前北通４-１７　ＣＡビル２　４Ｆ,アウト,架電可,盛岡駅から徒歩3分。,"",セラ,https://beauty.hotpepper.jp/kr/slnH000358441
アロハ美容整体院　盛岡南店,019-613-6602 ,岩手,盛岡市,西見前１１地割１０５,アウト,架電可,４号線沿い／矢幅セブンイレブン北へ約1ｋｍ,"",セラ,https://beauty.hotpepper.jp/kr/slnH000374257
整体　hand,080-5562-8779 ,岩手,盛岡市,大通２－2－15,アウト,架電可,大通　さわや書店３F,"",セラ,https://beauty.hotpepper.jp/kr/slnH000251819
RELAXATION SPA ROSE【ローズ】,070-5621-6002 ,岩手,盛岡市,大通２-7-26スギヤマビル3F,アウト,架電可,岩手県盛岡市大通2-7-26　スギヤマビル３F,"",セラ,https://beauty.hotpepper.jp/kr/slnH000357471
La Chou Chou　【ラ シュシュ】,019-656-7251 ,岩手,盛岡市,肴町3-25 S・N・Iマンション肴町401,アウト,架電可,肴町アーケードより徒歩2分,"",セラ,https://beauty.hotpepper.jp/kr/slnH000279985
feel【フィール】　Nanak店,019-613-7772 ,岩手,盛岡市,中ノ橋通１-６－８,アウト,架電可,Nanak(ななっく)５階,"",セラ,https://beauty.hotpepper.jp/kr/slnH000272853
KENSEN　【ケンセン】,019-606-0777 ,岩手,盛岡市,大通２-2-13　2F,アウト,架電可,盛岡市大通　ＪＲ盛岡駅から徒歩10分さわや書店さんから徒歩30秒,"",セラ,https://beauty.hotpepper.jp/kr/slnH000262115
