会社名,電話番号,都道府県,市区郡,姓,アウトorイン,リード状況,備考,リストランク,業種（選択）,Web サイト
スギコー株式会社,0353441681,東京,杉並区高井戸3-18-7　杉交第2ビル,なし,アウト,架電可,訪問介護・タウンワーク,【介護用】「A」営利法人,介護,https://townwork.net/detail/clc_0099331005/
社会福祉法人　聖救主福祉会　深川愛の園,0336411905,東京,江区冬木16-7,なし,アウト,架電可,特別養護老人ホ-ム、デイサ-ビス・タウンワーク,【介護用】「C」社会福祉法人,介護,https://townwork.net/detail/clc_0580240002/joid_46403810/
ツクイ大田西六郷グループホーム,0357139295,東京,大田区西六郷3-31-12,なし,アウト,架電可,グループホーム　介護予防サービス・タウンワーク,【介護用】「A」営利法人,介護,https://townwork.net/detail/clc_0384501192/
ケアサポートさくら,0357008084,東京,大田区池上4-31-11　みなみ池上ビル3Ｆ,なし,アウト,架電可,訪問介護、居宅介護支援事業所●http://www.cs-sakura.com/・タウンワーク,【介護用】「A」営利法人,介護,https://townwork.net/detail/clc_2313688001/
正和クラブ駒沢公園,0357520651,東京,世田谷区深沢2-19-5,なし,アウト,架電可,デイサービス・タウンワーク,【介護用】「A」営利法人,介護,https://townwork.net/detail/clc_2061982003/
やおいた整形・外科,09046707118,東京,新宿区住吉町2-14　四谷曙橋ビル4Ｆ　〒162-0065,なし,アウト,架電可,整形、外科、リハビリテ-ション科　●http://www.yaoita-clinic.com・タウンワーク,【介護用】「A」営利法人,介護,https://townwork.net/detail/clc_2741216001/joid_46380695/
特別養護老人ホーム　らくえん深大寺,0424431294,東京,〒182-0016　調布市佐須町1-26-1,なし,アウト,架電可,特養・ショートステイ・タウンワーク,【介護用】「A」営利法人,介護,https://townwork.net/detail/clc_3601762001/
株式会社パソナフォスター(パソナグループ),0120837294,東京,千代田区大手町2-6-4(本社/説明面接会会場),なし,アウト,架電可,パソナグル-プの子育て支援事業・タウンワーク,【介護用】「A」営利法人,介護,https://townwork.net/detail/clc_1788575001/
デイホール　きらり,0426506355,東京,八王子市川口町1791＜随時見学ＯＫ！＞,なし,アウト,架電可,デイサービス事業・タウンワーク,【介護用】「A」営利法人,介護,https://townwork.net/detail/clc_2608091001/
特別養護老人ホーム　スマイルホーム西井堀,0336928600,東京,葛飾区奥戸3-24-15,なし,アウト,架電可,特別養護老人ホーム・タウンワーク,【介護用】「A」営利法人,介護,https://townwork.net/detail/clc_3615131002/joid_46401754/
あしたも笑顔　柴又「シンビオシス株式会社」,0364580506,東京,葛飾区柴又4-28-8　1Ｆ,なし,アウト,架電可,デイサービス事業・タウンワーク,【介護用】「A」営利法人,介護,https://townwork.net/detail/clc_3134795001/joid_46395570/
グランクレール成城,0354907180,東京,〒157-0066　世田谷区成城8-20-1,なし,アウト,架電可,高齢者施設の運営、介護サービス・タウンワーク,【介護用】「A」営利法人,介護,https://townwork.net/detail/clc_2197443006/joid_46406261/
医療法人社団　浩央会　デイケアこきん,0423823081,東京,〒184-0011　小金井市町4-37-26,なし,アウト,架電可,通所リハビリテーション・タウンワーク,【介護用】「D」医療法人・公営,介護,https://townwork.net/detail/clc_2272311004/
特別養護老人ホーム「椿」,0427001188,東京,町田市相原町2311-1,なし,アウト,架電可,社会福祉法人　天寿園会・タウンワーク,【介護用】「A」営利法人,介護,https://townwork.net/detail/clc_2640659003/joid_46393304/
社会福祉法人　梅の樹会　フラワープラム,0425565755,東京,西多摩郡瑞穂町大字長岡長谷部83-1,なし,アウト,架電可,特別養護老人ホーム他・タウンワーク,【介護用】「C」社会福祉法人,介護,https://townwork.net/detail/clc_2121208001/joid_46387471/
かんな訪問介護事業所,0362315204,東京,江戸川区松島4-24-11,なし,アウト,架電可,訪問介護事業所・タウンワーク,【介護用】「A」営利法人,介護,https://townwork.net/detail/clc_3655330001/
グル-プホ-ムふくろう宮前・小規模多機能ふくろう宮前,0427001188,東京,(開設準備室)　町田市相原町2311-1　特別養護老人ホーム椿内,なし,アウト,架電可,社会福祉事業(高齢者施設・認可保育所・認定こども園)グループホーム、小規模多機能型居宅介護事業・タウンワーク,【介護用】「A」営利法人,介護,https://townwork.net/detail/clc_2640659004/joid_46394114/
特別養護老人ホーム　桧原サナホーム,0425981101,東京,西多摩郡檜原村3791-4,なし,アウト,架電可,特別養護老人ホーム・タウンワーク,【介護用】「A」営利法人,介護,https://townwork.net/detail/clc_3237280001/
医療法人社団佑樹会介護老人保健施設　ふれあいの里,0423526633,東京,〒183-0012　府中市押立町1-9-1,なし,アウト,架電可,介護老人保健施設・タウンワーク,【介護用】「D」医療法人・公営,介護,https://townwork.net/detail/clc_2591625004/
蒲田駅前クリニック,0357140608,東京,〒144-0052　大田区蒲田5-44-5　5Ｆ,なし,アウト,架電可,人工透析内科・タウンワーク,【介護用】「A」営利法人,介護,https://townwork.net/detail/clc_0471974021/
株式会社木下の介護,0120777920,東京,新宿区西新宿6-5-1　新宿アイランドタワー9Ｆ,なし,アウト,架電可,介護業・タウンワーク,【介護用】「A」営利法人,介護,https://townwork.net/detail/clc_0527243037/joid_46397825/
スターツケアサービス株式会社,0368803257,東京,＜本社＞江区木場5-8-40　パークサイドビル12Ｆ,なし,アウト,架電可,介護福祉事業/スターツグループ・タウンワーク,【介護用】「A」営利法人,介護,https://townwork.net/detail/clc_2677548048/joid_46392930/
デイサービスセンター遊・府中,0455333371,東京,府中市四谷2-75-2,なし,アウト,架電可,総合福祉事業(株)ウイズネット　★ＡＬＳＯＫグループ企業です・タウンワーク,【介護用】「A」営利法人,介護,https://townwork.net/detail/clc_1818936138/joid_46437673/
株式会社ツクイ　大田中馬込デイサービスセンター,0364292630,東京,大田区中馬込3-17-19　〒143-0027,なし,アウト,架電可,デイサービス/東証一部上場・タウンワーク,【介護用】「A」営利法人,介護,https://townwork.net/detail/clc_0384501362/joid_46424947/
社会福祉法人創和会　ケアセンター成瀬,0427202202,東京,町田市成瀬台3-24-1　受付(月～土)8:30～17:30,なし,アウト,架電可,高齢者総合福祉施設・タウンワーク,【介護用】「C」社会福祉法人,介護,https://townwork.net/detail/clc_2861287001/
養護老人ホーム　浴風園,0333342673,東京,〒168-8530　杉並区高井戸西1-12-1,なし,アウト,架電可,老人ホーム・タウンワーク,【介護用】「A」営利法人,介護,https://townwork.net/detail/clc_0467619008/
社会福祉法人　福寿会,0425392910,東京,福生市北田園1-56-1,なし,アウト,架電可,全室個室　ユニットケアの施設・タウンワーク,【介護用】「C」社会福祉法人,介護,https://townwork.net/detail/clc_2626835001/
生活協同組合パルシステム東京　第1中野陽だまり,103336010612,東京,中野区中野4-7-9　中野陽だまり1Ｆ・2Ｆ,なし,アウト,架電可,生協運営の(1)デイサービス(2)(3)訪問介護・タウンワーク,【介護用】「A」営利法人,介護,https://townwork.net/detail/clc_0115609038/
グループホームきらら(A)篠崎(B)北小岩,0368803256,東京,(A)江戸川区篠崎町4-19-10　(B)江戸川区北小岩4-40-13,なし,アウト,架電可,介護福祉事業/スターツグループ・タウンワーク,【介護用】「A」営利法人,介護,https://townwork.net/detail/clc_2677548031/
特別養護老人ホーム　神明園,0425792711,東京,羽村市神明台4-2-2　★日曜より問い合わせ下さい,なし,アウト,架電可,特別養護老人ホーム・タウンワーク,【介護用】「A」営利法人,介護,https://townwork.net/detail/clc_1931453001/joid_46394679/
医療法人社団　慶成会　青梅慶友病院,0120000819,東京,青梅市大門1-681番地　TEL受付/平日9:00～17:30,なし,アウト,架電可,老人病院　病床数/736床、診療科目/内科・リハビリテーション科・タウンワーク,【介護用】「D」医療法人・公営,介護,https://townwork.net/detail/clc_0306343001/
デイホームゆりの木　(A)東大和(B)武蔵村山,012080856390,東京,(A)大和市奈良橋6-761-1-1Ｆ　(B)武蔵村山市神明2-12-8-1Ｆ,なし,アウト,架電可,日本エルダリーケアサービス通所介護事業http://www.elderly.jp/・タウンワーク,【介護用】「A」営利法人,介護,https://townwork.net/detail/clc_1793854057/joid_46339843/
介護付き有料老人ホーム　たのしい家　八王子高倉,0332545721,東京,八王子市高倉町17-3,なし,アウト,架電可,(株)ケア21:介護サービス・タウンワークhttp://www.care21.co.jp/,【介護用】「A」営利法人,介護,https://townwork.net/detail/clc_1795527011/
スターツケアサービス株式会社,0368803257,東京,＜本社＞江区木場5-8-40　パークサイドビル12Ｆ,なし,アウト,架電可,介護福祉事業/一部上場企業のスターツグループのグループホーム・タウンワーク,【介護用】「A」営利法人,介護,https://townwork.net/detail/clc_2677548039/joid_46392819/
スターツケアサービス株式会社,0368803257,東京,＜本社＞江区木場5-8-40　パークサイドビル12Ｆ,なし,アウト,架電可,介護福祉事業/一部上場企業のスターツグループのグループホーム・タウンワーク,【介護用】「A」営利法人,介護,https://townwork.net/detail/clc_2677548012/joid_46392780/
特別養護老人ホーム　やすらぎの家,0428237020,東京,青梅市吹上88番地　★お気軽にTEL下さい★,なし,アウト,架電可,特別養護老人ホーム・タウンワーク,【介護用】「A」営利法人,介護,https://townwork.net/detail/clc_2957075001/
医療法人社団　仁幸会　扇大橋病院,0338901171,東京,足立区扇1-55-28,なし,アウト,架電可,内科・リウマチ・アレルギー科医療療養病床(96床)・タウンワーク,【介護用】「D」医療法人・公営,介護,https://townwork.net/detail/clc_3267446001/joid_46419180/
(株)シルバービレッジ,042686385591,東京,八王子市暁町1-47-1　〒192-0043,なし,アウト,架電可,介護付有料老人ホ-ム他・タウンワーク,【介護用】「A」営利法人,介護,https://townwork.net/detail/clc_1280499003/
特別養護老人ホーム　塩船園,0428211011,東京,青梅市塩船257-1,なし,アウト,架電可,社会福祉法人　東京武尊会・タウンワーク,【介護用】「A」営利法人,介護,https://townwork.net/detail/clc_3470789004/
登芙喜(とぶき)　心成苑,0426922926,東京,八王子市戸吹町1495　TEL後、履歴書(写貼)持参下さい,なし,アウト,架電可,介護付有料老人ホーム・タウンワーク,【介護用】「A」営利法人,介護,https://townwork.net/detail/clc_2600856001/joid_46420192/
鶴川駅前クリニック,0427372113,東京,〒195-0053　町田市能ヶ谷1-3-2　大黒屋ビル3Ｆ,なし,アウト,架電可,人工透析内科・タウンワーク,【介護用】「A」営利法人,介護,https://townwork.net/detail/clc_0250984037/
医療法人社団　秀輝会　目蒲病院,0337598888,東京,大田区下丸子3-23-3,なし,アウト,架電可,整形外科・脳神経内科・他・タウンワーク,【介護用】「D」医療法人・公営,介護,https://townwork.net/detail/clc_0510812001/
社会福祉法人創和会　グループホーム圓(まどか),0427202202,東京,(受付:ケアセンター成瀬)町田市成瀬台3-24-1,なし,アウト,架電可,高齢者総合福祉施設・タウンワーク,【介護用】「C」社会福祉法人,介護,https://townwork.net/detail/clc_2861287002/
株式会社木下の介護,0120777920,東京,新宿区西新宿6-5-1　新宿アイランドタワー9Ｆ,なし,アウト,架電可,介護業・タウンワーク,【介護用】「A」営利法人,介護,https://townwork.net/detail/clc_0527243037/joid_46399799/
障害者支援施設　花の里,0428251641,東京,〒198-0052　青梅市長淵5-1080-2,なし,アウト,架電可,社会福祉法人　それいゆ・タウンワーク,【介護用】「A」営利法人,介護,https://townwork.net/detail/clc_3632639001/
日本リック株式会社,012098319791,東京,千代田区飯田橋4-8-13　タカラビル4Ｆ,なし,アウト,架電可,社会福祉と在宅介護サービス・タウンワーク,【介護用】「A」営利法人,介護,https://townwork.net/detail/clc_0346868001/
社会福祉法人　恵比寿会　フェローホームズ,0425237601,東京,(A)立川市富士見町2-36-43(B)羽衣町1-12-18,なし,アウト,架電可,特養、デイ、相談センター他・タウンワーク,【介護用】「C」社会福祉法人,介護,https://townwork.net/detail/clc_1521047001/
株式会社アスモ介護サービス,0120683302,東京,(本社)新宿区西新宿2-4-1　新宿ＮＳビル25階,なし,アウト,架電可,介護サービス・タウンワーク,【介護用】「A」営利法人,介護,https://townwork.net/detail/clc_3236092003/joid_46384868/
株式会社木下の介護,0120777920,東京,新宿区西新宿6-5-1　新宿アイランドタワー9Ｆ,なし,アウト,架電可,介護業・タウンワーク,【介護用】「A」営利法人,介護,https://townwork.net/detail/clc_0527243037/joid_46399303/
医療法人社団　珠泉会,08094111841,東京,昭島市大神町4-9-10　谷口ビル2Ｆ,なし,アウト,架電可,医療法人社団・タウンワーク,【介護用】「D」医療法人・公営,介護,https://townwork.net/detail/clc_1923949001/
東京血液疾患診療所,0334252808,東京,〒156-0052　世田谷区経堂5-38-9,なし,アウト,架電可,血液内科　・タウンワーク,【介護用】「A」営利法人,介護,https://townwork.net/detail/clc_3594802001/
株式会社木下の介護,0120777920,東京,新宿区西新宿6-5-1　新宿アイランドタワー9Ｆ,なし,アウト,架電可,介護業・タウンワーク,【介護用】「A」営利法人,介護,https://townwork.net/detail/clc_0527243037/joid_46400294/
医療法人社団倭林会　武蔵野台病院,0428316632,東京,青梅市今井1-2586　〒198-0023,なし,アウト,架電可,内科・リハビリテーション科・神経内科(395床)・タウンワーク,【介護用】「D」医療法人・公営,介護,https://townwork.net/detail/clc_0584828001/joid_46424455/
武蔵野陽和会病院,0422523212,東京,武蔵野市緑町2-1-33　TELの上、履歴書(写貼)持参下さい,なし,アウト,架電可,病院・タウンワーク,【介護用】「D」医療法人・公営,介護,https://townwork.net/detail/clc_0344319001/joid_46408420/
株式会社　ＫＲＬ(ケイアールエル),0422265503,東京,三鷹市新川6-9-28　ＳＳビル2Ｆ,なし,アウト,架電可,学校・病院事業受託・タウンワーク,【介護用】「A」営利法人,介護,https://townwork.net/detail/clc_1983314011/joid_46408674/
(社福)共助会　特別養護老人ホーム　福寿園,0426646121,東京,〒193-0846　八王子市南浅川町2883番2,なし,アウト,架電可,特別養護老人ホーム・タウンワーク,【介護用】「A」営利法人,介護,https://townwork.net/detail/clc_2636622001/
社会医療法人社団　昭愛会　水野記念病院,0338989339,東京,足立区西新井6-32-10,なし,アウト,架電可,病院・介護施設運営・タウンワーク,【介護用】「D」医療法人・公営,介護,https://townwork.net/detail/clc_0465923001/joid_46389211/
医療法人社団　慶成会　青梅慶友病院,0120000819,東京,青梅市大門1-681番地　〒198-0014,なし,アウト,架電可,老人病院　病床数/736床診療科目/内科・リハビリテーション科・タウンワーク,【介護用】「D」医療法人・公営,介護,https://townwork.net/detail/clc_0306343001/joid_46424866/
笹塚21ペインクリニック,0334856311,東京,渋谷区笹塚1-48-14笹塚21ショッピングモール2Ｆ,なし,アウト,架電可,ペインクリニック内科・タウンワーク,【介護用】「A」営利法人,介護,https://townwork.net/detail/clc_3498351001/joid_46390360/
特別養護老人ホーム　足立新生苑,0338837946,東京,足立区花畑4-39-10,なし,アウト,架電可,特別養護老人ホーム・タウンワーク,【介護用】「D」医療法人・公営,介護,https://townwork.net/detail/clc_0441290001/
あしたも笑顔　訪問看護ステーション,0358769954,東京,葛飾区新宿5-7-20　リバーサイド新宿1Ｆ,なし,アウト,架電可,訪問看護ステーション・タウンワーク,【介護用】「A」営利法人,介護,https://townwork.net/detail/clc_3134795001/joid_46400912/
特定非営利活動法人　武蔵野の里,0424714995,東京,〒203-0014　久留米市本町12-9　貫井総業ビル2階,なし,アウト,架電可,障/就労継続支援(Ｂ型/主に精神)・タウンワーク,【介護用】「B」NPO法人・一般社団法人,介護,https://townwork.net/detail/clc_3655532001/
ドリームボックス(A)中神　(B)拝島　(C)河辺,0425128924,東京,(A)昭島市玉川町2-4-11,なし,アウト,架電可,障がい福祉サービス　放課後等デイサービス・タウンワーク,【介護用】「A」営利法人,介護,https://townwork.net/detail/clc_3419480006/joid_46357481/
医療法人社団　慶成会　よみうりランド　慶友病院,0120543626,東京,〒206-0812　稲城市矢野口3294番地,なし,アウト,架電可,内科、リハビリ科、精神科・タウンワーク,【介護用】「D」医療法人・公営,介護,https://townwork.net/detail/clc_0306343002/
アライブ世田谷中町,0337016530,東京,〒155-0033　世田谷区中町3-5-23,なし,アウト,架電可,介護付有料老人ホーム・タウンワーク,【介護用】「A」営利法人,介護,https://townwork.net/detail/clc_1937642001/joid_46394665/
ドリームボックス(A)立川　(B)国立,0425128924,東京,(A)立川市柴崎町5-8-1　1Ｆ　(B)国立市3-6-15　1Ｆ,なし,アウト,架電可,障がい福祉サービス　放課後等デイサービス・タウンワーク,【介護用】「D」医療法人・公営,介護,https://townwork.net/detail/clc_3419480003/joid_46357468/
青梅腎クリニック,0428238100,東京,〒198-0036　青梅市河辺町5-1-4,なし,アウト,架電可,人工透析内科・タウンワーク,【介護用】「A」営利法人,介護,https://townwork.net/detail/clc_0471974006/joid_46400127/
河北医療財団　多摩事業部,0423747168,東京,「郵送先」　〒206-0012　多摩市貝取1431-3,なし,アウト,架電可,介護事業・タウンワーク,【介護用】「A」営利法人,介護,https://townwork.net/detail/clc_0325176005/joid_46385634/
社会福祉法人正夢の会　中野区立弥生福祉作業所,0333842939,東京,中野区弥生町4-36-15,なし,アウト,架電可,障害福祉サービス・タウンワーク,【介護用】「C」社会福祉法人,介護,https://townwork.net/detail/clc_2997032004/
社会福祉法人リブリー　すばる,0424761081,東京,〒203-0032久留米市前沢5-5-8,なし,アウト,架電可,障害福祉サービス事業・タウンワーク,【介護用】「C」社会福祉法人,介護,https://townwork.net/detail/clc_3193761002/
特別養護老人ホーム　山水園,0426516281,東京,八王子市西寺方町303,なし,アウト,架電可,特別養護老人ホーム(社会福祉法人　永寿会)・タウンワーク,【介護用】「A」営利法人,介護,https://townwork.net/detail/clc_1506786001/joid_46389622/
有料老人ホーム　ひだまりの家,0338899530,東京,足立区中央本町3-17-17,なし,アウト,架電可,有料老人ホーム/38床・タウンワーク,【介護用】「A」営利法人,介護,https://townwork.net/detail/clc_3612622001/
ライズ・リハビリデイサービス(合同会社　ライズ),0369121022,東京,練馬区石神井台8-16-11,なし,アウト,架電可,デイサービス・タウンワーク,【介護用】「A」営利法人,介護,https://townwork.net/detail/clc_3654916001/
医療法人社団一秀会　葛飾橋病院,0336070891,東京,〒125-0041　葛飾区金町7-33-1,なし,アウト,架電可,病院(209床)・タウンワーク,【介護用】「D」医療法人・公営,介護,https://townwork.net/detail/clc_1596507001/joid_46409790/
社会福祉法人平尾会　特別養護老人ホームひらお苑,0423315666,東京,稲城市平尾2-49-20お気軽にTEL下さい。受付/8:30～17:30,なし,アウト,架電可,介護福祉施設・タウンワーク,【介護用】「C」社会福祉法人,介護,https://townwork.net/detail/clc_2044421001/
ＮＰＯ法人ハンディキャップサポート　すまいるウィズ,0367643399,東京,練馬区大泉1-26-12,なし,アウト,架電可,障がい者支援事業・タウンワーク,【介護用】「A」営利法人,介護,https://townwork.net/detail/clc_3615896002/joid_46443736/
医療法人社団　弘健会　菅原医院,0339963016,東京,練馬区石神井町3-9-16,なし,アウト,架電可,内科・リウマチ科・糖尿病内科・胃腸科・循環器科・タウンワーク,【介護用】「D」医療法人・公営,介護,https://townwork.net/detail/clc_1871422001/
中小路整形リハビリクリニック,0359189951,東京,板橋区坂下2-11-11　蓮根マンション102号,なし,アウト,架電可,整形外科外来と訪問診療・タウンワーク,【介護用】「A」営利法人,介護,https://townwork.net/detail/clc_3544662001/
リハプライド　王子,08092618313,東京,北区王子3-21-1ヒルサイド王子市川ビル1Ｆ,なし,アウト,架電可,リハビリ型デイサービス・タウンワーク,【介護用】「A」営利法人,介護,https://townwork.net/detail/clc_3359665002/
(仮称)特別養護老人ホーム　レガメ町田　開設準備室,0427281117,東京,町田市高ヶ坂2-31-18,なし,アウト,架電可,特別養護老人ホーム・タウンワーク,【介護用】「A」営利法人,介護,https://townwork.net/detail/clc_3369964002/
医療法人杏林会　リハビリパーク板橋病院,0362651829,東京,〒103-0028　中央区八重洲1-5-8　ＭＢＲ15-5階(面接会場),なし,アウト,架電可,回復期リハビリテーション病院(154床)・タウンワーク,【介護用】「D」医療法人・公営,介護,https://townwork.net/detail/clc_1634941007/
やすらぎ整骨院,0338996026,東京,足立区江北6-19-2　どらっぐぱぱす隣,なし,アウト,架電可,整骨院・タウンワーク,【介護用】「A」営利法人,介護,https://townwork.net/detail/clc_3653864001/joid_46419300/
(株)セントメディアMS事業部新宿支店,,東京,新宿区新宿3丁目1番24号王新宿三丁目ビル3階,なし,アウト,架電可,派遣業(派13-080490)紹介業(13-ユ-080459)請負業■東証一部上場企業グループ・タウンワークhttp://kaigo-i.jp/,【介護用】「A」営利法人,介護,https://townwork.net/detail/clc_1671484096/joid_D9404265/
(株)セントメディアMS事業部秋葉原支店,,東京,千代田区外神田1丁目16番8号Nツアービル2階,なし,アウト,架電可,派遣業(派13-080490)紹介業(13-ユ-080459)請負業■東証一部上場企業グループ・タウンワークhttp://kaigo-i.jp/,【介護用】「A」営利法人,介護,https://townwork.net/detail/clc_1671484144/joid_D9405230/
(株)セントメディアMS事業部秋葉原支店,,東京,千代田区外神田1丁目16番8号Nツアービル2階,なし,アウト,架電可,派遣業(派13-080490)紹介業(13-ユ-080459)請負業■東証一部上場企業グループ・タウンワークhttp://kaigo-i.jp/,【介護用】「A」営利法人,介護,https://townwork.net/detail/clc_1671484144/joid_D9405343/
(株)セントメディアMS事業部立川支店,,東京,立川市曙町2丁目31番15号日住金立川ビル6階,なし,アウト,架電可,派遣業(派13-080490)紹介業(13-ユ-080459)請負業■東証一部上場企業グループ・タウンワークhttp://kaigo-i.jp/,【介護用】「A」営利法人,介護,https://townwork.net/detail/clc_1671484108/joid_D9404903/
(株)セントメディアMS事業部秋葉原支店,,東京,千代田区外神田1丁目16番8号Nツアービル2階,なし,アウト,架電可,派遣業(派13-080490)紹介業(13-ユ-080459)請負業■東証一部上場企業グループ・タウンワークhttp://kaigo-i.jp/,【介護用】「A」営利法人,介護,https://townwork.net/detail/clc_1671484144/joid_D9405152/
(株)セントメディアMS事業部新宿支店,,東京,新宿区新宿3丁目1番24号王新宿三丁目ビル3階,なし,アウト,架電可,派遣業(派13-080490)紹介業(13-ユ-080459)請負業■東証一部上場企業グループ・タウンワークhttp://kaigo-i.jp/,【介護用】「A」営利法人,介護,https://townwork.net/detail/clc_1671484096/joid_D9404151/
(株)セントメディアMS事業部秋葉原支店,,東京,千代田区外神田1丁目16番8号Nツアービル2階,なし,アウト,架電可,派遣業(派13-080490)紹介業(13-ユ-080459)請負業■東証一部上場企業グループ・タウンワークhttp://kaigo-i.jp/,【介護用】「A」営利法人,介護,https://townwork.net/detail/clc_1671484144/joid_D9405093/
(株)セントメディアMS事業部秋葉原支店,,東京,千代田区外神田1丁目16番8号Nツアービル2階,なし,アウト,架電可,派遣業(派13-080490)紹介業(13-ユ-080459)請負業■東証一部上場企業グループ・タウンワークhttp://kaigo-i.jp/,【介護用】「A」営利法人,介護,https://townwork.net/detail/clc_1671484144/joid_D9405349/
(株)セントメディアMS事業部新宿支店,,東京,新宿区新宿3丁目1番24号王新宿三丁目ビル3階,なし,アウト,架電可,派遣業(派13-080490)紹介業(13-ユ-080459)請負業■東証一部上場企業グループ・タウンワークhttp://kaigo-i.jp/,【介護用】「A」営利法人,介護,https://townwork.net/detail/clc_1671484096/joid_D9404313/
イオンスマイル西一之江店,,東京,江戸川区西一之江2丁目10番17大場ビル1階,なし,アウト,架電可,総合小売業/イオンリテール(株)・タウンワークhttp://www.aeonretail.jp/saiyo/community/,【介護用】「A」営利法人,介護,https://townwork.net/detail/clc_3224837675/joid_D9381867/
(株)セントメディアMS事業部新宿支店,,東京,新宿区新宿3丁目1番24号王新宿三丁目ビル3階,なし,アウト,架電可,派遣業(派13-080490)紹介業(13-ユ-080459)請負業■東証一部上場企業グループ・タウンワークhttp://kaigo-i.jp/,【介護用】「A」営利法人,介護,https://townwork.net/detail/clc_1671484096/joid_D9403963/
(株)セントメディアMS事業部秋葉原支店,,東京,千代田区外神田1丁目16番8号Nツアービル2階,なし,アウト,架電可,派遣業(派13-080490)紹介業(13-ユ-080459)請負業■東証一部上場企業グループ・タウンワークhttp://kaigo-i.jp/,【介護用】「A」営利法人,介護,https://townwork.net/detail/clc_1671484144/joid_D9405202/
(株)セントメディアMS事業部新宿支店,,東京,新宿区新宿3丁目1番24号王新宿三丁目ビル3階,なし,アウト,架電可,派遣業(派13-080490)紹介業(13-ユ-080459)請負業■東証一部上場企業グループ・タウンワークhttp://kaigo-i.jp/,【介護用】「A」営利法人,介護,https://townwork.net/detail/clc_1671484096/joid_D9403999/
(株)セントメディアMS事業部新宿支店,,東京,新宿区新宿3丁目1番24号王新宿三丁目ビル3階,なし,アウト,架電可,派遣業(派13-080490)紹介業(13-ユ-080459)請負業■東証一部上場企業グループ・タウンワークhttp://kaigo-i.jp/,【介護用】「A」営利法人,介護,https://townwork.net/detail/clc_1671484096/joid_D9404237/
(株)セントメディアMS事業部新宿支店,,東京,新宿区新宿3丁目1番24号王新宿三丁目ビル3階,なし,アウト,架電可,派遣業(派13-080490)紹介業(13-ユ-080459)請負業■東証一部上場企業グループ・タウンワークhttp://kaigo-i.jp/,【介護用】「A」営利法人,介護,https://townwork.net/detail/clc_1671484096/joid_D9404205/
(株)セントメディアMS事業部新宿支店,,東京,新宿区新宿3丁目1番24号王新宿三丁目ビル3階,なし,アウト,架電可,派遣業(派13-080490)紹介業(13-ユ-080459)請負業■東証一部上場企業グループ・タウンワークhttp://kaigo-i.jp/,【介護用】「A」営利法人,介護,https://townwork.net/detail/clc_1671484096/joid_D9404181/
(株)セントメディアMS事業部秋葉原支店,,東京,千代田区外神田1丁目16番8号Nツアービル2階,なし,アウト,架電可,派遣業(派13-080490)紹介業(13-ユ-080459)請負業■東証一部上場企業グループ・タウンワークhttp://kaigo-i.jp/,【介護用】「A」営利法人,介護,https://townwork.net/detail/clc_1671484144/joid_D9405056/
(株)セントメディアMS事業部新宿支店,,東京,新宿区新宿3丁目1番24号王新宿三丁目ビル3階,なし,アウト,架電可,派遣業(派13-080490)紹介業(13-ユ-080459)請負業■東証一部上場企業グループ・タウンワークhttp://kaigo-i.jp/,【介護用】「A」営利法人,介護,https://townwork.net/detail/clc_1671484096/joid_D9403932/
(株)セントメディアMS事業部新宿支店,,東京,新宿区新宿3丁目1番24号王新宿三丁目ビル3階,なし,アウト,架電可,派遣業(派13-080490)紹介業(13-ユ-080459)請負業■東証一部上場企業グループ・タウンワークhttp://kaigo-i.jp/,【介護用】「A」営利法人,介護,https://townwork.net/detail/clc_1671484096/joid_D9403912/
(株)セントメディアMS事業部新宿支店,,東京,新宿区新宿3丁目1番24号王新宿三丁目ビル3階,なし,アウト,架電可,派遣業(派13-080490)紹介業(13-ユ-080459)請負業■東証一部上場企業グループ・タウンワークhttp://kaigo-i.jp/,【介護用】「A」営利法人,介護,https://townwork.net/detail/clc_1671484096/joid_D9404024/
(株)セントメディアMS事業部立川支店,,東京,立川市曙町2丁目31番15号日住金立川ビル6階,なし,アウト,架電可,派遣業(派13-080490)紹介業(13-ユ-080459)請負業■東証一部上場企業グループ・タウンワークhttp://kaigo-i.jp/,【介護用】「A」営利法人,介護,https://townwork.net/detail/clc_1671484108/joid_D9404908/
(株)セントメディアMS事業部秋葉原支店,,東京,千代田区外神田1丁目16番8号Nツアービル2階,なし,アウト,架電可,派遣業(派13-080490)紹介業(13-ユ-080459)請負業■東証一部上場企業グループ・タウンワークhttp://kaigo-i.jp/,【介護用】「A」営利法人,介護,https://townwork.net/detail/clc_1671484144/joid_D9405119/
(株)セントメディアMS事業部新宿支店,,東京,新宿区新宿3丁目1番24号王新宿三丁目ビル3階,なし,アウト,架電可,派遣業(派13-080490)紹介業(13-ユ-080459)請負業■東証一部上場企業グループ・タウンワークhttp://kaigo-i.jp/,【介護用】「A」営利法人,介護,https://townwork.net/detail/clc_1671484096/joid_D9404093/
(株)セントメディアMS事業部秋葉原支店,,東京,千代田区外神田1丁目16番8号Nツアービル2階,なし,アウト,架電可,派遣業(派13-080490)紹介業(13-ユ-080459)請負業■東証一部上場企業グループ・タウンワークhttp://kaigo-i.jp/,【介護用】「A」営利法人,介護,https://townwork.net/detail/clc_1671484144/joid_D9405061/
(株)セントメディアMS事業部新宿支店,,東京,新宿区新宿3丁目1番24号王新宿三丁目ビル3階,なし,アウト,架電可,派遣業(派13-080490)紹介業(13-ユ-080459)請負業■東証一部上場企業グループ・タウンワークhttp://kaigo-i.jp/,【介護用】「A」営利法人,介護,https://townwork.net/detail/clc_1671484096/joid_D9403904/
(株)セントメディアMS事業部立川支店,,東京,立川市曙町2丁目31番15号日住金立川ビル6階,なし,アウト,架電可,派遣業(派13-080490)紹介業(13-ユ-080459)請負業■東証一部上場企業グループ・タウンワークhttp://kaigo-i.jp/,【介護用】「A」営利法人,介護,https://townwork.net/detail/clc_1671484108/joid_D9404812/
(株)セントメディアMS事業部秋葉原支店,,東京,千代田区外神田1丁目16番8号Nツアービル2階,なし,アウト,架電可,派遣業(派13-080490)紹介業(13-ユ-080459)請負業■東証一部上場企業グループ・タウンワークhttp://kaigo-i.jp/,【介護用】「A」営利法人,介護,https://townwork.net/detail/clc_1671484144/joid_D9405206/
(株)セントメディアMS事業部新宿支店,,東京,新宿区新宿3丁目1番24号王新宿三丁目ビル3階,なし,アウト,架電可,派遣業(派13-080490)紹介業(13-ユ-080459)請負業■東証一部上場企業グループ・タウンワークhttp://kaigo-i.jp/,【介護用】「A」営利法人,介護,https://townwork.net/detail/clc_1671484096/joid_D9404292/
(株)セントメディアMS事業部新宿支店,,東京,新宿区新宿3丁目1番24号王新宿三丁目ビル3階,なし,アウト,架電可,派遣業(派13-080490)紹介業(13-ユ-080459)請負業■東証一部上場企業グループ・タウンワークhttp://kaigo-i.jp/,【介護用】「A」営利法人,介護,https://townwork.net/detail/clc_1671484096/joid_D9404064/
イオンスマイル葛西SC店,,東京,江戸川区西葛西3-9-19イオン葛西店4階,なし,アウト,架電可,総合小売業/イオンリテール(株)・タウンワークhttp://www.aeonretail.jp/saiyo/community/,【介護用】「A」営利法人,介護,https://townwork.net/detail/clc_3224837326/joid_D9382736/
(株)セントメディアMS事業部秋葉原支店,,東京,千代田区外神田1丁目16番8号Nツアービル2階,なし,アウト,架電可,派遣業(派13-080490)紹介業(13-ユ-080459)請負業■東証一部上場企業グループ・タウンワークhttp://kaigo-i.jp/,【介護用】「A」営利法人,介護,https://townwork.net/detail/clc_1671484144/joid_D9405180/
(株)セントメディアMS事業部新宿支店,,東京,新宿区新宿3丁目1番24号王新宿三丁目ビル3階,なし,アウト,架電可,派遣業(派13-080490)紹介業(13-ユ-080459)請負業■東証一部上場企業グループ・タウンワークhttp://kaigo-i.jp/,【介護用】「A」営利法人,介護,https://townwork.net/detail/clc_1671484096/joid_D9404057/
(株)セントメディアMS事業部新宿支店,,東京,新宿区新宿3丁目1番24号王新宿三丁目ビル3階,なし,アウト,架電可,派遣業(派13-080490)紹介業(13-ユ-080459)請負業■東証一部上場企業グループ・タウンワークhttp://kaigo-i.jp/,【介護用】「A」営利法人,介護,https://townwork.net/detail/clc_1671484096/joid_D9404260/
(株)セントメディアMS事業部立川支店,,東京,立川市曙町2丁目31番15号日住金立川ビル6階,なし,アウト,架電可,派遣業(派13-080490)紹介業(13-ユ-080459)請負業■東証一部上場企業グループ・タウンワークhttp://kaigo-i.jp/,【介護用】「A」営利法人,介護,https://townwork.net/detail/clc_1671484108/joid_D9404974/
(株)セントメディアMS事業部北千住支店,,東京,120-0034足立区千住1-11-2　カーニープレイス千住6F,なし,アウト,架電可,派遣業(派13-080490)紹介業(13-ユ-080459)請負業■東証一部上場企業グループ・タウンワークhttp://kaigo-i.jp/,【介護用】「A」営利法人,介護,https://townwork.net/detail/clc_1671484112/joid_D9404507/
(株)セントメディアMS事業部立川支店,,東京,立川市曙町2丁目31番15号日住金立川ビル6階,なし,アウト,架電可,派遣業(派13-080490)紹介業(13-ユ-080459)請負業■東証一部上場企業グループ・タウンワークhttp://kaigo-i.jp/,【介護用】「A」営利法人,介護,https://townwork.net/detail/clc_1671484108/joid_D9404936/
(株)セントメディアMS事業部立川支店,,東京,立川市曙町2丁目31番15号日住金立川ビル6階,なし,アウト,架電可,派遣業(派13-080490)紹介業(13-ユ-080459)請負業■東証一部上場企業グループ・タウンワークhttp://kaigo-i.jp/,【介護用】「A」営利法人,介護,https://townwork.net/detail/clc_1671484108/joid_D9404851/
(株)セントメディアMS事業部新宿支店,,東京,新宿区新宿3丁目1番24号王新宿三丁目ビル3階,なし,アウト,架電可,派遣業(派13-080490)紹介業(13-ユ-080459)請負業■東証一部上場企業グループ・タウンワークhttp://kaigo-i.jp/,【介護用】「A」営利法人,介護,https://townwork.net/detail/clc_1671484096/joid_D9404130/
(株)セントメディアMS事業部新宿支店,,東京,新宿区新宿3丁目1番24号王新宿三丁目ビル3階,なし,アウト,架電可,派遣業(派13-080490)紹介業(13-ユ-080459)請負業■東証一部上場企業グループ・タウンワークhttp://kaigo-i.jp/,【介護用】「A」営利法人,介護,https://townwork.net/detail/clc_1671484096/joid_D9403940/
(株)セントメディアMS事業部新宿支店,,東京,新宿区新宿3丁目1番24号王新宿三丁目ビル3階,なし,アウト,架電可,派遣業(派13-080490)紹介業(13-ユ-080459)請負業■東証一部上場企業グループ・タウンワークhttp://kaigo-i.jp/,【介護用】「A」営利法人,介護,https://townwork.net/detail/clc_1671484096/joid_D9404030/
(株)セントメディアMS事業部立川支店,,東京,立川市曙町2丁目31番15号日住金立川ビル6階,なし,アウト,架電可,派遣業(派13-080490)紹介業(13-ユ-080459)請負業■東証一部上場企業グループ・タウンワークhttp://kaigo-i.jp/,【介護用】「A」営利法人,介護,https://townwork.net/detail/clc_1671484108/joid_D9404784/
(株)セントメディアMS事業部北千住支店,,東京,120-0034足立区千住1-11-2　カーニープレイス千住6F,なし,アウト,架電可,派遣業(派13-080490)紹介業(13-ユ-080459)請負業■東証一部上場企業グループ・タウンワークhttp://kaigo-i.jp/,【介護用】「A」営利法人,介護,https://townwork.net/detail/clc_1671484112/joid_D9404395/
(株)セントメディアMS事業部新宿支店,,東京,新宿区新宿3丁目1番24号王新宿三丁目ビル3階,なし,アウト,架電可,派遣業(派13-080490)紹介業(13-ユ-080459)請負業■東証一部上場企業グループ・タウンワークhttp://kaigo-i.jp/,【介護用】「A」営利法人,介護,https://townwork.net/detail/clc_1671484096/joid_D9404286/
(株)セントメディアMS事業部秋葉原支店,,東京,千代田区外神田1丁目16番8号Nツアービル2階,なし,アウト,架電可,派遣業(派13-080490)紹介業(13-ユ-080459)請負業■東証一部上場企業グループ・タウンワークhttp://kaigo-i.jp/,【介護用】「A」営利法人,介護,https://townwork.net/detail/clc_1671484144/joid_D9405262/
(株)セントメディアMS事業部秋葉原支店,,東京,千代田区外神田1丁目16番8号Nツアービル2階,なし,アウト,架電可,派遣業(派13-080490)紹介業(13-ユ-080459)請負業■東証一部上場企業グループ・タウンワークhttp://kaigo-i.jp/,【介護用】「A」営利法人,介護,https://townwork.net/detail/clc_1671484144/joid_D9405087/
(株)セントメディアMS事業部新宿支店,,東京,新宿区新宿3丁目1番24号王新宿三丁目ビル3階,なし,アウト,架電可,派遣業(派13-080490)紹介業(13-ユ-080459)請負業■東証一部上場企業グループ・タウンワークhttp://kaigo-i.jp/,【介護用】「A」営利法人,介護,https://townwork.net/detail/clc_1671484096/joid_D9404156/
(株)セントメディアMS事業部北千住支店,,東京,120-0034足立区千住1-11-2　カーニープレイス千住6F,なし,アウト,架電可,派遣業(派13-080490)紹介業(13-ユ-080459)請負業■東証一部上場企業グループ・タウンワークhttp://kaigo-i.jp/,【介護用】「A」営利法人,介護,https://townwork.net/detail/clc_1671484112/joid_D9404487/
(株)セントメディアMS事業部北千住支店,,東京,120-0034足立区千住1-11-2　カーニープレイス千住6F,なし,アウト,架電可,派遣業(派13-080490)紹介業(13-ユ-080459)請負業■東証一部上場企業グループ・タウンワークhttp://kaigo-i.jp/,【介護用】「A」営利法人,介護,https://townwork.net/detail/clc_1671484112/joid_D9404400/
(株)セントメディアMS事業部新宿支店,,東京,新宿区新宿3丁目1番24号王新宿三丁目ビル3階,なし,アウト,架電可,派遣業(派13-080490)紹介業(13-ユ-080459)請負業■東証一部上場企業グループ・タウンワークhttp://kaigo-i.jp/,【介護用】「A」営利法人,介護,https://townwork.net/detail/clc_1671484096/joid_D9403881/
(株)セントメディアMS事業部秋葉原支店,,東京,千代田区外神田1丁目16番8号Nツアービル2階,なし,アウト,架電可,派遣業(派13-080490)紹介業(13-ユ-080459)請負業■東証一部上場企業グループ・タウンワークhttp://kaigo-i.jp/,【介護用】「A」営利法人,介護,https://townwork.net/detail/clc_1671484144/joid_D9405175/
(株)セントメディアMS事業部立川支店,,東京,立川市曙町2丁目31番15号日住金立川ビル6階,なし,アウト,架電可,派遣業(派13-080490)紹介業(13-ユ-080459)請負業■東証一部上場企業グループ・タウンワークhttp://kaigo-i.jp/,【介護用】「A」営利法人,介護,https://townwork.net/detail/clc_1671484108/joid_D9404775/
(株)セントメディアMS事業部立川支店,,東京,立川市曙町2丁目31番15号日住金立川ビル6階,なし,アウト,架電可,派遣業(派13-080490)紹介業(13-ユ-080459)請負業■東証一部上場企業グループ・タウンワークhttp://kaigo-i.jp/,【介護用】「A」営利法人,介護,https://townwork.net/detail/clc_1671484108/joid_D9404877/
(株)セントメディアMS事業部立川支店,,東京,立川市曙町2丁目31番15号日住金立川ビル6階,なし,アウト,架電可,派遣業(派13-080490)紹介業(13-ユ-080459)請負業■東証一部上場企業グループ・タウンワークhttp://kaigo-i.jp/,【介護用】「A」営利法人,介護,https://townwork.net/detail/clc_1671484108/joid_D9404997/
(株)セントメディアMS事業部秋葉原支店,,東京,千代田区外神田1丁目16番8号Nツアービル2階,なし,アウト,架電可,派遣業(派13-080490)紹介業(13-ユ-080459)請負業■東証一部上場企業グループ・タウンワークhttp://kaigo-i.jp/,【介護用】「A」営利法人,介護,https://townwork.net/detail/clc_1671484144/joid_D9405031/
(株)セントメディアMS事業部新宿支店,,東京,新宿区新宿3丁目1番24号王新宿三丁目ビル3階,なし,アウト,架電可,派遣業(派13-080490)紹介業(13-ユ-080459)請負業■東証一部上場企業グループ・タウンワークhttp://kaigo-i.jp/,【介護用】「A」営利法人,介護,https://townwork.net/detail/clc_1671484096/joid_D9404175/
(株)セントメディアMS事業部北千住支店,,東京,120-0034足立区千住1-11-2　カーニープレイス千住6F,なし,アウト,架電可,派遣業(派13-080490)紹介業(13-ユ-080459)請負業■東証一部上場企業グループ・タウンワークhttp://kaigo-i.jp/,【介護用】「A」営利法人,介護,https://townwork.net/detail/clc_1671484112/joid_D9404597/
(株)セントメディアMS事業部立川支店,,東京,立川市曙町2丁目31番15号日住金立川ビル6階,なし,アウト,架電可,派遣業(派13-080490)紹介業(13-ユ-080459)請負業■東証一部上場企業グループ・タウンワークhttp://kaigo-i.jp/,【介護用】「A」営利法人,介護,https://townwork.net/detail/clc_1671484108/joid_D9404718/
(株)セントメディアMS事業部立川支店,,東京,立川市曙町2丁目31番15号日住金立川ビル6階,なし,アウト,架電可,派遣業(派13-080490)紹介業(13-ユ-080459)請負業■東証一部上場企業グループ・タウンワークhttp://kaigo-i.jp/,【介護用】「A」営利法人,介護,https://townwork.net/detail/clc_1671484108/joid_D9404744/
(株)セントメディアMS事業部立川支店,,東京,立川市曙町2丁目31番15号日住金立川ビル6階,なし,アウト,架電可,派遣業(派13-080490)紹介業(13-ユ-080459)請負業■東証一部上場企業グループ・タウンワークhttp://kaigo-i.jp/,【介護用】「A」営利法人,介護,https://townwork.net/detail/clc_1671484108/joid_D9404751/
(株)セントメディアMS事業部立川支店,,東京,立川市曙町2丁目31番15号日住金立川ビル6階,なし,アウト,架電可,派遣業(派13-080490)紹介業(13-ユ-080459)請負業■東証一部上場企業グループ・タウンワークhttp://kaigo-i.jp/,【介護用】「A」営利法人,介護,https://townwork.net/detail/clc_1671484108/joid_D9404884/
