会社名,電話番号,都道府県,市区郡,町名・番地,アウトorイン,リード状況,備考,リストランク,業種（選択）,Web サイト
Ursus hair Design 近江 新潟店,025-290-7647 ,新潟,新潟市,中央区上近江３－２－２７　GOLF INDOOR内１階,アウト,架電可,GOLF INDOOR 内 1階　025-290-7647【Ursus hair Design新潟近江】,"",ヘア,https://beauty.hotpepper.jp/slnH000278122
CLOE by LUVISM（クロエ バイ ラヴィズム）長岡店,0258-86-8755 ,新潟,長岡市,古正寺２-５７,アウト,架電可,長岡駅車7分（イオン長岡店様近く）,"",ヘア,https://beauty.hotpepper.jp/slnH000375435
Ｂｒａｎｃｈｅ　Next　亀田店　（ブランシェ　ネクスト）,0800-900-2330 ,新潟,新潟市,江南区東船場２‐１‐３４,アウト,架電可,亀田駅西口より直線、徒歩1分,"",ヘア,https://beauty.hotpepper.jp/slnH000113299
AUBE hair room　新潟店 ,025-257-7030 ,新潟,新潟市,中央区美の里３番１４号　１F,アウト,架電可,姥ヶ山インター下りてすぐ/ムサシ新潟店すぐ/イオン新潟南店から車で3分,"",ヘア,https://beauty.hotpepper.jp/slnH000307835
Agu hair sango【アグ ヘアー サンゴ】新潟駅前店,025-250-6017 ,新潟,新潟市,中央区弁天１－４－２２　グリンビル７階,アウト,架電可,新潟駅万代口より徒歩4分,"",ヘア,https://beauty.hotpepper.jp/slnH000373104
Ursus hair Design 早通 新潟３号店 ,025-290-7838 ,新潟,新潟市,北区早通南３－４－６,アウト,架電可,早通駅徒歩4分【Ursus hair Design新潟早通】,"",ヘア,https://beauty.hotpepper.jp/slnH000305349
adorable　（アドラーブル）,025-249-7319 ,新潟,新潟市,中央区鐙１‐１‐７　田辺ビル1階,アウト,架電可,弁天橋通り沿い・中央自動車学校そば,"",ヘア,https://beauty.hotpepper.jp/slnH000053974
CLOE by LUVISM (クロエ バイ ラヴィズム)松崎店,025-278-7769 ,新潟,新潟市,東区新松崎１－８－１４　２１プラザ１階,アウト,架電可,ファッションセンターしまむら松崎店隣り,"",ヘア,https://beauty.hotpepper.jp/slnH000311653
Le Coeur　（ル　クール ）　宮内店　,0258-31-7022 ,新潟,長岡市,曲新町３‐５３１,アウト,架電可,ＪＲ宮内駅東口徒歩5分,"",ヘア,https://beauty.hotpepper.jp/slnH000122558
hair spa resort Lien（リアン）,025-278-8756 ,新潟,新潟市,東区竹尾４－１９－１,アウト,架電可,竹尾IC降りてすぐ！蔦屋書店近く,"",ヘア,https://beauty.hotpepper.jp/slnH000281709
Ursus hair Design 松崎 新潟２号店,025-383-8408 ,新潟,新潟市,東区新松崎２－２－７　MKビル２Ｆ,アウト,架電可,【MKビル】イオン東新潟・カワチ松崎店近く。　025-383-8408【Ursus hair 新潟松崎】,"",ヘア,https://beauty.hotpepper.jp/slnH000286162
CLOE by LUVISM（クロエ バイ ラヴィズム）小針店,025-378-3752 ,新潟,新潟市,西区小針３丁目17-23,アウト,架電可,小針駅より徒歩15分/車4分（蔦屋書店小針店近く）,"",ヘア,https://beauty.hotpepper.jp/slnH000368701
CAELUM AVEDA　（カエルム　アヴェダ）,025-250-5517 ,新潟,新潟市,中央区万代１－４－８　LoveLa2 １階,アウト,架電可,【新潟駅万代口】より徒歩5分 ラブラ２ １F,"",ヘア,https://beauty.hotpepper.jp/slnH000270390
M's hair style （エムズ ヘア スタイル）,025-369-4554 ,新潟,新潟市,東区中山６-3-17清水フードセンター中山店内,アウト,架電可,竹尾ICより新潟方面へ車で約5分。清水フードセンター中山店内テナント,"",ヘア,https://beauty.hotpepper.jp/slnH000357338
美容室　Ｆｅｅｌ luce　（フィールルーチェ）,025-384-8025 ,新潟,新潟市,中央区近江３-32-5,アウト,架電可,笹出線沿い、西松屋様・上越新幹線ガードの近く,"",ヘア,https://beauty.hotpepper.jp/slnH000240726
Ann BANDAI （アン　バンダイ）,025-241-7847 ,新潟,新潟市,中央区万代１―3―7 NDK万代ビル1F,アウト,架電可,新潟駅から徒歩5分・伊勢丹様、バスセンター様近く、クスリのコダマ様隣り,"",ヘア,https://beauty.hotpepper.jp/slnH000326826
CLOE by LUVISM (クロエ バイ ラヴィズム)新潟駅前店,025-282-7335 ,新潟,新潟市,中央区花園１－３－２３　アルファビル２階,アウト,架電可,新潟駅万代口から徒歩30秒,"",ヘア,https://beauty.hotpepper.jp/slnH000316018
Ursus hair Design　坂井東　新潟7号店,025-378-3447 ,新潟,新潟市,西区坂井東1-3-15,アウト,架電可,大堀幹線沿い／坂井輪小学校近く【Ursus hair Design　新潟潟坂井東】,"",ヘア,https://beauty.hotpepper.jp/slnH000362060
Ly hair（リーヘア）,025-248-6608 ,新潟,新潟市,中央区東幸町４－１０　ダイアパレスロイヤルシティ東棟テナント１F－２,アウト,架電可,新潟駅徒歩13分,"",ヘア,https://beauty.hotpepper.jp/slnH000372026
CLOE by LUVISM (クロエ バイ ラヴィズム)新潟駅南店,025-384-4456 ,新潟,新潟市,中央区紫竹山２－５－３　紫鳥線ビル１階A室,アウト,架電可,新潟駅から徒歩15分,"",ヘア,https://beauty.hotpepper.jp/slnH000324012
Ursus hair Design 万代 新潟４号店,025-278-8687 ,新潟,新潟市,中央区万代１-１-２６　万代ビル１階,アウト,架電可,新潟駅徒歩5分/新潟ラブラ２・立体駐車場向かいビル1階025-278-8687【Ursus新潟万代】,"",ヘア,https://beauty.hotpepper.jp/slnH000313612
ITAKURA （イタクラ）万代店,0120-184-241 ,新潟,新潟市,中央区万代１丁目1-33 GEO万代1 1F,アウト,架電可,新潟駅より徒歩10分,"",ヘア,https://beauty.hotpepper.jp/slnH000321479
Ｂｒａｎｃｈｅ　牡丹山店　（ブランシェ）,0800-900-7551 ,新潟,新潟市,東区牡丹山１‐５‐１１-2F,アウト,架電可,木戸小学校近く、サークルＫ牡丹山店向かい,"",ヘア,https://beauty.hotpepper.jp/slnH000037021
hair salon REGOLITH【レゴリス】,025-369-4453 ,新潟,新潟市,西区山田3378,アウト,架電可,西区山田の佐川急便の裏(旧：イタリアン料理店トラットリアー・アー・アッラ・ゼータ),"",ヘア,https://beauty.hotpepper.jp/slnH000371520
ulu　【ウル】,025-384-0210 ,新潟,新潟市,中央区米山１－４－１　サーパス新潟駅前レジデンス１階,アウト,架電可,新潟駅から徒歩４分☆車でお越しの方は提携駐車場もご用意しております。,"",ヘア,https://beauty.hotpepper.jp/slnH000369078
モアクール・ファミリー　長岡千秋店,0258-29-2077 ,新潟,長岡市,千秋２-1087-1　センタープラザ１F,アウト,架電可,川西・千秋「センタープラザ1F」 、長岡駅より車で15分,"",ヘア,https://beauty.hotpepper.jp/slnH000276134
LUVISM（ラヴィズム）,025-247-9788 ,新潟,新潟市,中央区万代１－３－１万代シネモールビル２Ｆ,アウト,架電可,新潟駅から徒歩5分，ラブラ万代近く。,"",ヘア,https://beauty.hotpepper.jp/slnH000249931
Ursus hair Design 駅南 新潟５号店,025-384-0728 ,新潟,新潟市,中央区紫竹山１－２－５ TMビル３階B,アウト,架電可,新潟駅　車で3分　025-384-0728　【Ursus hair Design 新潟駅南】,"",ヘア,https://beauty.hotpepper.jp/slnH000342545
Le Coeur　(ル　クール)　新潟万代店　,025-290-5535 ,新潟,新潟市,中央区万代４‐１‐１　Ｂ４ビル２Ｆ,アウト,架電可,新潟駅徒歩7分　東大通沿い　ファミリーマート様２Ｆ,"",ヘア,https://beauty.hotpepper.jp/slnH000102553
Ursus hair Design　長岡 新潟6号店,0258-86-8955 ,新潟,長岡市,古正寺３－６７　ウインドワードＳＫ１０１,アウト,架電可,長岡駅から車で15分/ 大手大橋近く/古正寺町アミング向かい【Ursus hair Design長岡】,"",ヘア,https://beauty.hotpepper.jp/slnH000362059
CLOE by LUVISM（クロエ バイ ラヴィズム）万代店,025-290-7270 ,新潟,新潟市,中央区万代１-3-10 新潟万代ビル3F,アウト,架電可,新潟駅から徒歩5分，伊勢丹、バスセンター近くココカラファインの上3F,"",ヘア,https://beauty.hotpepper.jp/slnH000353403
Up! Hair Beauty's （アップ ヘア ビューティーズ）,025-248-6522 ,新潟,新潟市,中央区花園１－１－１　CoCoLo新潟万代BF1,アウト,架電可,JR新潟駅徒歩0分★駅構内cocolo万代地下一階　025-248-6522 ,"",ヘア,https://beauty.hotpepper.jp/slnH000377859
adorable　万代店　（アドラーブル　バンダイテン） ,025-244-2264 ,新潟,新潟市,中央区八千代２丁目4番28号,アウト,架電可,ラブラ・ビルボードプレイスより徒歩5分,"",ヘア,https://beauty.hotpepper.jp/slnH000322817
adorable　はなみずき店　（アドラーブル　ハナミズキ）,025-270-1144 ,新潟,新潟市,東区はなみずき１丁目１５－４０,アウト,架電可,竹尾ICを空港方面に下り一本目の信号を右折。直進し木戸病院を過ぎてすぐになります。,"",ヘア,https://beauty.hotpepper.jp/slnH000361382
THIRTEEN13（サーティーン）,025-243-3678 ,新潟,新潟市,中央区八千代１-1-1星邦ビル２F,アウト,架電可,新潟駅から徒歩10分。伊勢丹並びの居酒屋２階。,"",ヘア,https://beauty.hotpepper.jp/slnH000037688
TOKIO　garden　（トキオ ガーデン）,0120-48-9181 ,新潟,新潟市,中央区万代３‐1‐１　メディアシップ４F,アウト,架電可,新潟駅徒歩10分、タクシーで5分。萬代橋たもとメディアシップ４F,"",ヘア,https://beauty.hotpepper.jp/slnH000060261
EARTH　coiffure beaute　新潟中野山店,025-384-0348 ,新潟,新潟市,東区若葉町１－１９－８４,アウト,架電可,信越本線越後石山駅から車で5分,"",ヘア,https://beauty.hotpepper.jp/slnH000322421
fab.　（ファブ）,025-283-7033 ,新潟,新潟市,中央区新和１－6－17,アウト,架電可,笹出線沿い・新和,"",ヘア,https://beauty.hotpepper.jp/slnH000106449
hair atelier　NEVAEH　（ネヴェア）,0258-36-2101 ,新潟,長岡市,表町１-7-1ヒラガタビル2F,アウト,架電可,JR長岡駅　徒歩10分,"",ヘア,https://beauty.hotpepper.jp/slnH000241769
美容室　亜美香　（ビヨウシツ　アミカ）,025-277-0791 ,新潟,新潟市,東区粟山１‐２０‐３０,アウト,架電可,新潟駅より信越本線越後石山駅から徒歩7分,"",ヘア,https://beauty.hotpepper.jp/slnH000059075
エコサロン,0258-33-7141 ,新潟,長岡市,南町１－６－１３,アウト,架電可,長岡駅徒歩15分、コバック近く,"",ヘア,https://beauty.hotpepper.jp/slnH000217289
Hair Garden　Milk tea　（ミルクティ）,025-211-4595 ,新潟,新潟市,中央区新島町通一ノ町1977‐２,アウト,架電可,礎町ローソン近く、「GATOUSENKA」隣り,"",ヘア,https://beauty.hotpepper.jp/slnH000230521
HURRAH　（フラー）,025-250-7434 ,新潟,新潟市,中央区万代１-2-3　コープ野村万代1F,アウト,架電可,万代,"",ヘア,https://beauty.hotpepper.jp/slnH000037015
コンチネンタル ヘア,0258-89-8383 ,新潟,長岡市,弓町２－４－２９　棚橋不動産駅東ビル１Ｆ,アウト,架電可,久兵衛東口店様近く、駅寄り2件目,"",ヘア,https://beauty.hotpepper.jp/slnH000222014
Nicora(ニコラ),025-282-7118 ,新潟,新潟市,中央区南万代町12-2パドマテラス南万代,アウト,架電可,JR新潟駅万代口より徒歩4分,"",ヘア,https://beauty.hotpepper.jp/slnH000345160
chic comfortable　（シック　カンファタブル）,0258-37-5727 ,新潟,長岡市,川崎町７７２‐１,アウト,架電可,ＪＲ長岡駅　車で7～8分,"",ヘア,https://beauty.hotpepper.jp/slnH000116464
fleur de lis　（フルール　デ　リズ）,025-374-4646 ,新潟,新潟市,中央区万代１‐１‐４　万代ファーストハイツ1F,アウト,架電可,新潟駅徒歩約10分,"",ヘア,https://beauty.hotpepper.jp/slnH000073916
Rapt. Hair Rita　（ラプトヘア　リタ）,0258-35-3290 ,新潟,長岡市,千歳１－３－２２,アウト,架電可,長岡消防本部となり、長岡シビックコアショッピングセンター内,"",ヘア,https://beauty.hotpepper.jp/slnH000219056
Ann furumachi（アン　フルマチ）,0120-24-7528 ,新潟,新潟市,中央区古町通五番町６２４　石本ビル2F ,アウト,架電可,JR新潟駅バスと徒歩で15分,"",ヘア,https://beauty.hotpepper.jp/slnH000337468
DEUCE　HAIR　（デュースヘア）,025-374-7511 ,新潟,新潟市,中央区古町通六番町968-1 2F,アウト,架電可,古町モール６番内・古町演芸場隣,"",ヘア,https://beauty.hotpepper.jp/slnH000078059
BE・IN　（ビーイン）,0258-37-2397 ,新潟,長岡市,山田１‐２‐１５,アウト,架電可,山田町・長生橋通り,"",ヘア,https://beauty.hotpepper.jp/slnH000046469
VITAMIN　（ビタミン）,025-378-5659 ,新潟,新潟市,中央区弁天２‐４‐２,アウト,架電可,JR新潟駅5分・ラブラ２並び１分・万代サムギョプサル【ベジデジや】さん向い,"",ヘア,https://beauty.hotpepper.jp/slnH000101936
Ricci　ALLURE （リッチ　アリュール）,0258-25-2777 ,新潟,長岡市,新保４－２－２６,アウト,架電可,新保原信近く,"",ヘア,https://beauty.hotpepper.jp/slnH000186470
AZITO HAIR　（アジトヘア）,0258-89-7210 ,新潟,長岡市,三ツ郷屋町３０５－３　ナカシマビル１Ｆ,アウト,架電可,大島通り・ゲオ隣り,"",ヘア,https://beauty.hotpepper.jp/slnH000202667
Amble hair design & healing (アンブル　ヘアデザイン&ヒーリング) 喜多町店,0258-89-7399 ,新潟,長岡市,喜多町土地区画事業地内6街区9ルージェス喜多町A,アウト,架電可,カワチ薬局斜め前、ファミリーマートの隣,"",ヘア,https://beauty.hotpepper.jp/slnH000297449
A・do hair vis　 (ア・ドゥ　ヘアー　ヴィス),025-285-0801 ,新潟,新潟市,中央区女池５－６－１４,アウト,架電可,女池インターより車で5分。ウオロクのすぐそばにございます。,"",ヘア,https://beauty.hotpepper.jp/slnH000244316
Le Coeur　（ル　クール）　ヘアー＆ビューティー　新潟小針店,025-379-9277 ,新潟,新潟市,西区小針６－５６－１６,アウト,架電可,大堀幹線沿い眼鏡市場様の隣り,"",ヘア,https://beauty.hotpepper.jp/slnH000301865
REPLICA +brucke　（レプリカ）,025-247-8508 ,新潟,新潟市,中央区水島町３‐２６,アウト,架電可,新潟市水島町セブンイレブン近く,"",ヘア,https://beauty.hotpepper.jp/slnH000097301
ENCHANT　（アンシャンテ）,0258-77-7217 ,新潟,長岡市,新保６－５０７番地－１,アウト,架電可,長岡市新保町6丁目507番地1,"",ヘア,https://beauty.hotpepper.jp/slnH000046274
ROOTS martin　（ルーツマーチン）,025-270-5002 ,新潟,新潟市,東区中山６-11-12 2F,アウト,架電可,新潟駅南口より笹出線東区方面。笹越橋を越えて100ｍ、万人屋様となり。,"",ヘア,https://beauty.hotpepper.jp/slnH000236780
mannish　（マニッシュ）,0258-32-0051 ,新潟,長岡市,川崎２-2530-12,アウト,架電可,川崎内科クリニック向い,"",ヘア,https://beauty.hotpepper.jp/slnH000046437
ＭＩＬＤ.（ミルト）,025-290-6340 ,新潟,新潟市,中央区東大通２‐３‐１５,アウト,架電可,新潟駅万代口から徒歩5分,"",ヘア,https://beauty.hotpepper.jp/slnH000036986
kaming　（カミング）,025-281-2626 ,新潟,新潟市,中央区新和１‐６‐１５,アウト,架電可,新和・笹出線沿いコメダ珈琲向かい,"",ヘア,https://beauty.hotpepper.jp/slnH000053886
DRESS private room　（ドレス　プライベートルーム）,0258-86-8355 ,新潟,長岡市,西千手３-2-31,アウト,架電可,千手コミュニティセンター（旧健康センター）近く,"",ヘア,https://beauty.hotpepper.jp/slnH000172842
unfleuri　（アンフルリ）,025-270-3321 ,新潟,新潟市,東区上木戸１‐14‐14,アウト,架電可,赤道十字路から車で約3分,"",ヘア,https://beauty.hotpepper.jp/slnH000140965
JiJI la porte rouge (ジジ　ラ　ポルト　ルージュ),0258-86-6445 ,新潟,長岡市,藤沢１-9-15,アウト,架電可,リバーサイド千秋より車で5分,"",ヘア,https://beauty.hotpepper.jp/slnH000314061
FLAIR　（フレアー）,025-383-8877 ,新潟,新潟市,中央区沼垂西１－２－２６　１Ｆ,アウト,架電可,新潟市東地区総合庁舎近く、万代町通り沿い,"",ヘア,https://beauty.hotpepper.jp/slnH000238447
sur scene　（シュールセイン）,025-241-5588 ,新潟,新潟市,中央区神道寺南２-4-48,アウト,架電可,神道寺南、鳥屋野体育館近く,"",ヘア,https://beauty.hotpepper.jp/slnH000049866
en:s（エンス）,025-369-4606 ,新潟,新潟市,中央区万代２-4-16　カーサ万代１F,アウト,架電可,新潟駅万代口を出て、東大通り沿いに万代方面に歩きます。,"",ヘア,https://beauty.hotpepper.jp/slnH000354824
Amble hair design & healing (アンブル　ヘアデザイン&ヒーリング) 古正寺店,0258-84-7467 ,新潟,長岡市,寺島町829番　ルージェス古正寺A,アウト,架電可,リバーサイド千秋から徒歩１０分,"",ヘア,https://beauty.hotpepper.jp/slnH000130711
Cleptique(クレプティーク),025-244-6322 ,新潟,新潟市,中央区紫竹山２‐3-24,アウト,架電可,紫竹山ICより車で2分！！ 紫鳥線沿い。旧市民病院、ココス新潟紫竹山店すぐです。,"",ヘア,https://beauty.hotpepper.jp/slnH000281573
L'Apartment　fleur de lis （ラパルトメント　フルールデリズ） ,025-278-3815 ,新潟,新潟市,天神１－１９－５　８８ビルディング３Ｆ,アウト,架電可,駅南けやき通り沿い、１ＦがLiffey Tavern3（リフィー タヴァーン3）様ビルの３Ｆ,"",ヘア,https://beauty.hotpepper.jp/slnH000235337
Lequipe heurtebise （レキュップ　ウルトビイズ）,025-244-9060 ,新潟,新潟市,中央区八千代２‐１‐１ 万代シテイ第２駐車場ビル１Ｆ,アウト,架電可,万代シテイ・伊勢丹向かい駐車場ビル1F・シネウインド様となり奥,"",ヘア,https://beauty.hotpepper.jp/slnH000038499
con ａｆｆｅｔｔｏ　（アフェット）,025-384-0008 ,新潟,新潟市,中央区上近江２‐１‐３５,アウト,架電可,笹出線沿い・アメリカ屋様隣り,"",ヘア,https://beauty.hotpepper.jp/slnH000037059
Number 2 heaven　（ナンバーツーヘブン）,025-243-5760 ,新潟,新潟市,中央区紫竹山６-1-18,アウト,架電可,弁天インター下りてすぐ・餃子の王将隣り,"",ヘア,https://beauty.hotpepper.jp/slnH000176833
Naturea　（ナチュリア）,025-201-6301 ,新潟,新潟市,西区五十嵐一の町6670-1,アウト,架電可,新潟大学前・西大通り沿い、清水フードセンター斜め向かい,"",ヘア,https://beauty.hotpepper.jp/slnH000163187
ZELE NIIGATA　（ゼル　ニイガタ）,025-383-6700 ,新潟,新潟市,中央区笹口１－１３－１４,アウト,架電可,新潟駅南口徒歩3分,"",ヘア,https://beauty.hotpepper.jp/slnH000230520
alaise de beaute（アレーズ　ドゥ　ボーテ）,025-384-8500 ,新潟,新潟市,中央区堀之内４２－１１,アウト,架電可,笹井出線沿い、桜木ICより車で5分,"",ヘア,https://beauty.hotpepper.jp/slnH000294177
SHIN　（シン）,025-231-3203 ,新潟,新潟市,西区小針１-２９-１５,アウト,架電可,小針・大堀幹線沿い,"",ヘア,https://beauty.hotpepper.jp/slnH000216502
SALSA　（サルサ）　新潟店,025-378-6838 ,新潟,新潟市,中央区東大通２‐１‐７　松屋ビル２Ｆ,アウト,架電可,新潟駅万代口より徒歩5分,"",ヘア,https://beauty.hotpepper.jp/slnH000104527
BLUE （ブルー）,025-244-6678 ,新潟,新潟市,中央区南万代町４‐２４,アウト,架電可,新潟駅万代口より徒歩5分,"",ヘア,https://beauty.hotpepper.jp/slnH000335129
Hair Dressing salon WILL　（ウィル）,0258-33-7616 ,新潟,長岡市,幸町３‐４‐１２‐１Ｆ,アウト,架電可,さいわいプラザの裏通りから長生橋方向へ徒歩1分,"",ヘア,https://beauty.hotpepper.jp/slnH000115892
DEARS　（ディアーズ）,0258-33-8838 ,新潟,長岡市,笹崎１-3-20,アウト,架電可,宮内・笹崎　　とんかつ太郎様、長岡治療院様の隣になります。,"",ヘア,https://beauty.hotpepper.jp/slnH000125640
anthurium　（アンスリウム）,025-271-3117 ,新潟,新潟市,東区はなみずき１-15-27 A BAND APART,アウト,架電可,竹尾I.C.から車で3分。木戸病院様の近く。,"",ヘア,https://beauty.hotpepper.jp/slnH000237279
adorable　松崎店　（アドラーブル　マツサキテン）,025-274-1011 ,新潟,新潟市,東区新松崎１-10-17,アウト,架電可,海老ヶ瀬ICから車で約5分,"",ヘア,https://beauty.hotpepper.jp/slnH000079410
EARTH coiffure beaute　新潟紫竹山店,025-255-1110 ,新潟,新潟市,中央区紫竹山3-9-7,アウト,架電可,新潟駅から車で３分。　,"",ヘア,https://beauty.hotpepper.jp/slnH000136050
Le Coeur　（ル　クール）　アークガレリア店　,0258-28-5737 ,新潟,長岡市,堺町４５‐１,アウト,架電可,アークガレリア内,"",ヘア,https://beauty.hotpepper.jp/slnH000119294
adorable　女池店　（アドラーブル　メイケテン）,025-290-7822 ,新潟,新潟市,東出来島24-15,アウト,架電可,DeKKY401近く・出来島交差点すぐ 第四銀行の目の前、セブンイレブン隣り,"",ヘア,https://beauty.hotpepper.jp/slnH000193140
Puci・COLAB　（プチコラボ）,0258-33-2701 ,新潟,長岡市,摂田屋５-１４６-６,アウト,架電可,宮内・喜味屋食堂近く、旧長岡自動車学校跡地,"",ヘア,https://beauty.hotpepper.jp/slnH000220134
IN　TOKYO　長岡店　（イントウキョウ　ナガオカテン）,0258-94-5655 ,新潟,長岡市,美沢３丁目470番地,アウト,架電可,長岡駅より徒歩10分　,"",ヘア,https://beauty.hotpepper.jp/slnH000294082
AERBEN HAIR PLAZA　（アーベン　ヘア　プラザ）　新潟店,025-256-8856 ,新潟,新潟市,東区上王瀬町2-54　フレスポ赤道内,アウト,架電可,竹尾インターより車で10分　フレスポ赤道内,"",ヘア,https://beauty.hotpepper.jp/slnH000183210
Rapt.Hair ARMS（ラプトヘア　アームズ）,0258-62-0900 ,新潟,見附市,葛巻１-1677-1,アウト,架電可,見附ショッピングセンターすぐそば　,"",ヘア,https://beauty.hotpepper.jp/slnH000156961
Mammy Co.本店　（マミーコー　ホンテン）,025-372-2660 ,新潟,新潟市,南区白根３０８６,アウト,架電可,南区白根・北越銀行前,"",ヘア,https://beauty.hotpepper.jp/slnH000123336
ＯＲｅ’Ｓ　ＨＡＩＲ　ＢＥ　ＧＬａＤ　はなこ　（オアズヘアビィグラッドハナコ）,025-288-1851 ,新潟,新潟市,中央区万代１‐２‐１４　２Ｆ,アウト,架電可,万代シルバー流通ビル2F(1Fが誠和調剤薬局、4Fが永井皮膚科の入っているビルです),"",ヘア,https://beauty.hotpepper.jp/slnH000114111
HAIR SALON gladd　（ヘアーサロン　グラッド）,025-257-9900 ,新潟,新潟市,東区中木戸50-1,アウト,架電可,旧7号線沿い。中木戸交差点近く。,"",ヘア,https://beauty.hotpepper.jp/slnH000238613
Hang Loose （ハングルース）,0258-86-6601 ,新潟,長岡市,上前島町428-1,アウト,架電可,前川駅前、前川小学校近く、サークルＫ隣,"",ヘア,https://beauty.hotpepper.jp/slnH000142524
Ricci NAGAOKA （リッチ　ナガオカ）,0258-37-2345 ,新潟,長岡市,曲新町５４８‐１,アウト,架電可,宮内駅徒歩5分,"",ヘア,https://beauty.hotpepper.jp/slnH000036823
Le Coeur　（ル　クール ）　川崎店　,0258-31-2270 ,新潟,長岡市,堀金１‐２‐２３,アウト,架電可,川崎のマグドナルド  原信近く,"",ヘア,https://beauty.hotpepper.jp/slnH000036914
Lino hair(リノヘア）,025-369-4417 ,新潟,新潟市,中央区関屋大川前１-9-3,アウト,架電可,ＪＲ関屋駅から徒歩５分　東関屋バス停から徒歩1分,"",ヘア,https://beauty.hotpepper.jp/slnH000342604
CROWN hair lounge　（クラウン ヘア ラウンジ）,0258-94-4555 ,新潟,長岡市,緑町１-38-280,アウト,架電可,川西・大島小近く、緑町交差点前,"",ヘア,https://beauty.hotpepper.jp/slnH000274816
Orange Ailes　（オレンジエール）,025-201-9697 ,新潟,新潟市,西区小新南１丁目２－４５　K'sビル１F,アウト,架電可,小新IC、東京インテリア近く,"",ヘア,https://beauty.hotpepper.jp/slnH000271788
VＩVＩ de CＯCＯ　（ビビデココ）,0258-37-7425 ,新潟,長岡市,本町１-2-1,アウト,架電可,JR長岡駅徒歩12分,"",ヘア,https://beauty.hotpepper.jp/slnH000132160
M・Ｅ・Ｒ　（メール）,025-243-9199 ,新潟,新潟市,中央区弁天１‐４‐２４　大興ビル２Ｆ,アウト,架電可,新潟駅より徒歩3分・東映ホテル前,"",ヘア,https://beauty.hotpepper.jp/slnH000069479
Rapt．HAIR　（ラプトヘア）,0258-28-0222 ,新潟,長岡市,古正寺１‐２８１９,アウト,架電可,イオン長岡店裏,"",ヘア,https://beauty.hotpepper.jp/slnH000036910
カット　イン　シルバー,0120-81-7713 ,新潟,新潟市,中央区万代１‐１‐３２　プリオール万代３Ｆ,アウト,架電可,JR新潟駅徒歩7分、ラブラ万代より徒歩1分　プリオール万代３Ｆ,"",ヘア,https://beauty.hotpepper.jp/slnH000037860
Recasu hair space(リカスヘアースペース),025-378-4076 ,新潟,新潟市,西区山田570-3,アウト,架電可,黒埼インターより車で３分,"",ヘア,https://beauty.hotpepper.jp/slnH000268105
studio EASE　（スタジオ　イーズ）,0120-03-5033 ,新潟,長岡市,台町２－４－５６　Ｅ・PLAZA２F,アウト,架電可,長岡駅東口から徒歩1分　E-PLAZA　2F　無料駐車場有,"",ヘア,https://beauty.hotpepper.jp/slnH000036509
Milk Hair Garden (ミルク　ヘアーガーデン),025-378-3449 ,新潟,新潟市,西区小新４－8－47グランディオス白鳥１F,アウト,架電可,黒埼I.C.降りてすぐ、アピタ新潟西店目の前,"",ヘア,https://beauty.hotpepper.jp/slnH000349275
hair salon Quilt　（キルト）,025-378-0128 ,新潟,新潟市,中央区東堀通五番町４１７-１　トーカンマンション東堀１F,アウト,架電可,古町　東掘通り　人情横丁近く,"",ヘア,https://beauty.hotpepper.jp/slnH000285838
ORe'S HAIR BE GLaD　（オアズ ヘアー ビィ グラッド）,025-244-8651 ,新潟,新潟市,中央区八千代２‐３‐８,アウト,架電可,万代シティ第3駐車場内,"",ヘア,https://beauty.hotpepper.jp/slnH000073568
ＣＯＮＳＣＩＯＵＳ　ＨＡＩＲ　（コンシャスヘアー）,025-276-4772 ,新潟,新潟市,東区石山団地10-5,アウト,架電可,サンクプロム商店街・第四銀行向かい,"",ヘア,https://beauty.hotpepper.jp/slnH000037025
Mammy Co.大野店　（マミーコー　オオノテン）,025-377-6102 ,新潟,新潟市,西区大野町２６６５-3,アウト,架電可,黒埼インターより車で５分、8号線沿い、ローソン様隣り、（バス停大野仲町）,"",ヘア,https://beauty.hotpepper.jp/slnH000052389
C'ECILE HAIR（セシルヘアー）,0120-603-220 ,新潟,長岡市,平島3丁目247,アウト,架電可,クスリのアオキ西宮内店様から前川方面へ約700mで当店です♪,"",ヘア,https://beauty.hotpepper.jp/slnH000349083
hair space Sun-traP　（サントラップ）,0800-800-2131 ,新潟,新潟市,中央区花園１-１-１ 新潟駅南口構内CoCoLo中央１階,アウト,架電可,新潟駅CoCoLo中央内 (１Ｆ）,"",ヘア,https://beauty.hotpepper.jp/slnH000146600
Hair　Make　HOLIC　（ヘアメイク　ホリック）,025-249-3308 ,新潟,新潟市,中央区笹口３‐１６‐３７,アウト,架電可,笹出線沿い・チャンス向かい,"",ヘア,https://beauty.hotpepper.jp/slnH000037088
Le Coeur　（ル　クール）　小千谷店　,0258-94-5150 ,新潟,小千谷市,城内２－６－６,アウト,架電可,JR小千谷駅から車で4分　原信西小千谷店ななめ向い,"",ヘア,https://beauty.hotpepper.jp/slnH000251952
美容室　椿家　(ツバキヤ),025-211-0550 ,新潟,新潟市,西区新通南３－５－２６,アウト,架電可,新通ICより車で5分！店舗前には30台駐車可能なスペースもあります。,"",ヘア,https://beauty.hotpepper.jp/slnH000259547
Hair & relax Plumeria　（プルメリア）,0258-86-8138 ,新潟,長岡市,千秋１-253-6 1F,アウト,架電可,川西・イオン長岡店様向かい,"",ヘア,https://beauty.hotpepper.jp/slnH000247474
@HOME【アットホーム】,025-210-5533 ,新潟,新潟市,西区平島２丁目５－２,アウト,架電可,青山駅徒歩10分,"",ヘア,https://beauty.hotpepper.jp/slnH000364522
Sheta　(シータ),0258-86-8115 ,新潟,長岡市,喜多町940,アウト,架電可,喜多町良食生活館様近く,"",ヘア,https://beauty.hotpepper.jp/slnH000344907
美容室 Accueillir　grace　（アクイール　グラッセ）,0258-94-4533 ,新潟,長岡市,古正寺３－３３,アウト,架電可,長岡駅から車で15分。イオン長岡店近く。ブルックリン様並び。 ,"",ヘア,https://beauty.hotpepper.jp/slnH000235247
AUBE　（オーブ）　hair&make,0258-94-4568 ,新潟,長岡市,千歳２－９－１,アウト,架電可,ＪＲ長岡駅大手口から宮内方面へ車で３分。長岡市消防局向い,"",ヘア,https://beauty.hotpepper.jp/slnH000231755
Voice　（ヴォイス）,025-244-3980 ,新潟,新潟市,中央区米山７‐５,アウト,架電可,米山（笹出線沿い）,"",ヘア,https://beauty.hotpepper.jp/slnH000036969
SUITE 108　（スウィート　イチマルハチ）,025-371-1133 ,新潟,新潟市,南区上下諏訪木８９５‐１,アウト,架電可,しろねカイトタウン・ひらせい近く,"",ヘア,https://beauty.hotpepper.jp/slnH000065444
MONDO　（モンド）,0258-29-3333 ,新潟,長岡市,喜多町1012-1,アウト,架電可,喜多町　コメリ前,"",ヘア,https://beauty.hotpepper.jp/slnH000229246
GLAM　HAIR　（グラムヘア）,0258-86-7478 ,新潟,長岡市,美沢３-５８７,アウト,架電可,アクロスプラザ近く,"",ヘア,https://beauty.hotpepper.jp/slnH000145821
Hair Make Splash　（ヘアメイク　スプラッシュ）,025-257-9909 ,新潟,新潟市,東区はなみずき１‐１５‐３６,アウト,架電可,竹尾インター下りてすぐ・木戸病院すぎて直進。ブラウンのフェンスが目印！,"",ヘア,https://beauty.hotpepper.jp/slnH000037054
A・do hair　(ア・ドゥ　ヘアー),025-232-3114 ,新潟,新潟市,西区小新４－９－２７,アウト,架電可,黒埼インターより車で5分。アピタ新潟西店すぐそば！,"",ヘア,https://beauty.hotpepper.jp/slnH000244313
BLUE Lagoon（ブルーラグーン）,025-211-8934 ,新潟,新潟市,西区小新南１－１－３,アウト,架電可,小新インターから車で2分,"",ヘア,https://beauty.hotpepper.jp/slnH000359866
EARTH　coiffure beaute　新潟青山店,025-234-5077 ,新潟,新潟市,西区青山１-1-10,アウト,架電可,イオン新潟青山店から車で１分。,"",ヘア,https://beauty.hotpepper.jp/slnH000111492
ZIGZAG hair studio　（ジグザグ）,025-261-4961 ,新潟,新潟市,西区五十嵐中島５‐１８‐５８　原信内野店敷地内,アウト,架電可,旧116号線入る　原信駐車場敷地内,"",ヘア,https://beauty.hotpepper.jp/slnH000036945
mars　（マース）,025-284-9017 ,新潟,新潟市,中央区上近江１‐５‐２７,アウト,架電可,ビデオ1近江店向かい,"",ヘア,https://beauty.hotpepper.jp/slnH000112480
arlish　make　a　story　north　（アーリッシュ　メイク　ア　ストーリー　ノース）,025-370-1070 ,新潟,新潟市,西区山田４０５‐１,アウト,架電可,黒埼インター・サントノーレ近く・旧パワーズフジミの敷地内,"",ヘア,https://beauty.hotpepper.jp/slnH000037211
IN　TOKYO　新潟店　（イントウキョウ　ニイガタテン）,025-287-5655 ,新潟,新潟市,中央区姥ケ山大日田５９‐１,アウト,架電可,姥が山インター近く,"",ヘア,https://beauty.hotpepper.jp/slnH000057304
Emi　（エミ）,025-241-5541 ,新潟,新潟市,中央区弁天２‐１‐１　弁天ビル２Ｆ,アウト,架電可,新潟駅から徒歩3分,"",ヘア,https://beauty.hotpepper.jp/slnH000038138
Mammy Co.イオン店　（マミーコー　イオンテン）,025-372-5551 ,新潟,新潟市,南区能登409-2,アウト,架電可,南区白根イオン店併設・新潟南警察署すぐ,"",ヘア,https://beauty.hotpepper.jp/slnH000166933
Hatimitu by hair garden Milk tea　（ハチミツ）,025-263-1633 ,新潟,新潟市,西区大学南２丁目2番7号　２F,アウト,架電可,新潟大学前駅より徒歩5分／新潟大学中門近く,"",ヘア,https://beauty.hotpepper.jp/slnH000348459
Max Hearty　（マックス　ハーティ）,025-282-1323 ,新潟,新潟市,中央区女池西２‐３‐１３,アウト,架電可,女池・紫鳥線沿い、南病院前,"",ヘア,https://beauty.hotpepper.jp/slnH000037601
Ricci　KOBARI　（リッチ　コバリ）,025-234-7722 ,新潟,新潟市,西区小針４－２５－１９,アウト,架電可,大堀幹線沿い、なんじゃ村様となり,"",ヘア,https://beauty.hotpepper.jp/slnH000217288
ｍａｋａｍａｋａ　（マカマカ）,025-211-2540 ,新潟,新潟市,西区寺尾前通１‐５‐８,アウト,架電可,大堀幹線沿い　ハードオフ・ブックオフ隣,"",ヘア,https://beauty.hotpepper.jp/slnH000081913
amplifier　（アンプリフィア）,025-311-0734 ,新潟,新潟市,西区寺尾東２-14-6,アウト,架電可,大堀幹線沿い,"",ヘア,https://beauty.hotpepper.jp/slnH000178913
HAIR-MAKE　Clipper 　（ヘアメイク　クリッパー）,025-248-3441 ,新潟,新潟市,中央区天神尾１‐９‐７,アウト,架電可,新潟駅徒歩10分,"",ヘア,https://beauty.hotpepper.jp/slnH000038200
Vanbina Vanbino　（ヴァンビーナ　ヴァンビーノ）,025-260-4007 ,新潟,新潟市,西区坂井砂山３‐11‐18,アウト,架電可,JR新潟大学前駅・徒歩３分,"",ヘア,https://beauty.hotpepper.jp/slnH000038607
Ricci　NIIGATA　（リッチ　ニイガタ）,025-275-5557 ,新潟,新潟市,東区豊１－１－１８,アウト,架電可,赤道十字路から車で５分、カメラのキタムラ上木戸店様前,"",ヘア,https://beauty.hotpepper.jp/slnH000092848
hair make B-Aube　（ビーオーブ）,0120-78-7122 ,新潟,新潟市,西区青山１-2-5,アウト,架電可,サフラン青山店横,"",ヘア,https://beauty.hotpepper.jp/slnH000053876
ERDE　（エルデ）,025-285-2323 ,新潟,新潟市,中央区女池神明２－9－1,アウト,架電可,女池インター降りてすぐ！マクドナルド女池店の目の前！,"",ヘア,https://beauty.hotpepper.jp/slnH000221822
Archiar　（アルチア）,025-282-7700 ,新潟,新潟市,東区中山６－１９－５　ドラッグセイムス２F,アウト,架電可,笹出線を東方面へ。本馬越中山跨線橋を超え200m先左手。ドラッグストア様の2階です,"",ヘア,https://beauty.hotpepper.jp/slnH000251846
CHUZAN（チューザン）,025-386-2437 ,新潟,新潟市,北区葛塚３２４７,アウト,架電可,豊栄駅南口から徒歩10分,"",ヘア,https://beauty.hotpepper.jp/slnH000209929
La　isla　Bonita　（ラ　イスラ　ボニータ）,025-374-6776 ,新潟,新潟市,中央区東中通一番町１８８－３ＳｔａｇｅＲ東中通１Ｆ,アウト,架電可,古町　東中通,"",ヘア,https://beauty.hotpepper.jp/slnH000078713
Lamp -Hair Room-　（ランプ　ヘアルーム）,025-278-7704 ,新潟,新潟市,中央区上所上３-1-29,アウト,架電可,県庁前ロイヤルホスト徒歩3分,"",ヘア,https://beauty.hotpepper.jp/slnH000137147
COCO.R　（ココアール）けやき通り,025-248-6866 ,新潟,新潟市,中央区米山１‐９‐１０,アウト,架電可,JR新潟駅南口徒歩３分・新幹線下車は西口改札へ、けやき通りセブンイレブン斜め向い,"",ヘア,https://beauty.hotpepper.jp/slnH000060231
COIFFURE fils　（コア・フィール　フィス）,0258-63-5759 ,新潟,見附市,新町２－１－６,アウト,架電可,ＪＲ見附駅から車で５分/新町バス停より徒歩1分,"",ヘア,https://beauty.hotpepper.jp/slnH000286120
Halo hair design（ハロ　ヘアー　デザイン）,025-282-7803 ,新潟,新潟市,中央区弁天橋通１-35-11,アウト,架電可,弁天IC降りて車で5分,"",ヘア,https://beauty.hotpepper.jp/slnH000325864
arlish　make　a　story　south（アーリッシュ　メイク　ア　ストーリー　サウス）,025-371-1771 ,新潟,新潟市,南区戸頭１３１６‐１,アウト,架電可,白根郵便局近く,"",ヘア,https://beauty.hotpepper.jp/slnH000094314
EARTH　coiffure beaute　長岡店,0258-22-5577 ,新潟,長岡市,緑町１-２１６-１,アウト,架電可,長岡駅から車で３分。イオン長岡店から車で１分。,"",ヘア,https://beauty.hotpepper.jp/slnH000146719
HAIR MAKE noel (ノエル),0258-24-8611 ,新潟,長岡市,小曽根町529-5,アウト,架電可,小曽根ICから車で1分,"",ヘア,https://beauty.hotpepper.jp/slnH000137751
Be☆Born　（ビーボーン）,0258-89-6037 ,新潟,長岡市,喜多町３１９‐１,アウト,架電可,喜多町バス停から徒歩3分,"",ヘア,https://beauty.hotpepper.jp/slnH000036542
ヘアークリップ　バース,025-243-9628 ,新潟,新潟市,中央区米山４‐２１‐１０,アウト,架電可,新潟駅南口から徒歩10分,"",ヘア,https://beauty.hotpepper.jp/slnH000037177
Boutique　（ブティック）,025-367-3537 ,新潟,新潟市,西区平島３-1-12丸三ビジネスビル1号室,アウト,架電可,黒崎ICより車で5分,"",ヘア,https://beauty.hotpepper.jp/slnH000349434
Petit Pena （プティ　ペーナ）,0258-77-0712 ,新潟,長岡市,川崎町864-2,アウト,架電可,川崎インターから車で1分,"",ヘア,https://beauty.hotpepper.jp/slnH000326813
Azur（アジュール）,025-272-0679 ,新潟,新潟市,東区太平３－７－３,アウト,架電可,　新潟空港近く,"",ヘア,https://beauty.hotpepper.jp/slnH000117399
総合美容室　ＹＯＲＩＩ　（ヨリイ）,0120-86-9436 ,新潟,新潟市,中央区寄居町６９７‐１　北陸マンション１Ｆ,アウト,架電可,JR新潟駅からバス10分、古町・中央警察署向かい,"",ヘア,https://beauty.hotpepper.jp/slnH000037885
Jelemy(ジェレミー),025-248-1023 ,新潟,新潟市,中央区笹口２－７－２３はたのビル１F,アウト,架電可,笹出線沿い。マクドナルドの隣り,"",ヘア,https://beauty.hotpepper.jp/slnH000200418
salon de K　(サロンドケイ),0250-24-7505 ,新潟,新潟市,秋葉区新津本町２‐３‐４,アウト,架電可,新津駅東口から徒歩3分,"",ヘア,https://beauty.hotpepper.jp/slnH000201029
Unique Piece （ユニークピース）,025-255-1616 ,新潟,新潟市,中央区沼垂東２-2-18,アウト,架電可,「栗の木橋」交差点すぐ,"",ヘア,https://beauty.hotpepper.jp/slnH000284898
美容室　KEN　（ビヨウシツ　ケン）,025-280-3455 ,新潟,新潟市,江南区天野３-33-32,アウト,架電可,国道8号線より信濃川大橋渡ってすぐ、曽野木中学校近く。,"",ヘア,https://beauty.hotpepper.jp/slnH000370945
bhoozwoo shift　（ブーズー　シフト）,0258-28-5725 ,新潟,長岡市,古正寺町1‐２９５９番地,アウト,架電可,長岡市古正寺　伊勢丹隣,"",ヘア,https://beauty.hotpepper.jp/slnH000088318
HEROINE2（ヒロインツー）,025-290-7762 ,新潟,新潟市,東区東中島２-7-3,アウト,架電可,東新潟駅から徒歩１分,"",ヘア,https://beauty.hotpepper.jp/slnH000352948
FアンドS美容室　（エフ　アンド　エス）,0258-35-1023 ,新潟,長岡市,学校町１‐１１‐１６,アウト,架電可,長岡駅東口より徒歩15分,"",ヘア,https://beauty.hotpepper.jp/slnH000036560
Hallow hair room　(ハーロウヘアールーム),025-384-3500 ,新潟,新潟市,北区太田字甲5908-1,アウト,架電可,豊栄駅南口より徒歩10分。ウオロク葛塚店すぐ。,"",ヘア,https://beauty.hotpepper.jp/slnH000301860
SANCTUARY（サンクチュアリ）,025-385-6993 ,新潟,新潟市,中央区米山４-１-１伏見ビル１F,アウト,架電可,新潟駅徒歩7分　駐車場お店の前に6台完備,"",ヘア,https://beauty.hotpepper.jp/slnH000279323
Kami club　（カミクラブ）,025-286-3672 ,新潟,新潟市,中央区長潟18,アウト,架電可,弁天線沿い・キューピット長潟店そば,"",ヘア,https://beauty.hotpepper.jp/slnH000061196
Treat （トリート）,0258-46-1017 ,新潟,長岡市,長峰町60-66,アウト,架電可,長岡インターから車で５分（厳密にはかかりません）,"",ヘア,https://beauty.hotpepper.jp/slnH000282909
ACCUEILLIR  （アクイール）,0258-66-1345 ,新潟,見附市,上新田町４３９‐１３,アウト,架電可,北越銀行 今町店様 前,"",ヘア,https://beauty.hotpepper.jp/slnH000118836
El che （エルチェ）,025-245-5225 ,新潟,新潟市,中央区神道寺３-10-9,アウト,架電可,桜木ICより車で3分。ステーキさるーん様むかえ。,"",ヘア,https://beauty.hotpepper.jp/slnH000232309
kamizaiku　万里　BANRI　（カミザイク　バンリ）,0120-46-7235 ,新潟,新潟市,中央区東大通２‐９‐５,アウト,架電可,新潟駅から徒歩5分,"",ヘア,https://beauty.hotpepper.jp/slnH000037174
roove(ルーブ),025-241-0624 ,新潟,新潟市,中央区米山５-7-7,アウト,架電可,【米山】けやき通り突きあたり左折。ムラサキ通り沿い,"",ヘア,https://beauty.hotpepper.jp/slnH000169804
Warmth（ウォームス）,025-381-8870 ,新潟,新潟市,江南区亀田向陽１-7-4,アウト,架電可,亀田駅「東口」徒歩1分,"",ヘア,https://beauty.hotpepper.jp/slnH000274375
GLEAMS　(グリームス),025-282-7239 ,新潟,新潟市,東区竹尾１-9-37,アウト,架電可,竹尾ICより車で3分/竹尾小学校より徒歩1分,"",ヘア,https://beauty.hotpepper.jp/slnH000308323
glint　（グリント）,025-383-8300 ,新潟,新潟市,中央区鐙３－５－１,アウト,架電可,紫竹山ICから車で5分、新潟駅から徒歩15分,"",ヘア,https://beauty.hotpepper.jp/slnH000286241
CLOE by LUVISM（クロエ バイ ラヴィズム）新発田店 ,0254-20-7388 ,新潟,新発田市,舟入町２丁目4-26,アウト,架電可,西新発田駅車6分/徒歩25分（西松屋新発田店近く）,"",ヘア,https://beauty.hotpepper.jp/slnH000368690
ＨＥＡＲＴＩＬＹ　（ハーティリー）,025-269-1133 ,新潟,新潟市,西区寺尾東２‐１‐１７,アウト,架電可,大堀幹線沿い,"",ヘア,https://beauty.hotpepper.jp/slnH000038273
IN　TOKYO　新津店　（イントウキョウ　ニイツテン）,0250-25-1010 ,新潟,新潟市,秋葉区新津5163-2,アウト,架電可,新津ウオロク向かい,"",ヘア,https://beauty.hotpepper.jp/slnH000114142
hair design  ROUTE71　（ルートナナイチ）,0258-86-6635 ,新潟,長岡市,城内町３-8-10　1F,アウト,架電可,長岡駅前大手口徒歩５分,"",ヘア,https://beauty.hotpepper.jp/slnH000140185
FRENCH BULLDOG　（フレンチブルドッグ）,0258-37-3766 ,新潟,長岡市,宮内町3404,アウト,架電可,宮内,"",ヘア,https://beauty.hotpepper.jp/slnH000036549
hair salon Heal Green(ヒールグリーン）,025-211-4112 ,新潟,新潟市,西区中権寺2957,アウト,架電可,県道2号線沿い　新中浜一の信号近く,"",ヘア,https://beauty.hotpepper.jp/slnH000350187
DECENTAGE hair make　（ディセンタージュ）,025-201-7385 ,新潟,新潟市,中央区古町通七番町1001-1,アウト,架電可,古町7番町（アーケード内）,"",ヘア,https://beauty.hotpepper.jp/slnH000148986
美容室 赤いりぼん 長岡店,0258-36-3608 ,新潟,長岡市,城内町２-甲749-10 城内町水瀬ビル３Ｆ,アウト,架電可,上越線長岡駅　　徒歩1分,"",ヘア,https://beauty.hotpepper.jp/slnH000232895
Hair Frolic　（ヘア　フロリク）,025-378-4105 ,新潟,新潟市,西区五十嵐中島４-22-51ジュネス6-1F-C,アウト,架電可,内野西が丘駅徒歩7分,"",ヘア,https://beauty.hotpepper.jp/slnH000352878
ひさご美容室　喜多町店,0120-04-0135 ,新潟,長岡市,喜多町1084-4,アウト,架電可,長生橋通り沿い　喜多町　良食生活館向かい側,"",ヘア,https://beauty.hotpepper.jp/slnH000126719
Hair shop COU COU！　（クークー）,025-245-0607 ,新潟,新潟市,中央区万代３－４－２２,アウト,架電可,万代3丁目,"",ヘア,https://beauty.hotpepper.jp/slnH000251312
バーバー波打ちぎわ(バーバー　ナミウチギワ),0120-59-1185 ,新潟,新潟市,西区松海が丘４-5-7,アウト,架電可,小針浜海水浴場より車で1分。小針駅より車で10分。,"",ヘア,https://beauty.hotpepper.jp/slnH000328201
ＬＩＮＫＳ　Hａｉｒ（リンクスヘア）,025-377-6668 ,新潟,新潟市,西区山田５１１,アウト,架電可,黒埼・薬のコダマ裏の通り沿い,"",ヘア,https://beauty.hotpepper.jp/slnH000057313
ル　クール　ヘア＆ビューティー　燕三条店,0256-47-0323 ,新潟,燕市,井土巻２－２２８,アウト,架電可,燕三条駅から徒歩8分,"",ヘア,https://beauty.hotpepper.jp/slnH000321768
mooi（モーイ）,0258-89-7722 ,新潟,長岡市,古正寺２-266　101,アウト,架電可,古正寺中央バス停から西に徒歩1分,"",ヘア,https://beauty.hotpepper.jp/slnH000360453
Cicica(シシカ),025-282-5093 ,新潟,新潟市,中央区米山２－６－１２,アウト,架電可,新潟駅南口より徒歩10分。笹出線沿い、日本海不動産様、道挟んで隣にございます。,"",ヘア,https://beauty.hotpepper.jp/slnH000317883
PRECIOUS HAIR STUDIO（プレシャスヘアスタジオ）,025-201-8605 ,新潟,新潟市,中央区西堀通三番町７９０番地,アウト,架電可,古町清水フード近く,"",ヘア,https://beauty.hotpepper.jp/slnH000119002
IRO+美容室【イロ　美容室】,0258-86-7773 ,新潟,長岡市,今朝白３－６－２３原ビル１F,アウト,架電可,長岡駅から車で3分,"",ヘア,https://beauty.hotpepper.jp/slnH000374956
rouge a levres　（ルージアレーヴル）,025-285-2089 ,新潟,新潟市,中央区上近江３‐１４‐１８,アウト,架電可,女池線、出来島デッキィ401近く,"",ヘア,https://beauty.hotpepper.jp/slnH000037865
美容室　Ｆｅｅｌ　（ビヨウシツ　フィール）,0250-24-7581 ,新潟,新潟市,秋葉区程島1876-16,アウト,架電可,JR新津駅から車で10分,"",ヘア,https://beauty.hotpepper.jp/slnH000217277
hair ark　（アーク）,025-378-2600 ,新潟,新潟市,西区小新南１－９－１０,アウト,架電可,小新IC降りて東京インテリア近く,"",ヘア,https://beauty.hotpepper.jp/slnH000221409
髪結いReve (カミユイレーヴ),0250-47-4147 ,新潟,新潟市,秋葉区北上新田８３０‐３,アウト,架電可,さつきの駅から徒歩5分,"",ヘア,https://beauty.hotpepper.jp/slnH000214050
NICO HAIRMAKE　（ニコ）,0258-89-7089 ,新潟,長岡市,南町１-9-12 グランドハイツ101号,アウト,架電可,長岡駅徒歩８分・パチンコN-1柏町店近く,"",ヘア,https://beauty.hotpepper.jp/slnH000229610
HURRAH AND THINGS　（フラー アンド シングス）,025-224-1534 ,新潟,新潟市,中央区西堀通五番町‐８３３‐８　２F,アウト,架電可,西堀通５・三吉屋隣り２Ｆ,"",ヘア,https://beauty.hotpepper.jp/slnH000102153
Lashic 【ラシク】,0258-86-6820 ,新潟,長岡市,下山６-152-10,アウト,架電可,国道351号線デイリーヤマザキ長岡下山店、長峰幼稚園近く,"",ヘア,https://beauty.hotpepper.jp/slnH000371839
美容室CoCo　（ココ）,0258-37-8280 ,新潟,長岡市,住吉２－６－２,アウト,架電可,長岡信用金庫・土合支店となり,"",ヘア,https://beauty.hotpepper.jp/slnH000036571
mistHAIR (ミストヘア),0800-100-3310 ,新潟,新潟市,秋葉区みそら野１－４－１９,アウト,架電可,JR信越本線 荻川駅より徒歩10分,"",ヘア,https://beauty.hotpepper.jp/slnH000313447
美容室 non style (ノンスタイル),025-250-7209 ,新潟,新潟市,中央区紫竹山１－１－６８,アウト,架電可,新潟駅車で5分、徒歩15分,"",ヘア,https://beauty.hotpepper.jp/slnH000309344
Le plaisir　（ル ・ プレジィール）,0258-35-1977 ,新潟,長岡市,曙３‐４‐２３,アウト,架電可,帝京長岡高校・ラーメンいち井様近く。江口だんご曙店様隣。,"",ヘア,https://beauty.hotpepper.jp/slnH000046486
サロンドゥ・ディノ,0258-28-4523 ,新潟,長岡市,大島本町２-６-７,アウト,架電可,大島保育園近く,"",ヘア,https://beauty.hotpepper.jp/slnH000036511
HANDs （ハンズ）,025-278-3986 ,新潟,新潟市,中央区鐙２-10-3　サウスサイド,アウト,架電可,ウオロク鐙店様近く,"",ヘア,https://beauty.hotpepper.jp/slnH000348259
Sun Sun Sun　（サン サン サン）,025-222-1013 ,新潟,新潟市,中央区西堀通六番町884番地　第一カトウビル2F-A,アウト,架電可,NEXT21から徒歩3分　南浜通り,"",ヘア,https://beauty.hotpepper.jp/slnH000282829
美容室　リトリート,0120-971-888 ,新潟,長岡市,古正寺２－２８９,アウト,架電可,古正寺2丁目,"",ヘア,https://beauty.hotpepper.jp/slnH000163796
ｔｏｉ　ｔｏｉ　ｔｏｉ　（トイトイトイ）,025-243-3139 ,新潟,新潟市,中央区笹口２‐９‐８,アウト,架電可,けやき通り／新潟駅徒歩3分,"",ヘア,https://beauty.hotpepper.jp/slnH000037096
美容室サクライ,0250-24-9166 ,新潟,新潟市,秋葉区新津本町２‐８‐１１,アウト,架電可,JR新津駅東口から徒歩5分,"",ヘア,https://beauty.hotpepper.jp/slnH000205380
artesano for BARBER’s(アルテサーノ　フォー　バーバーズ),025-278-7126 ,新潟,新潟市,中央区笹口２－9－16　神田ビル1F,アウト,架電可,【新潟駅南口】けやき通りにあるローソンとなりにございます。,"",ヘア,https://beauty.hotpepper.jp/slnH000300892
アトリエプレール（Plaire）,0258-46-8520 ,新潟,長岡市,関原南１-4330,アウト,架電可,上除・長岡西郵便局向かい,"",ヘア,https://beauty.hotpepper.jp/slnH000293070
emelie （エメリ）,025-278-8524 ,新潟,新潟市,中央区出来島２-4-5,アウト,架電可,笹出線・DeKKY401近く,"",ヘア,https://beauty.hotpepper.jp/slnH000317764
KADERY (カデリー),025-383-6987 ,新潟,新潟市,江南区曙町２-4-22,アウト,架電可,JR亀田駅車で10分、菓子工房カシュカシュ近く,"",ヘア,https://beauty.hotpepper.jp/slnH000360022
Epic in the Life（エピックインザライフ）,0258-86-0232 ,新潟,長岡市,喜多町土地区画整理事業地内10-1,アウト,架電可,リナシエ喜多町近く　　長岡駅より車で10分,"",ヘア,https://beauty.hotpepper.jp/slnH000368966
CoCoRo　（ココロ）,0258-62-3120 ,新潟,見附市,学校町２-3-18,アウト,架電可,見附駅から徒歩10分,"",ヘア,https://beauty.hotpepper.jp/slnH000286359
閃　（セン）,0120-1555-19 ,新潟,新潟市,東区粟山１‐２１‐２８,アウト,架電可,粟山キューピット向かい,"",ヘア,https://beauty.hotpepper.jp/slnH000091438
INLIFE HAIR SALON【インライフヘアサロン】,0120-888-585 ,新潟,新潟市,西区小針７-17-36,アウト,架電可,小新インターから車で4分,"",ヘア,https://beauty.hotpepper.jp/slnH000378020
美容室　BAMBOO 　（バンブー）,0120-97-2450 ,新潟,新潟市,中央区関新１‐４‐２０,アウト,架電可,関屋駅から徒歩10分,"",ヘア,https://beauty.hotpepper.jp/slnH000174839
ａｎｇeｌｉＱｕｅ　（アンジェリック）,0258-31-2133 ,新潟,長岡市,城内町３‐４‐４,アウト,架電可,ＪＲ長岡駅３分,"",ヘア,https://beauty.hotpepper.jp/slnH000061012
sakura hair design （サクラ ヘア デザイン）,025-284-2010 ,新潟,新潟市,中央区女池西２-２－１８,アウト,架電可,女池ICより車で約3分、100円ショップセリア様と同敷地内,"",ヘア,https://beauty.hotpepper.jp/slnH000318372
Amazing HAIR　（アメイジング　ヘアー）,0258-36-1080 ,新潟,長岡市,中沢３‐３５５‐６,アウト,架電可,長岡駅から車で10分,"",ヘア,https://beauty.hotpepper.jp/slnH000088254
Fondeko　（フォンデコ）,025-243-6565 ,新潟,新潟市,中央区竜が島１‐５‐２,アウト,架電可,R113東港線沿い,"",ヘア,https://beauty.hotpepper.jp/slnH000054165
ENISHI (エニシ),025-378-3286 ,新潟,新潟市,中央区関新１-6-12,アウト,架電可,JR関屋駅から徒歩10分　新潟交通「昭和町」バス停下車、徒歩1分,"",ヘア,https://beauty.hotpepper.jp/slnH000359028
hair make valentine（バレンタイン）,025-278-8285 ,新潟,新潟市,中央区姥ケ山２－２７－１７－１,アウト,架電可,スーパーセンタームサシ近く,"",ヘア,https://beauty.hotpepper.jp/slnH000254249
パリスラヴィサント,0256-93-3032 ,新潟,燕市,吉田２７６０-１,アウト,架電可,JR吉田駅から徒歩10分／JR北吉田駅から徒歩15分,"",ヘア,https://beauty.hotpepper.jp/slnH000215591
Hair Forme OluOlu（ヘアー フォルム オルオル）,025-278-3636 ,新潟,新潟市,中央区美咲町１-8-15-103,アウト,架電可,ROUND1近く　網川原バス停より徒歩３分,"",ヘア,https://beauty.hotpepper.jp/slnH000196026
untime（アンティム）,025-278-7652 ,新潟,新潟市,東区牡丹山５－１２－３,アウト,架電可,赤道ビデオワン近くのローソン斜め向かい,"",ヘア,https://beauty.hotpepper.jp/slnH000263980
chain crew's hair　(チェーンクルーズヘアー),025-265-1557 ,新潟,新潟市,西区松海が丘４－5－3,アウト,架電可,小針浜海水浴場より車で３分,"",ヘア,https://beauty.hotpepper.jp/slnH000251283
オールビューティーKAYO　あたご店　（オールビューティーカヨ　アタゴテン）,0120-78-4688 ,新潟,新潟市,中央区愛宕１－１－２,アウト,架電可,女池IC近く,"",ヘア,https://beauty.hotpepper.jp/slnH000118624
美容室JAM　（ジャム）,0120-970-072 ,新潟,新潟市,中央区和合町１-１０-３２　スイートメント和合町１０６,アウト,架電可,和合線沿い　サークルK　そば,"",ヘア,https://beauty.hotpepper.jp/slnH000042650
cocoe Hair&Relax (ココエ),025-287-3967 ,新潟,新潟市,中央区姥ケ山４－４－３０,アウト,架電可,姥ケ山インター近く,"",ヘア,https://beauty.hotpepper.jp/slnH000297854
karte  (カルテ),0258-94-5584 ,新潟,長岡市,干場２-3-1,アウト,架電可,長岡駅東口徒歩約7分。サーパスシティ今朝白向かい,"",ヘア,https://beauty.hotpepper.jp/slnH000329376
Hair salon ISOBE　（イソベ）,0258-27-8707 ,新潟,長岡市,希望が丘４-3-7,アウト,架電可,大島通り・焼肉ロッヂ様、カメラのキタムラ様近く,"",ヘア,https://beauty.hotpepper.jp/slnH000222772
I'll HAIR　（アイルヘアー）,0258-28-9303 ,新潟,長岡市,宮関１‐３‐６８,アウト,架電可,造形大学近く,"",ヘア,https://beauty.hotpepper.jp/slnH000036574
ｂｅｌｌｅｓ　ｃｈｅｖｅｕｘ　ｄｅｕｘ,0254-21-2133 ,新潟,新発田市,舟入町１‐１６‐１３,アウト,架電可,西新発田駅から徒歩15分　新発田インターから5分 ,"",ヘア,https://beauty.hotpepper.jp/slnH000209294
Ｆｅｅｌ shine ＆ beauty salon Feel Lis （フィールシャイン アンド フィールリズ）,025-279-0868 ,新潟,新潟市,東区新松崎２‐１‐２,アウト,架電可,ジャスコ東新潟店近く,"",ヘア,https://beauty.hotpepper.jp/slnH000037077
サロンド・ポニー,025-284-0580 ,新潟,新潟市,中央区東出来島１５‐１１,アウト,架電可,DeKKY401近く,"",ヘア,https://beauty.hotpepper.jp/slnH000037881
美容室 Hermitage Ciel【エルミタージュシエル】,025-311-0799 ,新潟,新潟市,中央区鐙３丁目７－１４,アウト,架電可,新潟駅南口広場先,"",ヘア,https://beauty.hotpepper.jp/slnH000358901
Lelouch（ルルーシュ）,025-231-0851 ,新潟,新潟市,西区小針５-8-17,アウト,架電可,小針駅10分　ドラッグトップス小針店様向かい,"",ヘア,https://beauty.hotpepper.jp/slnH000322606
Hair　space　FLOW　（ヘアスペース　フロー）,0258-28-1883 ,新潟,長岡市,古正寺３‐１３２,アウト,架電可,古正寺町・牛角近く,"",ヘア,https://beauty.hotpepper.jp/slnH000036933
NINE NO NINE　（ナイン　ノー　ナイン）,025-249-9009 ,新潟,新潟市,中央区東大通２丁目４－３３　パークソレイユ３番館１－A,アウト,架電可,新潟市中央区東大通２丁目４－３３パークソレイユ３番館１-Ａ,"",ヘア,https://beauty.hotpepper.jp/slnH000067527
HAIR WAY　（ヘアウェイ）,0258-33-7303 ,新潟,長岡市,城内町２‐３‐５,アウト,架電可,イトーヨーカドー裏,"",ヘア,https://beauty.hotpepper.jp/slnH000036851
hair&eyelash blanche,0254-53-5788 ,新潟,村上市,緑町１-3-43,アウト,架電可,村上駅から徒歩3分,"",ヘア,https://beauty.hotpepper.jp/slnH000367994
braccio 　（ブラッチオ）,025-211-6455 ,新潟,新潟市,西区小針５‐７‐７,アウト,架電可,小針・大堀幹線沿い、第四銀行近く,"",ヘア,https://beauty.hotpepper.jp/slnH000114172
glitter hair lovers（グリッター）,025-273-5088 ,新潟,新潟市,東区中山７-２０-７,アウト,架電可,新潟駅南口から木戸病院行き→中山5丁目降車徒歩3分,"",ヘア,https://beauty.hotpepper.jp/slnH000057503
EARTH　coiffure beaute　上越店,025-546-5033 ,新潟,上越市,下門前土地区画整理事業49街区11,アウト,架電可,北陸自動車道上越ICより車で約5分／イオン上越店から車で３分【上越 美容室】,"",ヘア,https://beauty.hotpepper.jp/slnH000244240
relax&beauty Black Hair　（ブラックヘアー）,0258-84-7555 ,新潟,長岡市,瓜生252-1,アウト,架電可,JR長岡駅から10.2km、車で22分,"",ヘア,https://beauty.hotpepper.jp/slnH000283122
schon （シェーン）,025-269-4588 ,新潟,新潟市,西区寺尾西３-3-2,アウト,架電可,寺尾・西大通（旧116号線）沿い,"",ヘア,https://beauty.hotpepper.jp/slnH000168343
mitsudori　（ミツドリ）,025-248-6618 ,新潟,新潟市,中央区米山３－５－８　越村ビル１Ｆ,アウト,架電可,新潟駅南口より徒歩5分,"",ヘア,https://beauty.hotpepper.jp/slnH000190253
La Victoire（ラ　ヴィクトアール）,025-383-8133 ,新潟,新潟市,中央区鐙西２-18-18ハイツコタカ１階,アウト,架電可,新潟駅南口徒歩18分／テクノスクール近く(北越高校側)／水色の外観,"",ヘア,https://beauty.hotpepper.jp/slnH000329187
gentleman Barber(ジェントルマンバーバー),025-249-0077 ,新潟,新潟市,中央区東万代町1-22風間ビル１F,アウト,架電可,新潟駅から徒歩10分,"",ヘア,https://beauty.hotpepper.jp/slnH000351691
Aura　（オーラ）,025-283-7664 ,新潟,新潟市,中央区女池西１‐１‐５５女池フジビル２Ｆ,アウト,架電可,女池・ホビーロード様　向かい　2F,"",ヘア,https://beauty.hotpepper.jp/slnH000063935
La　Plus　Hair Design(ラ プリュス ヘア デザイン),0258-89-8962 ,新潟,長岡市,新保４-7-12A,アウト,架電可,ＪＲ信越本線の長岡駅から車で約１５分,"",ヘア,https://beauty.hotpepper.jp/slnH000355374
ヘアーファッション　ビバン本店,025-275-6414 ,新潟,新潟市,東区中木戸３１５‐３,アウト,架電可,サークルK新潟中木戸店様となり,"",ヘア,https://beauty.hotpepper.jp/slnH000180421
The Hair Resort Lagoon （ザ　ヘア　リゾート　ラグーン）,025-225-1026 ,新潟,新潟市,中央区下大川前通二ノ町２２３０‐３３,アウト,架電可,萬代橋たもと。ホテルオークラ真向かい。,"",ヘア,https://beauty.hotpepper.jp/slnH000056720
Grasse　～cuti～（グラースチュティ）,025-278-3322 ,新潟,新潟市,東区藤見町２丁目５－３０,アウト,架電可,河渡マーケットシティ近く,"",ヘア,https://beauty.hotpepper.jp/slnH000275244
Izumrud　（イズムルード）,025-311-1978 ,新潟,新潟市,西区小針２-1-9,アウト,架電可,青山水道公園近く,"",ヘア,https://beauty.hotpepper.jp/slnH000172487
grand jete Hair Design（グランジュテ）,0258-39-6178 ,新潟,長岡市,城内町３－３－２,アウト,架電可,長岡駅前、楽器店あぽろん様近く、旧ガトウ専科,"",ヘア,https://beauty.hotpepper.jp/slnH000278038
PARME HOUSE TOP　（トップ）,0258-36-8240 ,新潟,長岡市,城内町３‐８９３‐３６‐２F,アウト,架電可,長岡駅西口徒歩2分　,"",ヘア,https://beauty.hotpepper.jp/slnH000046424
カミカガク,0258-35-2044 ,新潟,長岡市,千手３-10-4鈴木ビル１F,アウト,架電可,長岡駅より徒歩12分。車5分。,"",ヘア,https://beauty.hotpepper.jp/slnH000377657
isea hair　（イセアヘア）,025-230-7008 ,新潟,新潟市,西区小針３-37-25-101,アウト,架電可,小針・蔦屋書店小針店近く,"",ヘア,https://beauty.hotpepper.jp/slnH000038320
grapefruitmoll　【グレープフルーツモール】,025-249-6637 ,新潟,新潟市,中央区紫竹１‐１７‐９,アウト,架電可,紫竹・中山誇線橋近く,"",ヘア,https://beauty.hotpepper.jp/slnH000042653
ＰＯＰ　（ポップ）,0258-36-1627 ,新潟,長岡市,台町１-9-12　NSビル２F,アウト,架電可,"台町1-9-12NSビル2F,3F tel　0258-36-1627","",ヘア,https://beauty.hotpepper.jp/slnH000036522
EVOLS (エヴォルス),025-288-5325 ,新潟,新潟市,中央区万代４‐１－３　プラザ２１ ３F,アウト,架電可,新潟駅より徒歩8分,"",ヘア,https://beauty.hotpepper.jp/slnH000329678
riche,0254-28-1810 ,新潟,新発田市,富塚町２－２０－２１,アウト,架電可,西新発田駅から徒歩15分　新発田インターから5分 ,"",ヘア,https://beauty.hotpepper.jp/slnH000362020
Cubic  【キュービック】　,0258-89-8133 ,新潟,長岡市,坂之上町２-5-11 2F,アウト,架電可,JR信越本線「長岡駅」徒歩４分,"",ヘア,https://beauty.hotpepper.jp/slnH000339134
Hair palace FUTABA　（ヘアーパレス　フタバ）,0120-803-208 ,新潟,新潟市,秋葉区美幸町３-6-2,アウト,架電可,JR新津駅徒歩10分,"",ヘア,https://beauty.hotpepper.jp/slnH000217276
tRUNK　（トランク）,0258-36-8200 ,新潟,長岡市,左近２‐５８,アウト,架電可,旧市役所通り・パーマーク斜め向かい・フェニックス大橋近く,"",ヘア,https://beauty.hotpepper.jp/slnH000046415
hair garden Rold 【ヘア ガーデン ロルド】,0258-86-7840 ,新潟,長岡市,喜多町土地区画整理事業地内4街区17画地,アウト,架電可,リナシエKITAMACHI内GU隣り,"",ヘア,https://beauty.hotpepper.jp/slnH000371630
la kutt zone（ラカットゾーン）,025-371-2525 ,新潟,新潟市,南区大通黄金４-1-19,アウト,架電可,黒埼インターから車で１０分,"",ヘア,https://beauty.hotpepper.jp/slnH000263265
hair space Sun-traP College　（サントラップ　カレッジ）,0800-800-5546 ,新潟,新潟市,中央区旭町通一番町754-3,アウト,架電可,市役所近く　新潟大学病院アメニティーモール内,"",ヘア,https://beauty.hotpepper.jp/slnH000278210
Hair Story RE:O,0256-55-4342 ,新潟,三条市,東本成寺21-36,アウト,架電可,新潟県央工業高校近く,"",ヘア,https://beauty.hotpepper.jp/slnH000362276
attic hair　（アティック　ヘア）,025-285-0966 ,新潟,新潟市,中央区上所上１‐７‐５８,アウト,架電可,バス停近江口 徒歩5分,"",ヘア,https://beauty.hotpepper.jp/slnH000099852
ときわ美容室,0258-66-6645 ,新潟,見附市,上新田町４６６－３３,アウト,架電可,見附８号沿い・セレスしぶや様のところを曲がった、アルゴ様ビル真裏,"",ヘア,https://beauty.hotpepper.jp/slnH000286820
NO（N）AME？（ノーネーム）,0258-94-4170 ,新潟,長岡市,弓町１-3-27,アウト,架電可,長岡駅東口から徒歩5分,"",ヘア,https://beauty.hotpepper.jp/slnH000194153
peigne　（ペーニュ）,0258-22-5272 ,新潟,長岡市,江陽２‐１２‐１４,アウト,架電可,長岡市江陽（蔵王橋通）,"",ヘア,https://beauty.hotpepper.jp/slnH000036882
bergamotto hair　（ベルガモット　ヘア）,025-272-2266 ,新潟,新潟市,東区小金町１-17-50 1階,アウト,架電可,竹尾ICから車で8分 赤道・ヤマダ電機近く,"",ヘア,https://beauty.hotpepper.jp/slnH000217217
DONA LINDA　（ドナリンダ）,025-223-5775 ,新潟,新潟市,中央区礎町通三ノ町２１３３番地,アウト,架電可,クロスパルにいがた斜め前,"",ヘア,https://beauty.hotpepper.jp/slnH000222018
Reax【リークス】,025-378-3688 ,新潟,新潟市,西区坂井東６－６－３,アウト,架電可,寺尾駅徒歩16分　新潟大学前徒歩17分,"",ヘア,https://beauty.hotpepper.jp/slnH000370841
美容室 MICHELLE　（ミッシェル）　　,025-248-8297 ,新潟,新潟市,中央区米山２-9-14-102,アウト,架電可,新潟駅徒歩10分,"",ヘア,https://beauty.hotpepper.jp/slnH000147749
ＯＵＴＲＥ　（アウトロー）,025-231-7341 ,新潟,新潟市,中央区関新３‐４‐３６,アウト,架電可,関屋ショッピングセンター内,"",ヘア,https://beauty.hotpepper.jp/slnH000037679
Ｒａｐｕｎｚｅｌ（ラプンツェル）,025-275-6752 ,新潟,新潟市,東区河渡本町１４－１３,アウト,架電可,河渡マーケットシティ近く。大形神社となり聖徳保育園様隣りです。,"",ヘア,https://beauty.hotpepper.jp/slnH000267985
MARKS　（マークス）,025-383-8352 ,新潟,新潟市,中央区沼垂東４-2-26-101,アウト,架電可,栗ノ木バイパス、沼垂四つ角からすぐ,"",ヘア,https://beauty.hotpepper.jp/slnH000238211
MAISON DE HAIR　NOTE（ノート）,025-284-0030 ,新潟,新潟市,中央区上近江４丁目13－19,アウト,架電可,女池インターから車で5分,"",ヘア,https://beauty.hotpepper.jp/slnH000301649
HAIR VINCULUM（ヘアーウィンクルム）,0250-25-7110 ,新潟,新潟市,秋葉区みそら野３-１－２,アウト,架電可,JR荻川駅より徒歩15分。車で2分。,"",ヘア,https://beauty.hotpepper.jp/slnH000307017
Huku hair,0256-64-7760 ,新潟,燕市,杣木3215-16,アウト,架電可,国道２８９号線、燕自動車学校向かい,"",ヘア,https://beauty.hotpepper.jp/slnH000373120
小さな美容室　ミルキー,0258-23-0017 ,新潟,長岡市,平島町５－４,アウト,架電可,平島・ニッサン前,"",ヘア,https://beauty.hotpepper.jp/slnH000304737
Hair Make Ravir　（ヘア　メイク　ラヴィール）,0258-47-2089 ,新潟,長岡市,青葉台５－１－１４,アウト,架電可,青葉台小学校前,"",ヘア,https://beauty.hotpepper.jp/slnH000304796
AJ HAIR(エージェーヘア),025-384-8202 ,新潟,新潟市,中央区弁天橋通３-1-16 　リンクス1-3,アウト,架電可,弁天ＩＣを亀田方面に向かい車で5分♪山潟小学校のすぐそばです。,"",ヘア,https://beauty.hotpepper.jp/slnH000290326
RAIMU イオン新潟東店,025-250-7575 ,新潟,新潟市,東区大形本町３-1-2,アウト,架電可,イオン新潟東店3階・げんき堂奥隣・モーリーファンタジーゲームセンター向かい,"",ヘア,https://beauty.hotpepper.jp/slnH000218650
nicotto HAIR ROOM(ニコットヘアールーム),025-385-7724 ,新潟,新潟市,中央区南出来島２－９－１３,アウト,架電可,女池ICより車で５分/DeKKY401より車で3分。南出来島ショッピングタウンそば。,"",ヘア,https://beauty.hotpepper.jp/slnH000320301
trois　（トロワ）,025-276-8139 ,新潟,新潟市,東区東中島２‐４‐１　キューピット石山,アウト,架電可,東新潟駅から徒歩1分,"",ヘア,https://beauty.hotpepper.jp/slnH000091441
Cut ONE　新潟大学前店　（カット　ワン）,025-269-7552 ,新潟,新潟市,西区大学南１-6675-2,アウト,架電可,新潟大学近く,"",ヘア,https://beauty.hotpepper.jp/slnH000144698
美容プラージュ　上越店 ,0255-22-2707 ,新潟,上越市,大字富岡５３９－７　カウボーイ上越店内１F,アウト,架電可,春日山駅徒歩10分,"",ヘア,https://beauty.hotpepper.jp/slnH000279505
美容AQA（アクア）中越　古正寺店　（アクア）,0258-27-9800 ,新潟,長岡市,古正寺１１２－１,アウト,架電可,古正寺ロンミヤコ内,"",ヘア,https://beauty.hotpepper.jp/slnH000087025
モダンタイムズ,0250-21-2727 ,新潟,新潟市,秋葉区美幸町２‐２‐１,アウト,架電可,新津駅西口から徒歩3分,"",ヘア,https://beauty.hotpepper.jp/slnH000207001
elegance【エレガンス】,0258-29-2555 ,新潟,長岡市,七日町字川原３７４A-３a,アウト,架電可,アクロスプラザ長岡七日町 原信様隣,"",ヘア,https://beauty.hotpepper.jp/slnH000036552
美容プラージュ　長岡店,0258-29-7188 ,新潟,長岡市,千秋１丁目１７２２－１　２F,アウト,架電可,長岡駅からバス7分,"",ヘア,https://beauty.hotpepper.jp/slnH000060218
あなたがキレイ,0250-21-7770 ,新潟,新潟市,秋葉区程島261-15,アウト,架電可,古津駅車4分,"",ヘア,https://beauty.hotpepper.jp/slnH000373142
Ｌｏｙｌｅ,025-775-7272 ,新潟,南魚沼市,六日町１４７８－１　ダイアパレス　２Ｆ,アウト,架電可,JR六日町駅から徒歩7分,"",ヘア,https://beauty.hotpepper.jp/slnH000201102
TRIBUTE360　（トリビュートサンロクマル）,025-277-6988 ,新潟,新潟市,東区粟山１-２０-２０,アウト,架電可,粟山第四銀行向かい/越後石山駅から徒歩10分,"",ヘア,https://beauty.hotpepper.jp/slnH000075574
AILE DORE　by m&m　（エルドール）,025-282-7155 ,新潟,新潟市,東区石山１丁目１－６７１－１,アウト,架電可,【東区】石山地区センター・図書館隣り,"",ヘア,https://beauty.hotpepper.jp/slnH000254365
Up! Hair Beauty's （アップヘアビューティーズ）,025-201-8805 ,新潟,新潟市,中央区東堀通六番町1038 2Ｆ,アウト,架電可,新潟市花園１－１－１CoCoLo万代地下１Ｆ,"",ヘア,https://beauty.hotpepper.jp/slnH000128158
Salon de Carrera,025-521-2911 ,新潟,上越市,寺町３‐１０‐１５　サンクス高田自在館　１F,アウト,架電可,高田駅から徒歩10分,"",ヘア,https://beauty.hotpepper.jp/slnH000213021
エフデ　デュズィエーム,0258-89-6969 ,新潟,長岡市,上除町甲1580-9,アウト,架電可,長岡バイパス喜多ICより車で５分,"",ヘア,https://beauty.hotpepper.jp/slnH000320295
VI-VA-CE,0256-61-0235 ,新潟,燕市,井土巻３‐５９‐１,アウト,架電可,燕三条駅徒歩7分,"",ヘア,https://beauty.hotpepper.jp/slnH000201426
BARBER SHOP 侍庵,0258-77-0641 ,新潟,長岡市,三和３丁目8-11,アウト,架電可,長岡市立劇場近く、カーブス長岡三和店様となり,"",ヘア,https://beauty.hotpepper.jp/slnH000366107
ノエル（noel）,0257-20-0075 ,新潟,柏崎市,東本町１‐１２‐２５,アウト,架電可,柏崎駅,"",ヘア,https://beauty.hotpepper.jp/slnH000204479
hair+relax nel-sole (ネルソー),0250-23-4238 ,新潟,新潟市,秋葉区荻野町１７-16　サンシーロ　テナント1階,アウト,架電可,JR信越線荻川駅徒歩10～15分、新潟市中央区・東区より車で20～30分,"",ヘア,https://beauty.hotpepper.jp/slnH000300090
COCO de COLOR ウオロク長岡店 (ココデカラー) ,0258-94-5090 ,新潟,長岡市,日赤町２丁目6-1　ウオロク長岡店内,アウト,架電可,長岡駅から徒歩15分　大手大橋東詰ウオロク 長岡店内,"",ヘア,https://beauty.hotpepper.jp/slnH000368821
be-can　（ビーキャン）,025-269-3939 ,新潟,新潟市,西区新通南３-6-15,アウト,架電可,信楽園病院近く！新通りインター降りて、車で3分程度。,"",ヘア,https://beauty.hotpepper.jp/slnH000229528
美容室ＡＱＵＡ（アクア）,025-230-1412 ,新潟,新潟市,西区小針５-3-15,アウト,架電可,小針小学校近く,"",ヘア,https://beauty.hotpepper.jp/slnH000366337
CREA,0255-22-7201 ,新潟,上越市,土橋１９１４‐３,アウト,架電可,春日山駅から徒歩20分,"",ヘア,https://beauty.hotpepper.jp/slnH000204086
グランツ．ヘア,0258-28-3336 ,新潟,長岡市,蓮潟４‐２‐１,アウト,架電可,長岡造形大近く、東京靴流通センタ―様となり,"",ヘア,https://beauty.hotpepper.jp/slnH000036567
MIU ishizumi 石積理美容室,0257-48-2520 ,新潟,柏崎市,西山町西山349-5,アウト,架電可,JR西山駅から徒歩１分,"",ヘア,https://beauty.hotpepper.jp/slnH000373941
CuBism Lab,025-520-4130 ,新潟,上越市,藤野新田３３６－１,アウト,架電可,北陸自動車道上越ＩＣから車で５分,"",ヘア,https://beauty.hotpepper.jp/slnH000338789
bloom vis　（ブルーム　ヴィス）,025-377-5564 ,新潟,新潟市,西区ときめき西１-6-7,アウト,架電可,ときめき西・保盛軒前,"",ヘア,https://beauty.hotpepper.jp/slnH000047971
metoro n-o-m-e(メトロノーム),025-231-4302 ,新潟,新潟市,小針西２－６－２９　１Ｆ,アウト,架電可,新潟交通バス小針自由が丘2分　ＪＲ小針駅徒歩10分,"",ヘア,https://beauty.hotpepper.jp/slnH000126888
イン東京　門前店,025-543-5055 ,新潟,上越市,関川東部下門前区画整備地内５０街区２１,アウト,架電可,北陸自動車道上越ICより車で約5分/JR直江津駅より車で約10分,"",ヘア,https://beauty.hotpepper.jp/slnH000275058
美容室　hana,025-531-3655 ,新潟,上越市,松村新田３‐５,アウト,架電可,直江津駅から徒歩20分,"",ヘア,https://beauty.hotpepper.jp/slnH000214613
TAKITA　本町店,025-523-3224 ,新潟,上越市,本町４‐１‐４,アウト,架電可,高田駅から徒歩5分,"",ヘア,https://beauty.hotpepper.jp/slnH000204115
LUSSO,025-530-8250 ,新潟,上越市,下門前1823,アウト,架電可,春日山駅から徒歩約40分、車10分,"",ヘア,https://beauty.hotpepper.jp/slnH000309552
Lily Parks 【リリーパークス】,025-755-5700 ,新潟,十日町市,子１６　のとや第１ビル１Ｆ,アウト,架電可,ＪＲ十日町駅から徒歩7分,"",ヘア,https://beauty.hotpepper.jp/slnH000253897
FUUBA,0256-33-5235 ,新潟,三条市,旭町１-１８-１,アウト,架電可,北三条駅から徒歩５分、東三条駅から徒歩8分,"",ヘア,https://beauty.hotpepper.jp/slnH000215125
miq Hair & Make up　直江津店,025-545-3925 ,新潟,上越市,下源入２７７‐５　イチコ直江津店内,アウト,架電可,直江津駅から車で5分【miq 直江津】,"",ヘア,https://beauty.hotpepper.jp/slnH000204804
hair BRAN,0256-33-1222 ,新潟,三条市,西本成寺２－４－１４ ＮＫタウン　ノースＡ１,アウト,架電可,【JR信越本線 三条駅から徒歩15分】【JR弥彦線 燕三条駅から車で15分】,"",ヘア,https://beauty.hotpepper.jp/slnH000222223
mint pleasant hair　（ミント プレザント ヘア）,0258-86-6330 ,新潟,長岡市,古正寺３－６４,アウト,架電可,古正寺　アミング様  斜め後ろ,"",ヘア,https://beauty.hotpepper.jp/slnH000135094
bloom　（ブルーム）,025-230-1475 ,新潟,新潟市,西区小針５－１６－８　高橋ビル２Ｆ,アウト,架電可,大堀幹線沿い・高橋ビル2Ｆ,"",ヘア,https://beauty.hotpepper.jp/slnH000126895
GRANT HAIR DESIGN　（グラント ヘア デザイン）,0258-32-5226 ,新潟,長岡市,花園１－５－２０,アウト,架電可,長岡駅から車で５分、帝京長岡高校近く,"",ヘア,https://beauty.hotpepper.jp/slnH000305861
MUSE'E LUNON,025-755-5722 ,新潟,十日町市,高田町２－１００－５３　ヴィラ・フォンテ１Ｆ,アウト,架電可,十日町駅から徒歩5分,"",ヘア,https://beauty.hotpepper.jp/slnH000337806
HAIR & BEAUTY SHOP 美庵　（ビアン）,0258-77-0641 ,新潟,長岡市,三和３－８－１１,アウト,架電可,長岡市立劇場近く、カーブス長岡三和店様となり,"",ヘア,https://beauty.hotpepper.jp/slnH000286370
tsumugi hair feels,025-530-7228 ,新潟,上越市,松村新田１３－３,アウト,架電可,直江津駅から徒歩３０分,"",ヘア,https://beauty.hotpepper.jp/slnH000351113
SEVENS SEA　（セブンズ シー）,0258-33-2788 ,新潟,長岡市,笹崎１-8-9,アウト,架電可,【宮内・笹崎】「ブック大清」様裏,"",ヘア,https://beauty.hotpepper.jp/slnH000238587
PecoRi HAIR ROOM　（ペコリ）,025-288-6604 ,新潟,新潟市,中央区網川原１-21-9,アウト,架電可,県庁近く・小嶋屋新潟店の横,"",ヘア,https://beauty.hotpepper.jp/slnH000224141
ポルト (Porte)　Hair& Make,0254-53-7757 ,新潟,村上市,田端町９‐４１,アウト,架電可,JR村上駅徒歩1分,"",ヘア,https://beauty.hotpepper.jp/slnH000203583
eit,025-542-9077 ,新潟,上越市,上中田997番地,アウト,架電可,上越妙高駅から車で5分,"",ヘア,https://beauty.hotpepper.jp/slnH000367995
Ｓalone・Ｄｉｎｏ,025-522-8246 ,新潟,上越市,春日山町２‐７３０,アウト,架電可,春日山駅から徒歩15分,"",ヘア,https://beauty.hotpepper.jp/slnH000213005
美容室t&t　（ティーアンドティー）,025-287-3866 ,新潟,新潟市,中央区姥ケ山１‐４‐８,アウト,架電可,新潟駅／宮本橋バス停,"",ヘア,https://beauty.hotpepper.jp/slnH000175638
CHAITE　Hair　Specialty,0257-21-7923 ,新潟,柏崎市,日吉町３‐３５,アウト,架電可,柏崎駅,"",ヘア,https://beauty.hotpepper.jp/slnH000206781
hair salon e'clat(エクラ）,025-241-8787 ,新潟,新潟市,中央区幸町１１－１６　ヴィラコート７　１F,アウト,架電可,幸町セブンイレブン近く,"",ヘア,https://beauty.hotpepper.jp/slnH000277966
Benti （ベンティ）,025-383-6425 ,新潟,新潟市,中央区上近江４-15-23-1,アウト,架電可,DeKKY401から徒歩1分,"",ヘア,https://beauty.hotpepper.jp/slnH000322718
COCO de COLOR 長岡店 (ココデカラー),0258-86-6854 ,新潟,長岡市,寺島町６２３,アウト,架電可,古正寺エリア　スーパーオートバックス長岡店手前左側、スタジオアリス敷地内裏側,"",ヘア,https://beauty.hotpepper.jp/slnH000299746
TAKITA　直江津店,025-543-2537 ,新潟,上越市,中央２‐２‐３,アウト,架電可,直江津駅から徒歩7分,"",ヘア,https://beauty.hotpepper.jp/slnH000204107
A-one,025-526-0888 ,新潟,上越市,春日山町３-24-37,アウト,架電可,春日山駅から徒歩12分,"",ヘア,https://beauty.hotpepper.jp/slnH000375360
atelier deux　（アトリエ　ドゥ）,0258-28-1366 ,新潟,長岡市,堤町5-32,アウト,架電可,蔵王橋西詰・セブンイレブン堤町店近く、焼肉明前、全面ブラックの建物,"",ヘア,https://beauty.hotpepper.jp/slnH000047357
C'est La Vie Hair　（セラヴィ　ヘアー）,025-256-8020 ,新潟,新潟市,中央区米山３－８－７　クレセント米山１０１,アウト,架電可,新潟駅南口より徒歩7分,"",ヘア,https://beauty.hotpepper.jp/slnH000263801
Ange(アンジュ）,025-268-4477 ,新潟,新潟市,西区寺尾東１-1-3グランフォーレ寺尾101,アウト,架電可,寺尾駅から車で５分、けんしん寺尾東支店様隣,"",ヘア,https://beauty.hotpepper.jp/slnH000324467
美容室マニッシュ,0256-38-8070 ,新潟,三条市,西大崎１‐２０‐１５,アウト,架電可,東三条駅から徒歩15分,"",ヘア,https://beauty.hotpepper.jp/slnH000211647
J club　hair art　（ジェイクラブ　ヘア　アート）,025-233-3843 ,新潟,新潟市,西区小針４‐５‐４,アウト,架電可,黒埼インターを下りアピタをこえ、車で約3分,"",ヘア,https://beauty.hotpepper.jp/slnH000037677
Hair&Make CHIC,0254-62-2970 ,新潟,村上市,坂町2572-12,アウト,架電可,坂町駅から徒歩13分,"",ヘア,https://beauty.hotpepper.jp/slnH000371311
ALICE by Hair More,025-530-7783 ,新潟,上越市,春日山町３－１９－４,アウト,架電可,春日山駅から徒歩3分,"",ヘア,https://beauty.hotpepper.jp/slnH000326444
ORIS Hair&Make　（オリス 　ヘアー　アンド　メイク）,025-283-0607 ,新潟,新潟市,中央区出来島２-3-8,アウト,架電可,出来島・新潟しんきん様（笹出線沿い）隣,"",ヘア,https://beauty.hotpepper.jp/slnH000159779
FREUD'S　hair　（フロイズ）,025-269-3571 ,新潟,新潟市,西区五十嵐東１‐９‐２,アウト,架電可,西大通り沿い／utica五十嵐店隣,"",ヘア,https://beauty.hotpepper.jp/slnH000096836
Ｈａｉｒ Ｈｏｍｅ ＮＯ，８,0256-55-5807 ,新潟,三条市,新光町１５－１５,アウト,架電可,東三条駅から徒歩２０分,"",ヘア,https://beauty.hotpepper.jp/slnH000329000
LUXE　（リュクス）,025-224-8083 ,新潟,新潟市,中央区下大川前通三ノ町2230 Bridges2F,アウト,架電可,新潟グランドホテル隣り,"",ヘア,https://beauty.hotpepper.jp/slnH000142701
美容室JENTE,0256-47-1786 ,新潟,三条市,東三条１丁目５－１　川商ビル１Ｆ　Ｂ室,アウト,架電可,ＪＲ東三条駅徒歩５分,"",ヘア,https://beauty.hotpepper.jp/slnH000275797
Hair Room LANKA【ヘアルームランカ】,0254-28-8185 ,新潟,新発田市,舟入町３丁目４－６,アウト,架電可,西新発田駅から徒歩20分,"",ヘア,https://beauty.hotpepper.jp/slnH000310940
Chicka luce,0256-47-6464 ,新潟,三条市,帯織３７４６－１,アウト,架電可,帯織駅から徒歩７分,"",ヘア,https://beauty.hotpepper.jp/slnH000304109
ＸＴＲＥＭＥ　（エクストリーム）,0258-37-0309 ,新潟,長岡市,福住２-3-25,アウト,架電可,長岡駅近く・北陸学園向い,"",ヘア,https://beauty.hotpepper.jp/slnH000036869
hair &　make SALAgarlen,0256-47-1191 ,新潟,三条市,上須頃１４５－１,アウト,架電可,燕三条駅から車で3分。ガストさん付近。,"",ヘア,https://beauty.hotpepper.jp/slnH000375681
belles cheveux by HISAO,0254-23-3275 ,新潟,新発田市,住吉町１‐８‐３,アウト,架電可,西新発田駅から徒歩３０分,"",ヘア,https://beauty.hotpepper.jp/slnH000201422
モアクール・ファミリー　長岡本店,0258-36-5055 ,新潟,長岡市,日赤町１-4-6,アウト,架電可,ＪＲ長岡駅徒歩10分,"",ヘア,https://beauty.hotpepper.jp/slnH000276137
HAIR STUDIO mush　（マッシュ）,0258-47-6473 ,新潟,長岡市,青葉台３-１５-３,アウト,架電可,長岡ニュータウン・青葉台小学校、たこ公園近く,"",ヘア,https://beauty.hotpepper.jp/slnH000055898
GARLAND (ガーランド),0250-47-8005 ,新潟,新潟市,秋葉区中野５-3-19,アウト,架電可,荻川駅より徒歩5分,"",ヘア,https://beauty.hotpepper.jp/slnH000302110
マグネティカ（Magnetica）,025-552-3977 ,新潟,糸魚川市,中央２‐２‐１２,アウト,架電可,糸魚川駅から徒歩7分,"",ヘア,https://beauty.hotpepper.jp/slnH000201428
red mint city(レッドミントシティ）,025-369-4677 ,新潟,新潟市,西区鳥原87-2,アウト,架電可,黒崎中学校近く,"",ヘア,https://beauty.hotpepper.jp/slnH000365358
Blue Daisy　（ブルーデイジー）,025-378-8233 ,新潟,新潟市,中央区秣川岸通２‐２３８１,アウト,架電可,柳都大橋近く,"",ヘア,https://beauty.hotpepper.jp/slnH000098849
miq hair&makeup　高田店,025-522-7439 ,新潟,上越市,とよば239-1　バロー上越モール内,アウト,架電可,高田駅から徒歩30分,"",ヘア,https://beauty.hotpepper.jp/slnH000203382
hair room tonttu　（トントゥ）,0258-89-7284 ,新潟,見附市,本所１－１－１２,アウト,架電可,見附駅より徒歩10分、クリーニングふらんせ様隣,"",ヘア,https://beauty.hotpepper.jp/slnH000292944
Ｌｅ　Coeur　柏崎店,0257-41-6696 ,新潟,柏崎市,茨目１-11-20,アウト,架電可,茨目駅徒歩７分、柏崎自動車学校の並び,"",ヘア,https://beauty.hotpepper.jp/slnH000241055
barber mo-zo（バーバー　モーゾ）,025-241-6516 ,新潟,新潟市,中央区花園１－２－２ガレッソ２Ｆ,アウト,架電可,新潟駅東側連絡通路直結。万代口のロイヤルホストの２Ｆ,"",ヘア,https://beauty.hotpepper.jp/slnH000246357
K-carinu★(ケ・カリーヌ),025-229-3353 ,新潟,新潟市,中央区古町通四番町632　2F,アウト,架電可,第四銀行古町支店近くセブンイレブン斜め向かいHarriss隣りのビル2階,"",ヘア,https://beauty.hotpepper.jp/slnH000216295
crea　アコーレ店,025-521-2574 ,新潟,上越市,富岡３４５８　アコーレ１Ｆ,アウト,架電可,春日山から徒歩15分,"",ヘア,https://beauty.hotpepper.jp/slnH000339743
Taneru  新潟秋葉店(タネル　ニイガタアキハテン),0250-47-7713 ,新潟,新潟市,秋葉区新津本町１-5-9,アウト,架電可,新津駅東口から徒歩3分 ,"",ヘア,https://beauty.hotpepper.jp/slnH000342920
ヘアルーム　ShaRa　（シャラ）,025-269-4253 ,新潟,新潟市,西区坂井東４-27-7,アウト,架電可,坂井東小学校グラウンド側から亀貝線へ抜ける道,"",ヘア,https://beauty.hotpepper.jp/slnH000053889
美容室　十色,0254-57-1002 ,新潟,村上市,羽黒町１０－５,アウト,架電可,村上駅から徒歩１５分,"",ヘア,https://beauty.hotpepper.jp/slnH000358869
COCO de COLOR 新潟紫竹店 (ココデカラー),025-385-6699 ,新潟,新潟市,中央区本馬越８－１４,アウト,架電可,新潟駅南、馬越エリア,"",ヘア,https://beauty.hotpepper.jp/slnH000327407
Hair Resort fragrance　（ヘアリゾートフレグランス）,0258-66-4334 ,新潟,長岡市,中之島1909-35,アウト,架電可,長岡市中之島体育館近く,"",ヘア,https://beauty.hotpepper.jp/slnH000293891
Hair More East,025-520-7353 ,新潟,上越市,子安新田４‐３５‐１F,アウト,架電可,鴨島ＩＣより車で３分,"",ヘア,https://beauty.hotpepper.jp/slnH000214053
Lucea,025-520-7678 ,新潟,上越市,土橋2502,アウト,架電可,高田駅から徒歩25分,"",ヘア,https://beauty.hotpepper.jp/slnH000206886
Ｈａｉｒ　Ｍｏｒｅ,025-544-6116 ,新潟,上越市,安江１‐３‐１,アウト,架電可,上越ＩＣから車で５分,"",ヘア,https://beauty.hotpepper.jp/slnH000214054
Merci for hair　（メルシー　フォー　ヘア）,0258-66-2381 ,新潟,見附市,今町５－２７－２５,アウト,架電可,見附・国道８号線沿い（スーパーマルイ国道店様、ひらせ酒店様近く),"",ヘア,https://beauty.hotpepper.jp/slnH000313102
Hair Make Studio Sphere　（スフィア）,070-4403-3986 ,新潟,長岡市,西神田町1番4号,アウト,架電可,国道８号線沿い（西神田歩道橋より川崎方面へ２軒目）、神田小学校向かい,"",ヘア,https://beauty.hotpepper.jp/slnH000231738
美容室　KaRiF　春日山店,0120-82-5650 ,新潟,上越市,春日山町３‐１‐２１,アウト,架電可,春日山駅から徒歩1分,"",ヘア,https://beauty.hotpepper.jp/slnH000211674
acquirert HAIR STUDIO(アキュアート ヘア スタジオ),0257-32-6020 ,新潟,柏崎市,扇町4-57,アウト,架電可,柏崎蔦谷様の裏通り　　扇町デイリーストア様近く　　黄色いお店です。,"",ヘア,https://beauty.hotpepper.jp/slnH000203556
Hair＆Care Dear （ヘアアンドケア ディアー）,0258-81-0155 ,新潟,小千谷市,城内４-1-55西沢ビル,アウト,架電可,ＪＡおぢや様となり,"",ヘア,https://beauty.hotpepper.jp/slnH000344180
マスダ美容室　北新井店,0120-70-0336 ,新潟,妙高市,上百々１-3-30,アウト,架電可,北新井駅から徒歩20分,"",ヘア,https://beauty.hotpepper.jp/slnH000370857
HAIR SALON Rayures,0256-47-1376 ,新潟,三条市,林町１-6-18,アウト,架電可,北三条駅徒歩７分・東三条駅徒歩８分,"",ヘア,https://beauty.hotpepper.jp/slnH000372008
UNCLOSE　（アンクローズ）,025-278-7311 ,新潟,新潟市,中央区弁天橋通３-10-6,アウト,架電可,姥が山インターから車で３分,"",ヘア,https://beauty.hotpepper.jp/slnH000140501
Ｒｅｐｏｓ　（ルポ）,0120-91-0305 ,新潟,長岡市,大島本町５‐１１８‐６,アウト,架電可,大島長生橋通り、ファミリーマート様近く,"",ヘア,https://beauty.hotpepper.jp/slnH000047395
Hair　Esthe　RURI,025-772-2194 ,新潟,南魚沼市,六日町駅通り　サンプラザビル１Ｆ,アウト,架電可,JR六日町駅東口から徒歩2分   【直通tel：0120-219-488】,"",ヘア,https://beauty.hotpepper.jp/slnH000204532
髪創 SLOW　（カミソウ　スロウ）,025-276-0076 ,新潟,新潟市,東区東中野山３-3-11,アウト,架電可,JR東新潟駅 徒歩10分,"",ヘア,https://beauty.hotpepper.jp/slnH000218107
